[
	{
		"ID": 1,
		"Name": "Matthew",
		"DialogID": 44444,
		"UnlockConditions": [
			{
				"FetterId": 1,
				"FetterLevel": 10
			},
			{
				"FetterId": 2,
				"FetterLevel": 10
			},
			{
				"FetterId": 3,
				"FetterLevel": 10
			},
			{
				"FetterId": 4,
				"FetterLevel": 10
			},
			{
				"FetterId": 5,
				"FetterLevel": 10
			}
		],
		"Reward": [
			{
				"GoodsType": "GoodsType_Gold",
				"Id": 0,
				"Count": 3000
			}
		]
	},
	{
		"ID": 3,
		"Name": "Grenier",
		"DialogID": 44444,
		"UnlockConditions": [
			{
				"FetterId": 6,
				"FetterLevel": 10
			},
			{
				"FetterId": 7,
				"FetterLevel": 10
			},
			{
				"FetterId": 8,
				"FetterLevel": 10
			},
			{
				"FetterId": 9,
				"FetterLevel": 10
			},
			{
				"FetterId": 10,
				"FetterLevel": 10
			}
		],
		"Reward": [
			{
				"GoodsType": "GoodsType_Gold",
				"Id": 0,
				"Count": 3000
			}
		]
	},
	{
		"ID": 4,
		"Name": "Almeda",
		"DialogID": 44444,
		"UnlockConditions": [
			{
				"FetterId": 11,
				"FetterLevel": 10
			},
			{
				"FetterId": 12,
				"FetterLevel": 10
			},
			{
				"FetterId": 13,
				"FetterLevel": 10
			},
			{
				"FetterId": 14,
				"FetterLevel": 10
			},
			{
				"FetterId": 15,
				"FetterLevel": 10
			}
		],
		"Reward": [
			{
				"GoodsType": "GoodsType_Gold",
				"Id": 0,
				"Count": 4000
			}
		]
	},
	{
		"ID": 5,
		"Name": "Chris",
		"DialogID": 44444,
		"UnlockConditions": [
			{
				"FetterId": 16,
				"FetterLevel": 10
			},
			{
				"FetterId": 17,
				"FetterLevel": 10
			},
			{
				"FetterId": 18,
				"FetterLevel": 10
			},
			{
				"FetterId": 19,
				"FetterLevel": 10
			},
			{
				"FetterId": 20,
				"FetterLevel": 10
			}
		],
		"Reward": [
			{
				"GoodsType": "GoodsType_Gold",
				"Id": 0,
				"Count": 5000
			}
		]
	},
	{
		"ID": 6,
		"Name": "Leon",
		"DialogID": 44444,
		"UnlockConditions": [
			{
				"FetterId": 21,
				"FetterLevel": 10
			},
			{
				"FetterId": 22,
				"FetterLevel": 10
			},
			{
				"FetterId": 23,
				"FetterLevel": 10
			},
			{
				"FetterId": 24,
				"FetterLevel": 10
			},
			{
				"FetterId": 25,
				"FetterLevel": 10
			}
		],
		"Reward": [
			{
				"GoodsType": "GoodsType_Gold",
				"Id": 0,
				"Count": 5000
			}
		]
	},
	{
		"ID": 7,
		"Name": "Bernhardt",
		"DialogID": 44444,
		"UnlockConditions": [
			{
				"FetterId": 26,
				"FetterLevel": 10
			},
			{
				"FetterId": 27,
				"FetterLevel": 10
			},
			{
				"FetterId": 28,
				"FetterLevel": 10
			},
			{
				"FetterId": 29,
				"FetterLevel": 10
			},
			{
				"FetterId": 30,
				"FetterLevel": 10
			}
		],
		"Reward": [
			{
				"GoodsType": "GoodsType_Gold",
				"Id": 0,
				"Count": 5000
			}
		]
	},
	{
		"ID": 8,
		"Name": "Lana",
		"DialogID": 44444,
		"UnlockConditions": [
			{
				"FetterId": 31,
				"FetterLevel": 10
			},
			{
				"FetterId": 32,
				"FetterLevel": 10
			},
			{
				"FetterId": 33,
				"FetterLevel": 10
			},
			{
				"FetterId": 34,
				"FetterLevel": 10
			},
			{
				"FetterId": 35,
				"FetterLevel": 10
			}
		],
		"Reward": [
			{
				"GoodsType": "GoodsType_Gold",
				"Id": 0,
				"Count": 5000
			}
		]
	},
	{
		"ID": 9,
		"Name": "Bozel",
		"DialogID": 44444,
		"UnlockConditions": [
			{
				"FetterId": 36,
				"FetterLevel": 10
			},
			{
				"FetterId": 37,
				"FetterLevel": 10
			},
			{
				"FetterId": 38,
				"FetterLevel": 10
			},
			{
				"FetterId": 39,
				"FetterLevel": 10
			},
			{
				"FetterId": 40,
				"FetterLevel": 10
			}
		],
		"Reward": [
			{
				"GoodsType": "GoodsType_Gold",
				"Id": 0,
				"Count": 5000
			}
		]
	},
	{
		"ID": 10,
		"Name": "Ledin",
		"DialogID": 44444,
		"UnlockConditions": [
			{
				"FetterId": 41,
				"FetterLevel": 10
			},
			{
				"FetterId": 42,
				"FetterLevel": 10
			},
			{
				"FetterId": 43,
				"FetterLevel": 10
			},
			{
				"FetterId": 44,
				"FetterLevel": 10
			},
			{
				"FetterId": 45,
				"FetterLevel": 10
			}
		],
		"Reward": [
			{
				"GoodsType": "GoodsType_Gold",
				"Id": 0,
				"Count": 5000
			}
		]
	},
	{
		"ID": 11,
		"Name": "Narm",
		"DialogID": 44444,
		"UnlockConditions": [
			{
				"FetterId": 46,
				"FetterLevel": 10
			},
			{
				"FetterId": 47,
				"FetterLevel": 10
			},
			{
				"FetterId": 48,
				"FetterLevel": 10
			},
			{
				"FetterId": 49,
				"FetterLevel": 10
			},
			{
				"FetterId": 50,
				"FetterLevel": 10
			}
		],
		"Reward": [
			{
				"GoodsType": "GoodsType_Gold",
				"Id": 0,
				"Count": 5000
			}
		]
	},
	{
		"ID": 12,
		"Name": "Elwin",
		"DialogID": 44444,
		"UnlockConditions": [
			{
				"FetterId": 51,
				"FetterLevel": 10
			},
			{
				"FetterId": 52,
				"FetterLevel": 10
			},
			{
				"FetterId": 53,
				"FetterLevel": 10
			},
			{
				"FetterId": 54,
				"FetterLevel": 10
			},
			{
				"FetterId": 55,
				"FetterLevel": 10
			}
		],
		"Reward": [
			{
				"GoodsType": "GoodsType_Gold",
				"Id": 0,
				"Count": 5000
			}
		]
	},
	{
		"ID": 13,
		"Name": "Hein",
		"DialogID": 44444,
		"UnlockConditions": [
			{
				"FetterId": 56,
				"FetterLevel": 10
			},
			{
				"FetterId": 57,
				"FetterLevel": 10
			},
			{
				"FetterId": 58,
				"FetterLevel": 10
			},
			{
				"FetterId": 59,
				"FetterLevel": 10
			},
			{
				"FetterId": 60,
				"FetterLevel": 10
			}
		],
		"Reward": [
			{
				"GoodsType": "GoodsType_Gold",
				"Id": 0,
				"Count": 5000
			}
		]
	},
	{
		"ID": 14,
		"Name": "Cherie",
		"DialogID": 44444,
		"UnlockConditions": [
			{
				"FetterId": 61,
				"FetterLevel": 10
			},
			{
				"FetterId": 62,
				"FetterLevel": 10
			},
			{
				"FetterId": 63,
				"FetterLevel": 10
			},
			{
				"FetterId": 64,
				"FetterLevel": 10
			},
			{
				"FetterId": 65,
				"FetterLevel": 10
			}
		],
		"Reward": [
			{
				"GoodsType": "GoodsType_Gold",
				"Id": 0,
				"Count": 5000
			}
		]
	},
	{
		"ID": 15,
		"Name": "Liana",
		"DialogID": 44444,
		"UnlockConditions": [
			{
				"FetterId": 66,
				"FetterLevel": 10
			},
			{
				"FetterId": 67,
				"FetterLevel": 10
			},
			{
				"FetterId": 68,
				"FetterLevel": 10
			},
			{
				"FetterId": 69,
				"FetterLevel": 10
			},
			{
				"FetterId": 70,
				"FetterLevel": 10
			}
		],
		"Reward": [
			{
				"GoodsType": "GoodsType_Gold",
				"Id": 0,
				"Count": 5000
			}
		]
	},
	{
		"ID": 16,
		"Name": "Lance",
		"DialogID": 44444,
		"UnlockConditions": [
			{
				"FetterId": 71,
				"FetterLevel": 10
			},
			{
				"FetterId": 72,
				"FetterLevel": 10
			},
			{
				"FetterId": 73,
				"FetterLevel": 10
			},
			{
				"FetterId": 74,
				"FetterLevel": 10
			},
			{
				"FetterId": 75,
				"FetterLevel": 10
			}
		],
		"Reward": [
			{
				"GoodsType": "GoodsType_Gold",
				"Id": 0,
				"Count": 5000
			}
		]
	},
	{
		"ID": 17,
		"Name": "Egbert",
		"DialogID": 44444,
		"UnlockConditions": [
			{
				"FetterId": 76,
				"FetterLevel": 10
			},
			{
				"FetterId": 77,
				"FetterLevel": 10
			},
			{
				"FetterId": 78,
				"FetterLevel": 10
			},
			{
				"FetterId": 79,
				"FetterLevel": 10
			},
			{
				"FetterId": 80,
				"FetterLevel": 10
			}
		],
		"Reward": [
			{
				"GoodsType": "GoodsType_Gold",
				"Id": 0,
				"Count": 5000
			}
		]
	},
	{
		"ID": 18,
		"Name": "Imelda",
		"DialogID": 44444,
		"UnlockConditions": [
			{
				"FetterId": 81,
				"FetterLevel": 10
			},
			{
				"FetterId": 82,
				"FetterLevel": 10
			},
			{
				"FetterId": 83,
				"FetterLevel": 10
			},
			{
				"FetterId": 84,
				"FetterLevel": 10
			},
			{
				"FetterId": 85,
				"FetterLevel": 10
			}
		],
		"Reward": [
			{
				"GoodsType": "GoodsType_Gold",
				"Id": 0,
				"Count": 5000
			}
		]
	},
	{
		"ID": 19,
		"Name": "Lester",
		"DialogID": 44444,
		"UnlockConditions": [
			{
				"FetterId": 86,
				"FetterLevel": 10
			},
			{
				"FetterId": 87,
				"FetterLevel": 10
			},
			{
				"FetterId": 88,
				"FetterLevel": 10
			},
			{
				"FetterId": 89,
				"FetterLevel": 10
			},
			{
				"FetterId": 90,
				"FetterLevel": 10
			}
		],
		"Reward": [
			{
				"GoodsType": "GoodsType_Gold",
				"Id": 0,
				"Count": 5000
			}
		]
	},
	{
		"ID": 20,
		"Name": "Sonya",
		"DialogID": 44444,
		"UnlockConditions": [
			{
				"FetterId": 91,
				"FetterLevel": 10
			},
			{
				"FetterId": 92,
				"FetterLevel": 10
			},
			{
				"FetterId": 93,
				"FetterLevel": 10
			},
			{
				"FetterId": 94,
				"FetterLevel": 10
			},
			{
				"FetterId": 95,
				"FetterLevel": 10
			}
		],
		"Reward": [
			{
				"GoodsType": "GoodsType_Gold",
				"Id": 0,
				"Count": 5000
			}
		]
	},
	{
		"ID": 21,
		"Name": "Vargas",
		"DialogID": 44444,
		"UnlockConditions": [
			{
				"FetterId": 96,
				"FetterLevel": 10
			},
			{
				"FetterId": 97,
				"FetterLevel": 10
			},
			{
				"FetterId": 98,
				"FetterLevel": 10
			},
			{
				"FetterId": 99,
				"FetterLevel": 10
			},
			{
				"FetterId": 100,
				"FetterLevel": 10
			}
		],
		"Reward": [
			{
				"GoodsType": "GoodsType_Gold",
				"Id": 0,
				"Count": 5000
			}
		]
	},
	{
		"ID": 22,
		"Name": "Jessica",
		"DialogID": 44444,
		"UnlockConditions": [
			{
				"FetterId": 101,
				"FetterLevel": 10
			},
			{
				"FetterId": 102,
				"FetterLevel": 10
			},
			{
				"FetterId": 103,
				"FetterLevel": 10
			},
			{
				"FetterId": 104,
				"FetterLevel": 10
			},
			{
				"FetterId": 105,
				"FetterLevel": 10
			}
		],
		"Reward": [
			{
				"GoodsType": "GoodsType_Gold",
				"Id": 0,
				"Count": 5000
			}
		]
	},
	{
		"ID": 23,
		"Name": "Rohga",
		"DialogID": 44444,
		"UnlockConditions": [
			{
				"FetterId": 106,
				"FetterLevel": 10
			},
			{
				"FetterId": 107,
				"FetterLevel": 10
			},
			{
				"FetterId": 108,
				"FetterLevel": 10
			},
			{
				"FetterId": 109,
				"FetterLevel": 10
			},
			{
				"FetterId": 110,
				"FetterLevel": 10
			}
		],
		"Reward": [
			{
				"GoodsType": "GoodsType_Gold",
				"Id": 0,
				"Count": 5000
			}
		]
	},
	{
		"ID": 24,
		"Name": "Scott",
		"DialogID": 44444,
		"UnlockConditions": [
			{
				"FetterId": 111,
				"FetterLevel": 10
			},
			{
				"FetterId": 112,
				"FetterLevel": 10
			},
			{
				"FetterId": 113,
				"FetterLevel": 10
			},
			{
				"FetterId": 114,
				"FetterLevel": 10
			},
			{
				"FetterId": 115,
				"FetterLevel": 10
			}
		],
		"Reward": [
			{
				"GoodsType": "GoodsType_Gold",
				"Id": 0,
				"Count": 5000
			}
		]
	},
	{
		"ID": 25,
		"Name": "Altemuller",
		"DialogID": 44444,
		"UnlockConditions": [
			{
				"FetterId": 116,
				"FetterLevel": 10
			},
			{
				"FetterId": 117,
				"FetterLevel": 10
			},
			{
				"FetterId": 118,
				"FetterLevel": 10
			},
			{
				"FetterId": 119,
				"FetterLevel": 10
			},
			{
				"FetterId": 120,
				"FetterLevel": 10
			}
		],
		"Reward": [
			{
				"GoodsType": "GoodsType_Gold",
				"Id": 0,
				"Count": 5000
			}
		]
	},
	{
		"ID": 26,
		"Name": "Luna",
		"DialogID": 44444,
		"UnlockConditions": [
			{
				"FetterId": 121,
				"FetterLevel": 10
			},
			{
				"FetterId": 122,
				"FetterLevel": 10
			},
			{
				"FetterId": 123,
				"FetterLevel": 10
			},
			{
				"FetterId": 124,
				"FetterLevel": 10
			},
			{
				"FetterId": 125,
				"FetterLevel": 10
			}
		],
		"Reward": [
			{
				"GoodsType": "GoodsType_Gold",
				"Id": 0,
				"Count": 5000
			}
		]
	},
	{
		"ID": 27,
		"Name": "Dieharte",
		"DialogID": 44444,
		"UnlockConditions": [
			{
				"FetterId": 126,
				"FetterLevel": 10
			},
			{
				"FetterId": 127,
				"FetterLevel": 10
			},
			{
				"FetterId": 128,
				"FetterLevel": 10
			},
			{
				"FetterId": 129,
				"FetterLevel": 10
			},
			{
				"FetterId": 130,
				"FetterLevel": 10
			}
		],
		"Reward": [
			{
				"GoodsType": "GoodsType_Gold",
				"Id": 0,
				"Count": 5000
			}
		]
	},
	{
		"ID": 28,
		"Name": "Zerida",
		"DialogID": 44444,
		"UnlockConditions": [
			{
				"FetterId": 131,
				"FetterLevel": 10
			},
			{
				"FetterId": 132,
				"FetterLevel": 10
			},
			{
				"FetterId": 133,
				"FetterLevel": 10
			},
			{
				"FetterId": 134,
				"FetterLevel": 10
			},
			{
				"FetterId": 135,
				"FetterLevel": 10
			}
		],
		"Reward": [
			{
				"GoodsType": "GoodsType_Gold",
				"Id": 0,
				"Count": 5000
			}
		]
	},
	{
		"ID": 29,
		"Name": "Tiaris",
		"DialogID": 44444,
		"UnlockConditions": [
			{
				"FetterId": 136,
				"FetterLevel": 10
			},
			{
				"FetterId": 137,
				"FetterLevel": 10
			},
			{
				"FetterId": 138,
				"FetterLevel": 10
			},
			{
				"FetterId": 139,
				"FetterLevel": 10
			},
			{
				"FetterId": 140,
				"FetterLevel": 10
			}
		],
		"Reward": [
			{
				"GoodsType": "GoodsType_Gold",
				"Id": 0,
				"Count": 5000
			}
		]
	},
	{
		"ID": 30,
		"Name": "Liffany",
		"DialogID": 44444,
		"UnlockConditions": [
			{
				"FetterId": 141,
				"FetterLevel": 10
			},
			{
				"FetterId": 142,
				"FetterLevel": 10
			},
			{
				"FetterId": 143,
				"FetterLevel": 10
			},
			{
				"FetterId": 144,
				"FetterLevel": 10
			},
			{
				"FetterId": 145,
				"FetterLevel": 10
			}
		],
		"Reward": [
			{
				"GoodsType": "GoodsType_Gold",
				"Id": 0,
				"Count": 5000
			}
		]
	},
	{
		"ID": 31,
		"Name": "Sophia",
		"DialogID": 44444,
		"UnlockConditions": [
			{
				"FetterId": 146,
				"FetterLevel": 10
			},
			{
				"FetterId": 147,
				"FetterLevel": 10
			},
			{
				"FetterId": 148,
				"FetterLevel": 10
			},
			{
				"FetterId": 149,
				"FetterLevel": 10
			},
			{
				"FetterId": 150,
				"FetterLevel": 10
			}
		],
		"Reward": [
			{
				"GoodsType": "GoodsType_Gold",
				"Id": 0,
				"Count": 5000
			}
		]
	},
	{
		"ID": 32,
		"Name": "Emerick",
		"DialogID": 44444,
		"UnlockConditions": [
			{
				"FetterId": 151,
				"FetterLevel": 10
			},
			{
				"FetterId": 152,
				"FetterLevel": 10
			},
			{
				"FetterId": 153,
				"FetterLevel": 10
			},
			{
				"FetterId": 154,
				"FetterLevel": 10
			},
			{
				"FetterId": 155,
				"FetterLevel": 10
			}
		],
		"Reward": [
			{
				"GoodsType": "GoodsType_Gold",
				"Id": 0,
				"Count": 5000
			}
		]
	},
	{
		"ID": 33,
		"Name": "Freya",
		"DialogID": 44444,
		"UnlockConditions": [
			{
				"FetterId": 156,
				"FetterLevel": 10
			},
			{
				"FetterId": 157,
				"FetterLevel": 10
			},
			{
				"FetterId": 158,
				"FetterLevel": 10
			},
			{
				"FetterId": 159,
				"FetterLevel": 10
			},
			{
				"FetterId": 160,
				"FetterLevel": 10
			}
		],
		"Reward": [
			{
				"GoodsType": "GoodsType_Gold",
				"Id": 0,
				"Count": 5000
			}
		]
	},
	{
		"ID": 34,
		"Name": "Kirikaze",
		"DialogID": 44444,
		"UnlockConditions": [
			{
				"FetterId": 161,
				"FetterLevel": 10
			},
			{
				"FetterId": 162,
				"FetterLevel": 10
			},
			{
				"FetterId": 163,
				"FetterLevel": 10
			},
			{
				"FetterId": 164,
				"FetterLevel": 10
			},
			{
				"FetterId": 165,
				"FetterLevel": 10
			}
		],
		"Reward": [
			{
				"GoodsType": "GoodsType_Gold",
				"Id": 0,
				"Count": 5000
			}
		]
	},
	{
		"ID": 35,
		"Name": "Angelica",
		"DialogID": 44444,
		"UnlockConditions": [
			{
				"FetterId": 166,
				"FetterLevel": 10
			},
			{
				"FetterId": 167,
				"FetterLevel": 10
			},
			{
				"FetterId": 168,
				"FetterLevel": 10
			},
			{
				"FetterId": 169,
				"FetterLevel": 10
			},
			{
				"FetterId": 170,
				"FetterLevel": 10
			}
		],
		"Reward": [
			{
				"GoodsType": "GoodsType_Gold",
				"Id": 0,
				"Count": 5000
			}
		]
	},
	{
		"ID": 36,
		"Name": "Silver Wolf",
		"DialogID": 44444,
		"UnlockConditions": [
			{
				"FetterId": 171,
				"FetterLevel": 10
			},
			{
				"FetterId": 172,
				"FetterLevel": 10
			},
			{
				"FetterId": 173,
				"FetterLevel": 10
			},
			{
				"FetterId": 174,
				"FetterLevel": 10
			},
			{
				"FetterId": 175,
				"FetterLevel": 10
			}
		],
		"Reward": [
			{
				"GoodsType": "GoodsType_Gold",
				"Id": 0,
				"Count": 5000
			}
		]
	},
	{
		"ID": 37,
		"Name": "Jugler",
		"DialogID": 44444,
		"UnlockConditions": [
			{
				"FetterId": 176,
				"FetterLevel": 10
			},
			{
				"FetterId": 177,
				"FetterLevel": 10
			},
			{
				"FetterId": 178,
				"FetterLevel": 10
			},
			{
				"FetterId": 179,
				"FetterLevel": 10
			},
			{
				"FetterId": 180,
				"FetterLevel": 10
			}
		],
		"Reward": [
			{
				"GoodsType": "GoodsType_Gold",
				"Id": 0,
				"Count": 5000
			}
		]
	},
	{
		"ID": 38,
		"Name": "Gerold & Layla",
		"DialogID": 44444,
		"UnlockConditions": [
			{
				"FetterId": 181,
				"FetterLevel": 10
			},
			{
				"FetterId": 182,
				"FetterLevel": 10
			},
			{
				"FetterId": 183,
				"FetterLevel": 10
			},
			{
				"FetterId": 184,
				"FetterLevel": 10
			},
			{
				"FetterId": 185,
				"FetterLevel": 10
			}
		],
		"Reward": [
			{
				"GoodsType": "GoodsType_Gold",
				"Id": 0,
				"Count": 5000
			}
		]
	},
	{
		"ID": 39,
		"Name": "Feraquea",
		"DialogID": 44444,
		"UnlockConditions": [
			{
				"FetterId": 186,
				"FetterLevel": 10
			},
			{
				"FetterId": 187,
				"FetterLevel": 10
			},
			{
				"FetterId": 188,
				"FetterLevel": 10
			},
			{
				"FetterId": 189,
				"FetterLevel": 10
			},
			{
				"FetterId": 190,
				"FetterLevel": 10
			}
		],
		"Reward": [
			{
				"GoodsType": "GoodsType_Gold",
				"Id": 0,
				"Count": 5000
			}
		]
	},
	{
		"ID": 40,
		"Name": "Lewin",
		"DialogID": 44444,
		"UnlockConditions": [
			{
				"FetterId": 191,
				"FetterLevel": 10
			},
			{
				"FetterId": 192,
				"FetterLevel": 10
			},
			{
				"FetterId": 193,
				"FetterLevel": 10
			},
			{
				"FetterId": 194,
				"FetterLevel": 10
			},
			{
				"FetterId": 195,
				"FetterLevel": 10
			}
		],
		"Reward": [
			{
				"GoodsType": "GoodsType_Gold",
				"Id": 0,
				"Count": 5000
			}
		]
	},
	{
		"ID": 41,
		"Name": "Pierre",
		"DialogID": 44444,
		"UnlockConditions": [
			{
				"FetterId": 196,
				"FetterLevel": 10
			},
			{
				"FetterId": 197,
				"FetterLevel": 10
			},
			{
				"FetterId": 198,
				"FetterLevel": 10
			},
			{
				"FetterId": 199,
				"FetterLevel": 10
			},
			{
				"FetterId": 200,
				"FetterLevel": 10
			}
		],
		"Reward": [
			{
				"GoodsType": "GoodsType_Gold",
				"Id": 0,
				"Count": 5000
			}
		]
	},
	{
		"ID": 42,
		"Name": "Dios",
		"DialogID": 44444,
		"UnlockConditions": [
			{
				"FetterId": 201,
				"FetterLevel": 10
			},
			{
				"FetterId": 202,
				"FetterLevel": 10
			},
			{
				"FetterId": 203,
				"FetterLevel": 10
			},
			{
				"FetterId": 204,
				"FetterLevel": 10
			},
			{
				"FetterId": 205,
				"FetterLevel": 10
			}
		],
		"Reward": [
			{
				"GoodsType": "GoodsType_Gold",
				"Id": 0,
				"Count": 5000
			}
		]
	},
	{
		"ID": 43,
		"Name": "Anna",
		"DialogID": 44444,
		"UnlockConditions": [
			{
				"FetterId": 206,
				"FetterLevel": 10
			},
			{
				"FetterId": 207,
				"FetterLevel": 10
			},
			{
				"FetterId": 208,
				"FetterLevel": 10
			},
			{
				"FetterId": 209,
				"FetterLevel": 10
			},
			{
				"FetterId": 210,
				"FetterLevel": 10
			}
		],
		"Reward": [
			{
				"GoodsType": "GoodsType_Gold",
				"Id": 0,
				"Count": 5000
			}
		]
	},
	{
		"ID": 44,
		"Name": "Laird",
		"DialogID": 44444,
		"UnlockConditions": [
			{
				"FetterId": 211,
				"FetterLevel": 10
			},
			{
				"FetterId": 212,
				"FetterLevel": 10
			},
			{
				"FetterId": 213,
				"FetterLevel": 10
			},
			{
				"FetterId": 214,
				"FetterLevel": 10
			},
			{
				"FetterId": 215,
				"FetterLevel": 10
			}
		],
		"Reward": [
			{
				"GoodsType": "GoodsType_Gold",
				"Id": 0,
				"Count": 5000
			}
		]
	},
	{
		"ID": 45,
		"Name": "Keith",
		"DialogID": 44444,
		"UnlockConditions": [
			{
				"FetterId": 216,
				"FetterLevel": 10
			},
			{
				"FetterId": 217,
				"FetterLevel": 10
			},
			{
				"FetterId": 218,
				"FetterLevel": 10
			},
			{
				"FetterId": 219,
				"FetterLevel": 10
			},
			{
				"FetterId": 220,
				"FetterLevel": 10
			}
		],
		"Reward": [
			{
				"GoodsType": "GoodsType_Gold",
				"Id": 0,
				"Count": 5000
			}
		]
	},
	{
		"ID": 46,
		"Name": "Celia",
		"DialogID": 44444,
		"UnlockConditions": [
			{
				"FetterId": 221,
				"FetterLevel": 10
			},
			{
				"FetterId": 222,
				"FetterLevel": 10
			},
			{
				"FetterId": 223,
				"FetterLevel": 10
			},
			{
				"FetterId": 224,
				"FetterLevel": 10
			},
			{
				"FetterId": 225,
				"FetterLevel": 10
			}
		],
		"Reward": [
			{
				"GoodsType": "GoodsType_Gold",
				"Id": 0,
				"Count": 5000
			}
		]
	},
	{
		"ID": 47,
		"Name": "Leticia",
		"DialogID": 44444,
		"UnlockConditions": [
			{
				"FetterId": 226,
				"FetterLevel": 10
			},
			{
				"FetterId": 227,
				"FetterLevel": 10
			},
			{
				"FetterId": 228,
				"FetterLevel": 10
			},
			{
				"FetterId": 229,
				"FetterLevel": 10
			},
			{
				"FetterId": 230,
				"FetterLevel": 10
			}
		],
		"Reward": [
			{
				"GoodsType": "GoodsType_Gold",
				"Id": 0,
				"Count": 5000
			}
		]
	},
	{
		"ID": 48,
		"Name": "Aaron",
		"DialogID": 44444,
		"UnlockConditions": [
			{
				"FetterId": 231,
				"FetterLevel": 10
			},
			{
				"FetterId": 232,
				"FetterLevel": 10
			},
			{
				"FetterId": 233,
				"FetterLevel": 10
			},
			{
				"FetterId": 234,
				"FetterLevel": 10
			},
			{
				"FetterId": 235,
				"FetterLevel": 10
			}
		],
		"Reward": [
			{
				"GoodsType": "GoodsType_Gold",
				"Id": 0,
				"Count": 5000
			}
		]
	},
	{
		"ID": 49,
		"Name": "Varna",
		"DialogID": 44444,
		"UnlockConditions": [
			{
				"FetterId": 231,
				"FetterLevel": 10
			},
			{
				"FetterId": 232,
				"FetterLevel": 10
			},
			{
				"FetterId": 233,
				"FetterLevel": 10
			},
			{
				"FetterId": 234,
				"FetterLevel": 10
			},
			{
				"FetterId": 235,
				"FetterLevel": 10
			}
		],
		"Reward": [
			{
				"GoodsType": "GoodsType_Gold",
				"Id": 0,
				"Count": 5000
			}
		]
	}
]