[
	{
		"ID": 1,
		"AchievementID": 1
	},
	{
		"ID": 2,
		"AchievementID": 2
	},
	{
		"ID": 3,
		"AchievementID": 3
	},
	{
		"ID": 4,
		"AchievementID": 4
	},
	{
		"ID": 5,
		"AchievementID": 5
	},
	{
		"ID": 6,
		"AchievementID": 10
	},
	{
		"ID": 7,
		"AchievementID": 7
	},
	{
		"ID": 8,
		"AchievementID": 8
	},
	{
		"ID": 9,
		"AchievementID": 9
	},
	{
		"ID": 10,
		"AchievementID": 6
	},
	{
		"ID": 11,
		"AchievementID": 11
	},
	{
		"ID": 12,
		"AchievementID": 6
	},
	{
		"ID": 13,
		"AchievementID": 6
	},
	{
		"ID": 14,
		"AchievementID": 6
	},
	{
		"ID": 15,
		"AchievementID": 6
	},
	{
		"ID": 16,
		"AchievementID": 6
	},
	{
		"ID": 17,
		"AchievementID": 7
	},
	{
		"ID": 18,
		"AchievementID": 7
	},
	{
		"ID": 19,
		"AchievementID": 4
	},
	{
		"ID": 20,
		"AchievementID": 5
	},
	{
		"ID": 21,
		"AchievementID": 6
	},
	{
		"ID": 22,
		"AchievementID": 6
	},
	{
		"ID": 23,
		"AchievementID": 6
	},
	{
		"ID": 24,
		"AchievementID": 6
	},
	{
		"ID": 25,
		"AchievementID": 6
	},
	{
		"ID": 26,
		"AchievementID": 6
	},
	{
		"ID": 27,
		"AchievementID": 6
	},
	{
		"ID": 28,
		"AchievementID": 6
	},
	{
		"ID": 29,
		"AchievementID": 7
	},
	{
		"ID": 30,
		"AchievementID": 7
	},
	{
		"ID": 31,
		"AchievementID": 7
	},
	{
		"ID": 32,
		"AchievementID": 8
	},
	{
		"ID": 33,
		"AchievementID": 9
	},
	{
		"ID": 34,
		"AchievementID": 12
	},
	{
		"ID": 35,
		"AchievementID": 13
	},
	{
		"ID": 36,
		"AchievementID": 14
	},
	{
		"ID": 37,
		"AchievementID": 15
	},
	{
		"ID": 38,
		"AchievementID": 16
	},
	{
		"ID": 39,
		"AchievementID": 17
	},
	{
		"ID": 40,
		"AchievementID": 18
	},
	{
		"ID": 41,
		"AchievementID": 19
	},
	{
		"ID": 42,
		"AchievementID": 20
	},
	{
		"ID": 43,
		"AchievementID": 21
	},
	{
		"ID": 44,
		"AchievementID": 22
	},
	{
		"ID": 45,
		"AchievementID": 23
	},
	{
		"ID": 46,
		"AchievementID": 24
	},
	{
		"ID": 47,
		"AchievementID": 25
	},
	{
		"ID": 48,
		"AchievementID": 26
	},
	{
		"ID": 49,
		"AchievementID": 27
	},
	{
		"ID": 50,
		"AchievementID": 28
	},
	{
		"ID": 51,
		"AchievementID": 29
	},
	{
		"ID": 52,
		"AchievementID": 30
	},
	{
		"ID": 53,
		"AchievementID": 31
	},
	{
		"ID": 54,
		"AchievementID": 32
	},
	{
		"ID": 55,
		"AchievementID": 33
	},
	{
		"ID": 56,
		"AchievementID": 34
	},
	{
		"ID": 57,
		"AchievementID": 35
	},
	{
		"ID": 58,
		"AchievementID": 36
	},
	{
		"ID": 59,
		"AchievementID": 37
	},
	{
		"ID": 60,
		"AchievementID": 38
	},
	{
		"ID": 61,
		"AchievementID": 39
	},
	{
		"ID": 62,
		"AchievementID": 40
	},
	{
		"ID": 63,
		"AchievementID": 41
	},
	{
		"ID": 64,
		"AchievementID": 42
	},
	{
		"ID": 65,
		"AchievementID": 43
	},
	{
		"ID": 66,
		"AchievementID": 44
	},
	{
		"ID": 67,
		"AchievementID": 45
	},
	{
		"ID": 68,
		"AchievementID": 46
	},
	{
		"ID": 69,
		"AchievementID": 47
	},
	{
		"ID": 70,
		"AchievementID": 48
	},
	{
		"ID": 71,
		"AchievementID": 49
	},
	{
		"ID": 72,
		"AchievementID": 50
	},
	{
		"ID": 73,
		"AchievementID": 51
	},
	{
		"ID": 74,
		"AchievementID": 52
	},
	{
		"ID": 75,
		"AchievementID": 53
	},
	{
		"ID": 76,
		"AchievementID": 54
	},
	{
		"ID": 77,
		"AchievementID": 55
	},
	{
		"ID": 78,
		"AchievementID": 56
	},
	{
		"ID": 79,
		"AchievementID": 57
	},
	{
		"ID": 1004,
		"AchievementID": 1004
	},
	{
		"ID": 1005,
		"AchievementID": 1005
	},
	{
		"ID": 1006,
		"AchievementID": 1010
	},
	{
		"ID": 1007,
		"AchievementID": 1007
	},
	{
		"ID": 1008,
		"AchievementID": 1008
	},
	{
		"ID": 1009,
		"AchievementID": 1009
	},
	{
		"ID": 1010,
		"AchievementID": 1006
	},
	{
		"ID": 1011,
		"AchievementID": 1011
	},
	{
		"ID": 1012,
		"AchievementID": 1006
	},
	{
		"ID": 1013,
		"AchievementID": 1006
	},
	{
		"ID": 1014,
		"AchievementID": 1006
	},
	{
		"ID": 1015,
		"AchievementID": 1006
	},
	{
		"ID": 1016,
		"AchievementID": 1006
	},
	{
		"ID": 1017,
		"AchievementID": 1007
	},
	{
		"ID": 1018,
		"AchievementID": 1007
	},
	{
		"ID": 1019,
		"AchievementID": 1004
	},
	{
		"ID": 1020,
		"AchievementID": 1005
	},
	{
		"ID": 1021,
		"AchievementID": 1006
	},
	{
		"ID": 1022,
		"AchievementID": 1006
	},
	{
		"ID": 1023,
		"AchievementID": 1006
	},
	{
		"ID": 1024,
		"AchievementID": 1006
	},
	{
		"ID": 1025,
		"AchievementID": 1006
	},
	{
		"ID": 1026,
		"AchievementID": 1006
	},
	{
		"ID": 1027,
		"AchievementID": 1006
	},
	{
		"ID": 1028,
		"AchievementID": 1006
	},
	{
		"ID": 1029,
		"AchievementID": 1007
	},
	{
		"ID": 1030,
		"AchievementID": 1007
	},
	{
		"ID": 1031,
		"AchievementID": 1007
	},
	{
		"ID": 1032,
		"AchievementID": 1008
	},
	{
		"ID": 1033,
		"AchievementID": 1009
	},
	{
		"ID": 1034,
		"AchievementID": 1012
	},
	{
		"ID": 1035,
		"AchievementID": 1013
	},
	{
		"ID": 1036,
		"AchievementID": 1014
	},
	{
		"ID": 1037,
		"AchievementID": 1015
	},
	{
		"ID": 1038,
		"AchievementID": 1016
	},
	{
		"ID": 1039,
		"AchievementID": 1017
	},
	{
		"ID": 1040,
		"AchievementID": 1018
	},
	{
		"ID": 1041,
		"AchievementID": 1019
	},
	{
		"ID": 1042,
		"AchievementID": 1020
	},
	{
		"ID": 1043,
		"AchievementID": 1021
	},
	{
		"ID": 1044,
		"AchievementID": 1022
	},
	{
		"ID": 1045,
		"AchievementID": 1023
	},
	{
		"ID": 1046,
		"AchievementID": 1024
	},
	{
		"ID": 1047,
		"AchievementID": 1025
	},
	{
		"ID": 1048,
		"AchievementID": 1026
	},
	{
		"ID": 1049,
		"AchievementID": 1027
	},
	{
		"ID": 1050,
		"AchievementID": 1028
	},
	{
		"ID": 1051,
		"AchievementID": 1029
	},
	{
		"ID": 1052,
		"AchievementID": 1030
	},
	{
		"ID": 1053,
		"AchievementID": 1031
	},
	{
		"ID": 1054,
		"AchievementID": 1032
	},
	{
		"ID": 1055,
		"AchievementID": 1033
	},
	{
		"ID": 1056,
		"AchievementID": 1034
	},
	{
		"ID": 1057,
		"AchievementID": 1035
	},
	{
		"ID": 1058,
		"AchievementID": 1036
	},
	{
		"ID": 1059,
		"AchievementID": 1037
	},
	{
		"ID": 1060,
		"AchievementID": 1038
	},
	{
		"ID": 1061,
		"AchievementID": 1039
	},
	{
		"ID": 1062,
		"AchievementID": 1040
	},
	{
		"ID": 1063,
		"AchievementID": 1041
	},
	{
		"ID": 1064,
		"AchievementID": 1042
	},
	{
		"ID": 1065,
		"AchievementID": 1043
	},
	{
		"ID": 1066,
		"AchievementID": 1044
	},
	{
		"ID": 1067,
		"AchievementID": 1045
	},
	{
		"ID": 1068,
		"AchievementID": 1046
	},
	{
		"ID": 1069,
		"AchievementID": 1047
	},
	{
		"ID": 1070,
		"AchievementID": 1048
	},
	{
		"ID": 1071,
		"AchievementID": 1049
	},
	{
		"ID": 1072,
		"AchievementID": 1050
	},
	{
		"ID": 1073,
		"AchievementID": 1051
	},
	{
		"ID": 1074,
		"AchievementID": 1052
	},
	{
		"ID": 1075,
		"AchievementID": 1053
	},
	{
		"ID": 1076,
		"AchievementID": 1054
	},
	{
		"ID": 1077,
		"AchievementID": 1055
	},
	{
		"ID": 1078,
		"AchievementID": 1056
	},
	{
		"ID": 1079,
		"AchievementID": 1057
	},
	{
		"ID": 1100,
		"AchievementID": 1100
	},
	{
		"ID": 1101,
		"AchievementID": 1101
	},
	{
		"ID": 1102,
		"AchievementID": 1102
	},
	{
		"ID": 1103,
		"AchievementID": 1103
	},
	{
		"ID": 1104,
		"AchievementID": 1104
	},
	{
		"ID": 1105,
		"AchievementID": 1105
	},
	{
		"ID": 1106,
		"AchievementID": 1106
	},
	{
		"ID": 1107,
		"AchievementID": 1107
	},
	{
		"ID": 1108,
		"AchievementID": 1108
	},
	{
		"ID": 1109,
		"AchievementID": 1109
	},
	{
		"ID": 1110,
		"AchievementID": 1110
	},
	{
		"ID": 1111,
		"AchievementID": 1111
	},
	{
		"ID": 1112,
		"AchievementID": 1112
	},
	{
		"ID": 1113,
		"AchievementID": 1113
	},
	{
		"ID": 1114,
		"AchievementID": 1114
	},
	{
		"ID": 1115,
		"AchievementID": 1115
	},
	{
		"ID": 1116,
		"AchievementID": 1116
	},
	{
		"ID": 1117,
		"AchievementID": 1117
	},
	{
		"ID": 1118,
		"AchievementID": 1118
	},
	{
		"ID": 1119,
		"AchievementID": 1119
	},
	{
		"ID": 1120,
		"AchievementID": 1120
	},
	{
		"ID": 1121,
		"AchievementID": 1121
	},
	{
		"ID": 1122,
		"AchievementID": 1122
	},
	{
		"ID": 1123,
		"AchievementID": 1123
	},
	{
		"ID": 1124,
		"AchievementID": 1124
	},
	{
		"ID": 1125,
		"AchievementID": 1125
	},
	{
		"ID": 1126,
		"AchievementID": 1126
	},
	{
		"ID": 1127,
		"AchievementID": 1127
	},
	{
		"ID": 1128,
		"AchievementID": 1128
	},
	{
		"ID": 1129,
		"AchievementID": 1129
	},
	{
		"ID": 1130,
		"AchievementID": 1130
	},
	{
		"ID": 1131,
		"AchievementID": 1131
	},
	{
		"ID": 1132,
		"AchievementID": 1132
	},
	{
		"ID": 1133,
		"AchievementID": 1133
	},
	{
		"ID": 1134,
		"AchievementID": 1134
	},
	{
		"ID": 1135,
		"AchievementID": 1135
	},
	{
		"ID": 1136,
		"AchievementID": 1136
	},
	{
		"ID": 1137,
		"AchievementID": 1137
	},
	{
		"ID": 1138,
		"AchievementID": 1138
	},
	{
		"ID": 1139,
		"AchievementID": 1139
	},
	{
		"ID": 1140,
		"AchievementID": 1140
	},
	{
		"ID": 1141,
		"AchievementID": 1141
	},
	{
		"ID": 1142,
		"AchievementID": 1142
	},
	{
		"ID": 1143,
		"AchievementID": 1143
	},
	{
		"ID": 1144,
		"AchievementID": 1144
	},
	{
		"ID": 1145,
		"AchievementID": 1145
	},
	{
		"ID": 1146,
		"AchievementID": 1146
	},
	{
		"ID": 1147,
		"AchievementID": 1147
	},
	{
		"ID": 1148,
		"AchievementID": 1148
	},
	{
		"ID": 1149,
		"AchievementID": 1149
	},
	{
		"ID": 1150,
		"AchievementID": 1150
	},
	{
		"ID": 1151,
		"AchievementID": 1151
	},
	{
		"ID": 1152,
		"AchievementID": 1152
	},
	{
		"ID": 1153,
		"AchievementID": 1153
	},
	{
		"ID": 1154,
		"AchievementID": 1154
	},
	{
		"ID": 1155,
		"AchievementID": 1155
	},
	{
		"ID": 1156,
		"AchievementID": 1156
	},
	{
		"ID": 1157,
		"AchievementID": 1157
	},
	{
		"ID": 1158,
		"AchievementID": 1158
	},
	{
		"ID": 1159,
		"AchievementID": 1159
	},
	{
		"ID": 1160,
		"AchievementID": 1160
	},
	{
		"ID": 1161,
		"AchievementID": 1161
	},
	{
		"ID": 1162,
		"AchievementID": 1162
	},
	{
		"ID": 2100,
		"AchievementID": 2100
	},
	{
		"ID": 2101,
		"AchievementID": 2101
	},
	{
		"ID": 2102,
		"AchievementID": 2102
	},
	{
		"ID": 2103,
		"AchievementID": 2103
	},
	{
		"ID": 2104,
		"AchievementID": 2104
	},
	{
		"ID": 2105,
		"AchievementID": 2105
	},
	{
		"ID": 2106,
		"AchievementID": 2106
	},
	{
		"ID": 2107,
		"AchievementID": 2107
	},
	{
		"ID": 2108,
		"AchievementID": 2108
	},
	{
		"ID": 2109,
		"AchievementID": 2109
	},
	{
		"ID": 2110,
		"AchievementID": 2110
	},
	{
		"ID": 2111,
		"AchievementID": 2111
	},
	{
		"ID": 2112,
		"AchievementID": 2112
	},
	{
		"ID": 2113,
		"AchievementID": 2113
	},
	{
		"ID": 2114,
		"AchievementID": 2114
	},
	{
		"ID": 2115,
		"AchievementID": 2115
	},
	{
		"ID": 2116,
		"AchievementID": 2116
	},
	{
		"ID": 2117,
		"AchievementID": 2117
	},
	{
		"ID": 2118,
		"AchievementID": 2118
	},
	{
		"ID": 2119,
		"AchievementID": 2119
	},
	{
		"ID": 2120,
		"AchievementID": 2120
	},
	{
		"ID": 2121,
		"AchievementID": 2121
	},
	{
		"ID": 2122,
		"AchievementID": 2122
	},
	{
		"ID": 2123,
		"AchievementID": 2123
	},
	{
		"ID": 2124,
		"AchievementID": 2124
	},
	{
		"ID": 2125,
		"AchievementID": 2125
	},
	{
		"ID": 2126,
		"AchievementID": 2126
	},
	{
		"ID": 2127,
		"AchievementID": 2127
	},
	{
		"ID": 2128,
		"AchievementID": 2128
	},
	{
		"ID": 2129,
		"AchievementID": 2129
	},
	{
		"ID": 2130,
		"AchievementID": 2130
	},
	{
		"ID": 2131,
		"AchievementID": 2131
	},
	{
		"ID": 2132,
		"AchievementID": 2132
	},
	{
		"ID": 2133,
		"AchievementID": 2133
	},
	{
		"ID": 2134,
		"AchievementID": 2134
	},
	{
		"ID": 2135,
		"AchievementID": 2135
	},
	{
		"ID": 2136,
		"AchievementID": 2136
	},
	{
		"ID": 2137,
		"AchievementID": 2137
	},
	{
		"ID": 2138,
		"AchievementID": 2138
	},
	{
		"ID": 2139,
		"AchievementID": 2139
	},
	{
		"ID": 2140,
		"AchievementID": 2140
	},
	{
		"ID": 2141,
		"AchievementID": 2141
	},
	{
		"ID": 2142,
		"AchievementID": 2142
	},
	{
		"ID": 2143,
		"AchievementID": 2143
	},
	{
		"ID": 2144,
		"AchievementID": 2144
	},
	{
		"ID": 2145,
		"AchievementID": 2145
	},
	{
		"ID": 2146,
		"AchievementID": 2146
	},
	{
		"ID": 2147,
		"AchievementID": 2147
	},
	{
		"ID": 2148,
		"AchievementID": 2148
	},
	{
		"ID": 2149,
		"AchievementID": 2149
	},
	{
		"ID": 2150,
		"AchievementID": 2150
	},
	{
		"ID": 2151,
		"AchievementID": 2151
	},
	{
		"ID": 2152,
		"AchievementID": 2152
	},
	{
		"ID": 2153,
		"AchievementID": 2153
	},
	{
		"ID": 2154,
		"AchievementID": 2154
	},
	{
		"ID": 2155,
		"AchievementID": 2155
	},
	{
		"ID": 2156,
		"AchievementID": 2156
	},
	{
		"ID": 2157,
		"AchievementID": 2157
	},
	{
		"ID": 2158,
		"AchievementID": 2158
	},
	{
		"ID": 2159,
		"AchievementID": 2159
	},
	{
		"ID": 2160,
		"AchievementID": 2160
	},
	{
		"ID": 2161,
		"AchievementID": 2161
	},
	{
		"ID": 2162,
		"AchievementID": 2162
	},
	{
		"ID": 6000,
		"AchievementID": 6000
	},
	{
		"ID": 6001,
		"AchievementID": 6001
	},
	{
		"ID": 6002,
		"AchievementID": 6002
	},
	{
		"ID": 6003,
		"AchievementID": 6000
	},
	{
		"ID": 6004,
		"AchievementID": 6001
	},
	{
		"ID": 6005,
		"AchievementID": 6002
	},
	{
		"ID": 6006,
		"AchievementID": 6003
	},
	{
		"ID": 6007,
		"AchievementID": 6004
	},
	{
		"ID": 6008,
		"AchievementID": 6005
	},
	{
		"ID": 6009,
		"AchievementID": 6006
	},
	{
		"ID": 6010,
		"AchievementID": 6007
	},
	{
		"ID": 6011,
		"AchievementID": 6008
	},
	{
		"ID": 6012,
		"AchievementID": 6006
	},
	{
		"ID": 6013,
		"AchievementID": 6007
	},
	{
		"ID": 6014,
		"AchievementID": 6008
	},
	{
		"ID": 6015,
		"AchievementID": 6006
	},
	{
		"ID": 6016,
		"AchievementID": 6007
	},
	{
		"ID": 6017,
		"AchievementID": 6008
	},
	{
		"ID": 6018,
		"AchievementID": 6006
	},
	{
		"ID": 6019,
		"AchievementID": 6007
	},
	{
		"ID": 6020,
		"AchievementID": 6008
	},
	{
		"ID": 6021,
		"AchievementID": 6009
	},
	{
		"ID": 6022,
		"AchievementID": 6010
	},
	{
		"ID": 6023,
		"AchievementID": 6011
	},
	{
		"ID": 6024,
		"AchievementID": 6009
	},
	{
		"ID": 6025,
		"AchievementID": 6010
	},
	{
		"ID": 6026,
		"AchievementID": 6011
	},
	{
		"ID": 6027,
		"AchievementID": 6012
	},
	{
		"ID": 6028,
		"AchievementID": 6013
	},
	{
		"ID": 6029,
		"AchievementID": 6014
	},
	{
		"ID": 6030,
		"AchievementID": 6015
	},
	{
		"ID": 6031,
		"AchievementID": 6016
	},
	{
		"ID": 6032,
		"AchievementID": 6017
	},
	{
		"ID": 6033,
		"AchievementID": 6015
	},
	{
		"ID": 6034,
		"AchievementID": 6016
	},
	{
		"ID": 6035,
		"AchievementID": 6017
	},
	{
		"ID": 6036,
		"AchievementID": 6015
	},
	{
		"ID": 6037,
		"AchievementID": 6016
	},
	{
		"ID": 6038,
		"AchievementID": 6017
	},
	{
		"ID": 6039,
		"AchievementID": 6015
	},
	{
		"ID": 6040,
		"AchievementID": 6016
	},
	{
		"ID": 6041,
		"AchievementID": 6017
	},
	{
		"ID": 6050,
		"AchievementID": 6050
	},
	{
		"ID": 6051,
		"AchievementID": 6051
	},
	{
		"ID": 6052,
		"AchievementID": 6052
	},
	{
		"ID": 6053,
		"AchievementID": 6053
	},
	{
		"ID": 6054,
		"AchievementID": 6054
	},
	{
		"ID": 6055,
		"AchievementID": 6055
	},
	{
		"ID": 6056,
		"AchievementID": 6056
	},
	{
		"ID": 6057,
		"AchievementID": 6057
	},
	{
		"ID": 6058,
		"AchievementID": 6058
	},
	{
		"ID": 6059,
		"AchievementID": 6059
	},
	{
		"ID": 6060,
		"AchievementID": 6060
	},
	{
		"ID": 6061,
		"AchievementID": 6061
	},
	{
		"ID": 6080,
		"AchievementID": 6080
	},
	{
		"ID": 6081,
		"AchievementID": 6081
	},
	{
		"ID": 6082,
		"AchievementID": 6082
	},
	{
		"ID": 6083,
		"AchievementID": 6083
	},
	{
		"ID": 6084,
		"AchievementID": 6084
	},
	{
		"ID": 6085,
		"AchievementID": 6085
	},
	{
		"ID": 6086,
		"AchievementID": 6086
	},
	{
		"ID": 6087,
		"AchievementID": 6087
	},
	{
		"ID": 6088,
		"AchievementID": 6088
	},
	{
		"ID": 6089,
		"AchievementID": 6089
	},
	{
		"ID": 6090,
		"AchievementID": 6090
	},
	{
		"ID": 6091,
		"AchievementID": 6091
	},
	{
		"ID": 6092,
		"AchievementID": 6092
	},
	{
		"ID": 6093,
		"AchievementID": 6093
	},
	{
		"ID": 6094,
		"AchievementID": 6094
	},
	{
		"ID": 6095,
		"AchievementID": 6095
	},
	{
		"ID": 6096,
		"AchievementID": 6096
	},
	{
		"ID": 6097,
		"AchievementID": 6097
	},
	{
		"ID": 6098,
		"AchievementID": 6098
	},
	{
		"ID": 6099,
		"AchievementID": 6099
	},
	{
		"ID": 6100,
		"AchievementID": 6100
	},
	{
		"ID": 7000,
		"AchievementID": 7000
	},
	{
		"ID": 7001,
		"AchievementID": 7001
	},
	{
		"ID": 7010,
		"AchievementID": 7010
	},
	{
		"ID": 7011,
		"AchievementID": 7011
	},
	{
		"ID": 7020,
		"AchievementID": 7020
	},
	{
		"ID": 7021,
		"AchievementID": 7021
	},
	{
		"ID": 7030,
		"AchievementID": 7030
	},
	{
		"ID": 7031,
		"AchievementID": 7031
	},
	{
		"ID": 7040,
		"AchievementID": 7040
	},
	{
		"ID": 7041,
		"AchievementID": 7041
	},
	{
		"ID": 7050,
		"AchievementID": 7050
	},
	{
		"ID": 7051,
		"AchievementID": 7051
	},
	{
		"ID": 7060,
		"AchievementID": 7060
	},
	{
		"ID": 7061,
		"AchievementID": 7061
	},
	{
		"ID": 7100,
		"AchievementID": 7100
	},
	{
		"ID": 7101,
		"AchievementID": 7101
	},
	{
		"ID": 7110,
		"AchievementID": 7110
	},
	{
		"ID": 7111,
		"AchievementID": 7111
	},
	{
		"ID": 7120,
		"AchievementID": 7120
	},
	{
		"ID": 7121,
		"AchievementID": 7121
	},
	{
		"ID": 7130,
		"AchievementID": 7130
	},
	{
		"ID": 7131,
		"AchievementID": 7131
	},
	{
		"ID": 7140,
		"AchievementID": 7140
	},
	{
		"ID": 7141,
		"AchievementID": 7141
	},
	{
		"ID": 7150,
		"AchievementID": 7150
	},
	{
		"ID": 7151,
		"AchievementID": 7151
	},
	{
		"ID": 7160,
		"AchievementID": 7160
	},
	{
		"ID": 7161,
		"AchievementID": 7161
	},
	{
		"ID": 7162,
		"AchievementID": 7162
	},
	{
		"ID": 7200,
		"AchievementID": 7200
	},
	{
		"ID": 7201,
		"AchievementID": 7201
	},
	{
		"ID": 7210,
		"AchievementID": 7210
	},
	{
		"ID": 7211,
		"AchievementID": 7211
	},
	{
		"ID": 7220,
		"AchievementID": 7220
	},
	{
		"ID": 7230,
		"AchievementID": 7230
	},
	{
		"ID": 7231,
		"AchievementID": 7231
	},
	{
		"ID": 7240,
		"AchievementID": 7240
	},
	{
		"ID": 7241,
		"AchievementID": 7241
	},
	{
		"ID": 7250,
		"AchievementID": 7250
	},
	{
		"ID": 7251,
		"AchievementID": 7251
	},
	{
		"ID": 7260,
		"AchievementID": 7260
	},
	{
		"ID": 7261,
		"AchievementID": 7261
	},
	{
		"ID": 7300,
		"AchievementID": 7300
	},
	{
		"ID": 7310,
		"AchievementID": 7310
	},
	{
		"ID": 7311,
		"AchievementID": 7311
	},
	{
		"ID": 7320,
		"AchievementID": 7320
	},
	{
		"ID": 7321,
		"AchievementID": 7321
	},
	{
		"ID": 7330,
		"AchievementID": 7330
	},
	{
		"ID": 7331,
		"AchievementID": 7331
	},
	{
		"ID": 7340,
		"AchievementID": 7340
	},
	{
		"ID": 7341,
		"AchievementID": 7341
	},
	{
		"ID": 7400,
		"AchievementID": 7400
	},
	{
		"ID": 7401,
		"AchievementID": 7401
	},
	{
		"ID": 7410,
		"AchievementID": 7410
	},
	{
		"ID": 7411,
		"AchievementID": 7411
	},
	{
		"ID": 7420,
		"AchievementID": 7420
	},
	{
		"ID": 7421,
		"AchievementID": 7421
	},
	{
		"ID": 7430,
		"AchievementID": 7430
	},
	{
		"ID": 7431,
		"AchievementID": 7431
	},
	{
		"ID": 7440,
		"AchievementID": 7440
	},
	{
		"ID": 7441,
		"AchievementID": 7441
	},
	{
		"ID": 7500,
		"AchievementID": 7500
	},
	{
		"ID": 7501,
		"AchievementID": 7501
	},
	{
		"ID": 7510,
		"AchievementID": 7510
	},
	{
		"ID": 7511,
		"AchievementID": 7511
	},
	{
		"ID": 7520,
		"AchievementID": 7520
	},
	{
		"ID": 7521,
		"AchievementID": 7521
	},
	{
		"ID": 7530,
		"AchievementID": 7530
	},
	{
		"ID": 7531,
		"AchievementID": 7531
	},
	{
		"ID": 7540,
		"AchievementID": 7540
	},
	{
		"ID": 7541,
		"AchievementID": 7541
	},
	{
		"ID": 7600,
		"AchievementID": 7600
	},
	{
		"ID": 7601,
		"AchievementID": 7601
	},
	{
		"ID": 7610,
		"AchievementID": 7610
	},
	{
		"ID": 7611,
		"AchievementID": 7611
	},
	{
		"ID": 7620,
		"AchievementID": 7620
	},
	{
		"ID": 7621,
		"AchievementID": 7621
	},
	{
		"ID": 7630,
		"AchievementID": 7630
	},
	{
		"ID": 7631,
		"AchievementID": 7631
	},
	{
		"ID": 7640,
		"AchievementID": 7640
	},
	{
		"ID": 7641,
		"AchievementID": 7641
	},
	{
		"ID": 7642,
		"AchievementID": 7642
	},
	{
		"ID": 7770,
		"AchievementID": 7770
	},
	{
		"ID": 7771,
		"AchievementID": 7771
	},
	{
		"ID": 7772,
		"AchievementID": 7772
	},
	{
		"ID": 7773,
		"AchievementID": 7773
	},
	{
		"ID": 7774,
		"AchievementID": 7774
	},
	{
		"ID": 7775,
		"AchievementID": 7775
	},
	{
		"ID": 7776,
		"AchievementID": 7776
	},
	{
		"ID": 7777,
		"AchievementID": 7777
	},
	{
		"ID": 7778,
		"AchievementID": 7778
	},
	{
		"ID": 7779,
		"AchievementID": 7779
	},
	{
		"ID": 7780,
		"AchievementID": 7780
	},
	{
		"ID": 7781,
		"AchievementID": 7781
	},
	{
		"ID": 7782,
		"AchievementID": 7782
	},
	{
		"ID": 7783,
		"AchievementID": 7783
	},
	{
		"ID": 7800,
		"AchievementID": 7800
	},
	{
		"ID": 7801,
		"AchievementID": 7801
	},
	{
		"ID": 7810,
		"AchievementID": 7810
	},
	{
		"ID": 7811,
		"AchievementID": 7811
	},
	{
		"ID": 7820,
		"AchievementID": 7820
	},
	{
		"ID": 7821,
		"AchievementID": 7821
	},
	{
		"ID": 7830,
		"AchievementID": 7830
	},
	{
		"ID": 7831,
		"AchievementID": 7831
	},
	{
		"ID": 7840,
		"AchievementID": 7840
	},
	{
		"ID": 7841,
		"AchievementID": 7841
	},
	{
		"ID": 7850,
		"AchievementID": 7850
	},
	{
		"ID": 7851,
		"AchievementID": 7851
	},
	{
		"ID": 7852,
		"AchievementID": 7852
	},
	{
		"ID": 7860,
		"AchievementID": 7860
	},
	{
		"ID": 7861,
		"AchievementID": 7861
	},
	{
		"ID": 8000,
		"AchievementID": 8000
	},
	{
		"ID": 8001,
		"AchievementID": 8001
	},
	{
		"ID": 8002,
		"AchievementID": 8002
	},
	{
		"ID": 8003,
		"AchievementID": 8003
	},
	{
		"ID": 8004,
		"AchievementID": 8004
	},
	{
		"ID": 8005,
		"AchievementID": 8005
	},
	{
		"ID": 8006,
		"AchievementID": 8006
	},
	{
		"ID": 8007,
		"AchievementID": 8007
	},
	{
		"ID": 8008,
		"AchievementID": 8008
	},
	{
		"ID": 8009,
		"AchievementID": 8009
	},
	{
		"ID": 8010,
		"AchievementID": 8010
	},
	{
		"ID": 8011,
		"AchievementID": 8011
	},
	{
		"ID": 9000,
		"AchievementID": 9000
	},
	{
		"ID": 9001,
		"AchievementID": 9001
	},
	{
		"ID": 9002,
		"AchievementID": 9002
	},
	{
		"ID": 9003,
		"AchievementID": 9001
	},
	{
		"ID": 9004,
		"AchievementID": 9003
	},
	{
		"ID": 9005,
		"AchievementID": 9001
	},
	{
		"ID": 9006,
		"AchievementID": 9004
	},
	{
		"ID": 9007,
		"AchievementID": 9005
	},
	{
		"ID": 9008,
		"AchievementID": 9006
	},
	{
		"ID": 9009,
		"AchievementID": 9001
	},
	{
		"ID": 9010,
		"AchievementID": 9007
	},
	{
		"ID": 9011,
		"AchievementID": 9008
	},
	{
		"ID": 9012,
		"AchievementID": 9009
	},
	{
		"ID": 9013,
		"AchievementID": 9010
	},
	{
		"ID": 9014,
		"AchievementID": 9011
	},
	{
		"ID": 9015,
		"AchievementID": 9012
	},
	{
		"ID": 9016,
		"AchievementID": 9013
	},
	{
		"ID": 9017,
		"AchievementID": 9014
	},
	{
		"ID": 9018,
		"AchievementID": 9015
	},
	{
		"ID": 9019,
		"AchievementID": 9016
	},
	{
		"ID": 9020,
		"AchievementID": 9017
	},
	{
		"ID": 9021,
		"AchievementID": 9018
	},
	{
		"ID": 9022,
		"AchievementID": 9019
	},
	{
		"ID": 9023,
		"AchievementID": 9020
	},
	{
		"ID": 9024,
		"AchievementID": 9021
	},
	{
		"ID": 9025,
		"AchievementID": 9022
	},
	{
		"ID": 9026,
		"AchievementID": 9023
	},
	{
		"ID": 9027,
		"AchievementID": 9022
	},
	{
		"ID": 9028,
		"AchievementID": 9024
	},
	{
		"ID": 9029,
		"AchievementID": 9022
	},
	{
		"ID": 9030,
		"AchievementID": 9024
	},
	{
		"ID": 9031,
		"AchievementID": 9022
	},
	{
		"ID": 9032,
		"AchievementID": 9024
	},
	{
		"ID": 13000,
		"AchievementID": 13000
	},
	{
		"ID": 13001,
		"AchievementID": 13001
	},
	{
		"ID": 13010,
		"AchievementID": 13010
	},
	{
		"ID": 13011,
		"AchievementID": 13011
	},
	{
		"ID": 13020,
		"AchievementID": 13020
	},
	{
		"ID": 13021,
		"AchievementID": 13021
	},
	{
		"ID": 13030,
		"AchievementID": 13030
	},
	{
		"ID": 13031,
		"AchievementID": 13031
	},
	{
		"ID": 13040,
		"AchievementID": 13040
	},
	{
		"ID": 13041,
		"AchievementID": 13041
	},
	{
		"ID": 13050,
		"AchievementID": 13050
	},
	{
		"ID": 13051,
		"AchievementID": 13051
	},
	{
		"ID": 13052,
		"AchievementID": 13052
	},
	{
		"ID": 13061,
		"AchievementID": 13061
	},
	{
		"ID": 13062,
		"AchievementID": 13062
	},
	{
		"ID": 14000,
		"AchievementID": 14000
	},
	{
		"ID": 14001,
		"AchievementID": 14001
	},
	{
		"ID": 14010,
		"AchievementID": 14010
	},
	{
		"ID": 14011,
		"AchievementID": 14011
	},
	{
		"ID": 14020,
		"AchievementID": 14020
	},
	{
		"ID": 14030,
		"AchievementID": 14030
	},
	{
		"ID": 14031,
		"AchievementID": 14031
	},
	{
		"ID": 14040,
		"AchievementID": 14040
	},
	{
		"ID": 14041,
		"AchievementID": 14041
	},
	{
		"ID": 14050,
		"AchievementID": 14050
	},
	{
		"ID": 14051,
		"AchievementID": 14051
	},
	{
		"ID": 14060,
		"AchievementID": 14060
	},
	{
		"ID": 14061,
		"AchievementID": 14061
	},
	{
		"ID": 15000,
		"AchievementID": 15000
	},
	{
		"ID": 15001,
		"AchievementID": 15001
	},
	{
		"ID": 15010,
		"AchievementID": 15010
	},
	{
		"ID": 15011,
		"AchievementID": 15011
	},
	{
		"ID": 15020,
		"AchievementID": 15020
	},
	{
		"ID": 15030,
		"AchievementID": 15030
	},
	{
		"ID": 15031,
		"AchievementID": 15031
	},
	{
		"ID": 15040,
		"AchievementID": 15040
	},
	{
		"ID": 15041,
		"AchievementID": 15041
	},
	{
		"ID": 16001,
		"AchievementID": 16001
	},
	{
		"ID": 16002,
		"AchievementID": 16002
	},
	{
		"ID": 16003,
		"AchievementID": 16003
	},
	{
		"ID": 16004,
		"AchievementID": 16004
	},
	{
		"ID": 16005,
		"AchievementID": 16005
	},
	{
		"ID": 16006,
		"AchievementID": 16006
	},
	{
		"ID": 16007,
		"AchievementID": 16007
	},
	{
		"ID": 16008,
		"AchievementID": 16008
	},
	{
		"ID": 16009,
		"AchievementID": 16009
	},
	{
		"ID": 16010,
		"AchievementID": 16010
	},
	{
		"ID": 16015,
		"AchievementID": 16015
	},
	{
		"ID": 16016,
		"AchievementID": 16016
	},
	{
		"ID": 16017,
		"AchievementID": 16017
	},
	{
		"ID": 16018,
		"AchievementID": 16018
	},
	{
		"ID": 16019,
		"AchievementID": 16019
	},
	{
		"ID": 16020,
		"AchievementID": 16020
	},
	{
		"ID": 16021,
		"AchievementID": 16021
	},
	{
		"ID": 16022,
		"AchievementID": 16022
	},
	{
		"ID": 16023,
		"AchievementID": 16023
	},
	{
		"ID": 16024,
		"AchievementID": 16024
	},
	{
		"ID": 16025,
		"AchievementID": 16025
	},
	{
		"ID": 16026,
		"AchievementID": 16026
	},
	{
		"ID": 16027,
		"AchievementID": 16027
	},
	{
		"ID": 16028,
		"AchievementID": 16028
	},
	{
		"ID": 16030,
		"AchievementID": 16030
	},
	{
		"ID": 16031,
		"AchievementID": 16031
	},
	{
		"ID": 16032,
		"AchievementID": 16032
	},
	{
		"ID": 16033,
		"AchievementID": 16033
	},
	{
		"ID": 16034,
		"AchievementID": 16034
	},
	{
		"ID": 16035,
		"AchievementID": 16035
	},
	{
		"ID": 16036,
		"AchievementID": 16036
	},
	{
		"ID": 16037,
		"AchievementID": 16037
	},
	{
		"ID": 16038,
		"AchievementID": 16038
	},
	{
		"ID": 16039,
		"AchievementID": 16039
	},
	{
		"ID": 16040,
		"AchievementID": 16040
	},
	{
		"ID": 16041,
		"AchievementID": 16041
	},
	{
		"ID": 16042,
		"AchievementID": 16042
	},
	{
		"ID": 16043,
		"AchievementID": 16043
	},
	{
		"ID": 27010,
		"AchievementID": 27010
	},
	{
		"ID": 27011,
		"AchievementID": 27011
	},
	{
		"ID": 27020,
		"AchievementID": 27020
	},
	{
		"ID": 27021,
		"AchievementID": 27021
	},
	{
		"ID": 27030,
		"AchievementID": 27030
	},
	{
		"ID": 27040,
		"AchievementID": 27040
	},
	{
		"ID": 27041,
		"AchievementID": 27041
	},
	{
		"ID": 27050,
		"AchievementID": 27050
	},
	{
		"ID": 27051,
		"AchievementID": 27051
	},
	{
		"ID": 27060,
		"AchievementID": 27060
	},
	{
		"ID": 27061,
		"AchievementID": 27061
	},
	{
		"ID": 27070,
		"AchievementID": 27070
	},
	{
		"ID": 27071,
		"AchievementID": 27071
	}
]