[
	{
		"ID": 1,
		"Name": "Dark Uprising 20",
		"TeamName": "Lv.23",
		"PlayerLevelRequired": 25,
		"EnergySuccess": 15,
		"EnergyFail": 15,
		"MonsterLevel": 23,
		"BattleID": 4100,
		"PlayerExp": 15,
		"HeroExp": 99,
		"Gold": 594,
		"DropID": 6510,
		"ItemDropCountDisplay": 3,
		"Icon": "",
		"DayBonusDropID": 6501,
		"DayBonusExtraDropID": 8126
	},
	{
		"ID": 2,
		"Name": "Dark Uprising 25",
		"TeamName": "Lv.28",
		"PlayerLevelRequired": 25,
		"EnergySuccess": 15,
		"EnergyFail": 15,
		"MonsterLevel": 28,
		"BattleID": 4100,
		"PlayerExp": 15,
		"HeroExp": 114,
		"Gold": 735,
		"DropID": 6511,
		"ItemDropCountDisplay": 3,
		"Icon": "",
		"DayBonusDropID": 6502,
		"DayBonusExtraDropID": 8127
	},
	{
		"ID": 3,
		"Name": "Dark Uprising 30",
		"TeamName": "Lv.33",
		"PlayerLevelRequired": 30,
		"EnergySuccess": 15,
		"EnergyFail": 15,
		"MonsterLevel": 33,
		"BattleID": 4100,
		"PlayerExp": 15,
		"HeroExp": 129,
		"Gold": 891,
		"DropID": 6512,
		"ItemDropCountDisplay": 4,
		"Icon": "",
		"DayBonusDropID": 6503,
		"DayBonusExtraDropID": 8128
	},
	{
		"ID": 4,
		"Name": "Dark Uprising 35",
		"TeamName": "Lv.38",
		"PlayerLevelRequired": 35,
		"EnergySuccess": 15,
		"EnergyFail": 15,
		"MonsterLevel": 38,
		"BattleID": 4101,
		"PlayerExp": 15,
		"HeroExp": 150,
		"Gold": 1128,
		"DropID": 6513,
		"ItemDropCountDisplay": 4,
		"Icon": "",
		"DayBonusDropID": 6504,
		"DayBonusExtraDropID": 8129
	},
	{
		"ID": 5,
		"Name": "Dark Uprising 40",
		"TeamName": "Lv.43",
		"PlayerLevelRequired": 40,
		"EnergySuccess": 15,
		"EnergyFail": 15,
		"MonsterLevel": 43,
		"BattleID": 4102,
		"PlayerExp": 15,
		"HeroExp": 159,
		"Gold": 1238,
		"DropID": 6514,
		"ItemDropCountDisplay": 4,
		"Icon": "",
		"DayBonusDropID": 6505,
		"DayBonusExtraDropID": 8130
	},
	{
		"ID": 6,
		"Name": "Dark Uprising 45",
		"TeamName": "Lv.48",
		"PlayerLevelRequired": 45,
		"EnergySuccess": 15,
		"EnergyFail": 15,
		"MonsterLevel": 48,
		"BattleID": 4103,
		"PlayerExp": 15,
		"HeroExp": 174,
		"Gold": 1427,
		"DropID": 6515,
		"ItemDropCountDisplay": 4,
		"Icon": "",
		"DayBonusDropID": 6506,
		"DayBonusExtraDropID": 8131
	},
	{
		"ID": 7,
		"Name": "Dark Uprising 50",
		"TeamName": "Lv.53",
		"PlayerLevelRequired": 50,
		"EnergySuccess": 15,
		"EnergyFail": 15,
		"MonsterLevel": 53,
		"BattleID": 4104,
		"PlayerExp": 15,
		"HeroExp": 189,
		"Gold": 1628,
		"DropID": 6516,
		"ItemDropCountDisplay": 4,
		"Icon": "",
		"DayBonusDropID": 6507,
		"DayBonusExtraDropID": 8132
	},
	{
		"ID": 8,
		"Name": "Dark Uprising 55",
		"TeamName": "Lv.58",
		"PlayerLevelRequired": 55,
		"EnergySuccess": 15,
		"EnergyFail": 15,
		"MonsterLevel": 58,
		"BattleID": 4105,
		"PlayerExp": 15,
		"HeroExp": 204,
		"Gold": 1836,
		"DropID": 6517,
		"ItemDropCountDisplay": 4,
		"Icon": "",
		"DayBonusDropID": 6508,
		"DayBonusExtraDropID": 8133
	},
	{
		"ID": 9,
		"Name": "Dark Uprising 60",
		"TeamName": "Lv.60",
		"PlayerLevelRequired": 60,
		"EnergySuccess": 15,
		"EnergyFail": 15,
		"MonsterLevel": 60,
		"BattleID": 4106,
		"PlayerExp": 15,
		"HeroExp": 210,
		"Gold": 1923,
		"DropID": 6518,
		"ItemDropCountDisplay": 4,
		"Icon": "",
		"DayBonusDropID": 6509,
		"DayBonusExtraDropID": 8134
	},
	{
		"ID": 11,
		"Name": "Imperial Invasion 20",
		"TeamName": "Lv.23",
		"PlayerLevelRequired": 25,
		"EnergySuccess": 15,
		"EnergyFail": 15,
		"MonsterLevel": 23,
		"BattleID": 4200,
		"PlayerExp": 15,
		"HeroExp": 99,
		"Gold": 594,
		"DropID": 6528,
		"ItemDropCountDisplay": 2,
		"Icon": "",
		"DayBonusDropID": 6519,
		"DayBonusExtraDropID": 8135
	},
	{
		"ID": 12,
		"Name": "Imperial Invasion 25",
		"TeamName": "Lv.28",
		"PlayerLevelRequired": 25,
		"EnergySuccess": 15,
		"EnergyFail": 15,
		"MonsterLevel": 28,
		"BattleID": 4200,
		"PlayerExp": 15,
		"HeroExp": 114,
		"Gold": 735,
		"DropID": 6529,
		"ItemDropCountDisplay": 2,
		"Icon": "",
		"DayBonusDropID": 6520,
		"DayBonusExtraDropID": 8136
	},
	{
		"ID": 13,
		"Name": "Imperial Invasion 30",
		"TeamName": "Lv.33",
		"PlayerLevelRequired": 30,
		"EnergySuccess": 15,
		"EnergyFail": 15,
		"MonsterLevel": 33,
		"BattleID": 4200,
		"PlayerExp": 15,
		"HeroExp": 129,
		"Gold": 891,
		"DropID": 6530,
		"ItemDropCountDisplay": 3,
		"Icon": "",
		"DayBonusDropID": 6521,
		"DayBonusExtraDropID": 8137
	},
	{
		"ID": 14,
		"Name": "Imperial Invasion 35",
		"TeamName": "Lv.38",
		"PlayerLevelRequired": 35,
		"EnergySuccess": 15,
		"EnergyFail": 15,
		"MonsterLevel": 38,
		"BattleID": 4201,
		"PlayerExp": 15,
		"HeroExp": 150,
		"Gold": 1128,
		"DropID": 6531,
		"ItemDropCountDisplay": 3,
		"Icon": "",
		"DayBonusDropID": 6522,
		"DayBonusExtraDropID": 8138
	},
	{
		"ID": 15,
		"Name": "Imperial Invasion 40",
		"TeamName": "Lv.43",
		"PlayerLevelRequired": 40,
		"EnergySuccess": 15,
		"EnergyFail": 15,
		"MonsterLevel": 43,
		"BattleID": 4202,
		"PlayerExp": 15,
		"HeroExp": 159,
		"Gold": 1238,
		"DropID": 6532,
		"ItemDropCountDisplay": 3,
		"Icon": "",
		"DayBonusDropID": 6523,
		"DayBonusExtraDropID": 8139
	},
	{
		"ID": 16,
		"Name": "Imperial Invasion 45",
		"TeamName": "Lv.48",
		"PlayerLevelRequired": 45,
		"EnergySuccess": 15,
		"EnergyFail": 15,
		"MonsterLevel": 48,
		"BattleID": 4203,
		"PlayerExp": 15,
		"HeroExp": 174,
		"Gold": 1427,
		"DropID": 6533,
		"ItemDropCountDisplay": 3,
		"Icon": "",
		"DayBonusDropID": 6524,
		"DayBonusExtraDropID": 8140
	},
	{
		"ID": 17,
		"Name": "Imperial Invasion 50",
		"TeamName": "Lv.53",
		"PlayerLevelRequired": 50,
		"EnergySuccess": 15,
		"EnergyFail": 15,
		"MonsterLevel": 53,
		"BattleID": 4204,
		"PlayerExp": 15,
		"HeroExp": 189,
		"Gold": 1628,
		"DropID": 6534,
		"ItemDropCountDisplay": 3,
		"Icon": "",
		"DayBonusDropID": 6525,
		"DayBonusExtraDropID": 8141
	},
	{
		"ID": 18,
		"Name": "Imperial Invasion 55",
		"TeamName": "Lv.58",
		"PlayerLevelRequired": 55,
		"EnergySuccess": 15,
		"EnergyFail": 15,
		"MonsterLevel": 58,
		"BattleID": 4205,
		"PlayerExp": 15,
		"HeroExp": 204,
		"Gold": 1836,
		"DropID": 6535,
		"ItemDropCountDisplay": 3,
		"Icon": "",
		"DayBonusDropID": 6526,
		"DayBonusExtraDropID": 8142
	},
	{
		"ID": 19,
		"Name": "Imperial Invasion 60",
		"TeamName": "Lv.60",
		"PlayerLevelRequired": 60,
		"EnergySuccess": 15,
		"EnergyFail": 15,
		"MonsterLevel": 60,
		"BattleID": 4206,
		"PlayerExp": 15,
		"HeroExp": 210,
		"Gold": 1923,
		"DropID": 6536,
		"ItemDropCountDisplay": 3,
		"Icon": "",
		"DayBonusDropID": 6527,
		"DayBonusExtraDropID": 8143
	},
	{
		"ID": 21,
		"Name": "Angelica's Guardians 20",
		"TeamName": "Lv.23",
		"PlayerLevelRequired": 25,
		"EnergySuccess": 15,
		"EnergyFail": 15,
		"MonsterLevel": 23,
		"BattleID": 4300,
		"PlayerExp": 15,
		"HeroExp": 99,
		"Gold": 594,
		"DropID": 6546,
		"ItemDropCountDisplay": 4,
		"Icon": "",
		"DayBonusDropID": 6537,
		"DayBonusExtraDropID": 8144
	},
	{
		"ID": 22,
		"Name": "Angelica's Guardians 25",
		"TeamName": "Lv.28",
		"PlayerLevelRequired": 25,
		"EnergySuccess": 15,
		"EnergyFail": 15,
		"MonsterLevel": 28,
		"BattleID": 4300,
		"PlayerExp": 15,
		"HeroExp": 114,
		"Gold": 735,
		"DropID": 6547,
		"ItemDropCountDisplay": 4,
		"Icon": "",
		"DayBonusDropID": 6538,
		"DayBonusExtraDropID": 8145
	},
	{
		"ID": 23,
		"Name": "Angelica's Guardians 30",
		"TeamName": "Lv.33",
		"PlayerLevelRequired": 30,
		"EnergySuccess": 15,
		"EnergyFail": 15,
		"MonsterLevel": 33,
		"BattleID": 4300,
		"PlayerExp": 15,
		"HeroExp": 129,
		"Gold": 891,
		"DropID": 6548,
		"ItemDropCountDisplay": 4,
		"Icon": "",
		"DayBonusDropID": 6539,
		"DayBonusExtraDropID": 8146
	},
	{
		"ID": 24,
		"Name": "Angelica's Guardians 35",
		"TeamName": "Lv.38",
		"PlayerLevelRequired": 35,
		"EnergySuccess": 15,
		"EnergyFail": 15,
		"MonsterLevel": 38,
		"BattleID": 4301,
		"PlayerExp": 15,
		"HeroExp": 150,
		"Gold": 1128,
		"DropID": 6549,
		"ItemDropCountDisplay": 4,
		"Icon": "",
		"DayBonusDropID": 6540,
		"DayBonusExtraDropID": 8147
	},
	{
		"ID": 25,
		"Name": "Angelica's Guardians 40",
		"TeamName": "Lv.43",
		"PlayerLevelRequired": 40,
		"EnergySuccess": 15,
		"EnergyFail": 15,
		"MonsterLevel": 43,
		"BattleID": 4302,
		"PlayerExp": 15,
		"HeroExp": 159,
		"Gold": 1238,
		"DropID": 6550,
		"ItemDropCountDisplay": 4,
		"Icon": "",
		"DayBonusDropID": 6541,
		"DayBonusExtraDropID": 8148
	},
	{
		"ID": 26,
		"Name": "Angelica's Guardians 45",
		"TeamName": "Lv.48",
		"PlayerLevelRequired": 45,
		"EnergySuccess": 15,
		"EnergyFail": 15,
		"MonsterLevel": 48,
		"BattleID": 4303,
		"PlayerExp": 15,
		"HeroExp": 174,
		"Gold": 1427,
		"DropID": 6551,
		"ItemDropCountDisplay": 4,
		"Icon": "",
		"DayBonusDropID": 6542,
		"DayBonusExtraDropID": 8149
	},
	{
		"ID": 27,
		"Name": "Angelica's Guardians 50",
		"TeamName": "Lv.53",
		"PlayerLevelRequired": 50,
		"EnergySuccess": 15,
		"EnergyFail": 15,
		"MonsterLevel": 53,
		"BattleID": 4304,
		"PlayerExp": 15,
		"HeroExp": 189,
		"Gold": 1628,
		"DropID": 6552,
		"ItemDropCountDisplay": 4,
		"Icon": "",
		"DayBonusDropID": 6543,
		"DayBonusExtraDropID": 8150
	},
	{
		"ID": 28,
		"Name": "Angelica's Guardians 55",
		"TeamName": "Lv.58",
		"PlayerLevelRequired": 55,
		"EnergySuccess": 15,
		"EnergyFail": 15,
		"MonsterLevel": 58,
		"BattleID": 4305,
		"PlayerExp": 15,
		"HeroExp": 204,
		"Gold": 1836,
		"DropID": 6553,
		"ItemDropCountDisplay": 4,
		"Icon": "",
		"DayBonusDropID": 6544,
		"DayBonusExtraDropID": 8151
	},
	{
		"ID": 29,
		"Name": "Angelica's Guardians 60",
		"TeamName": "Lv.60",
		"PlayerLevelRequired": 60,
		"EnergySuccess": 15,
		"EnergyFail": 15,
		"MonsterLevel": 60,
		"BattleID": 4306,
		"PlayerExp": 15,
		"HeroExp": 210,
		"Gold": 1923,
		"DropID": 6554,
		"ItemDropCountDisplay": 4,
		"Icon": "",
		"DayBonusDropID": 6545,
		"DayBonusExtraDropID": 8152
	},
	{
		"ID": 31,
		"Name": "Light's Illumination 20",
		"TeamName": "Lv.23",
		"PlayerLevelRequired": 25,
		"EnergySuccess": 15,
		"EnergyFail": 15,
		"MonsterLevel": 23,
		"BattleID": 4000,
		"PlayerExp": 15,
		"HeroExp": 99,
		"Gold": 594,
		"DropID": 6564,
		"ItemDropCountDisplay": 3,
		"Icon": "",
		"DayBonusDropID": 6555,
		"DayBonusExtraDropID": 8153
	},
	{
		"ID": 32,
		"Name": "Light's Illumination 25",
		"TeamName": "Lv.28",
		"PlayerLevelRequired": 25,
		"EnergySuccess": 15,
		"EnergyFail": 15,
		"MonsterLevel": 28,
		"BattleID": 4000,
		"PlayerExp": 15,
		"HeroExp": 114,
		"Gold": 735,
		"DropID": 6565,
		"ItemDropCountDisplay": 3,
		"Icon": "",
		"DayBonusDropID": 6556,
		"DayBonusExtraDropID": 8154
	},
	{
		"ID": 33,
		"Name": "Light's Illumination 30",
		"TeamName": "Lv.33",
		"PlayerLevelRequired": 30,
		"EnergySuccess": 15,
		"EnergyFail": 15,
		"MonsterLevel": 33,
		"BattleID": 4000,
		"PlayerExp": 15,
		"HeroExp": 129,
		"Gold": 891,
		"DropID": 6566,
		"ItemDropCountDisplay": 3,
		"Icon": "",
		"DayBonusDropID": 6557,
		"DayBonusExtraDropID": 8155
	},
	{
		"ID": 34,
		"Name": "Light's Illumination 35",
		"TeamName": "Lv.38",
		"PlayerLevelRequired": 35,
		"EnergySuccess": 15,
		"EnergyFail": 15,
		"MonsterLevel": 38,
		"BattleID": 4001,
		"PlayerExp": 15,
		"HeroExp": 150,
		"Gold": 1128,
		"DropID": 6567,
		"ItemDropCountDisplay": 3,
		"Icon": "",
		"DayBonusDropID": 6558,
		"DayBonusExtraDropID": 8156
	},
	{
		"ID": 35,
		"Name": "Light's Illumination 40",
		"TeamName": "Lv.43",
		"PlayerLevelRequired": 40,
		"EnergySuccess": 15,
		"EnergyFail": 15,
		"MonsterLevel": 43,
		"BattleID": 4002,
		"PlayerExp": 15,
		"HeroExp": 159,
		"Gold": 1238,
		"DropID": 6568,
		"ItemDropCountDisplay": 3,
		"Icon": "",
		"DayBonusDropID": 6559,
		"DayBonusExtraDropID": 8157
	},
	{
		"ID": 36,
		"Name": "Light's Illumination 45",
		"TeamName": "Lv.48",
		"PlayerLevelRequired": 45,
		"EnergySuccess": 15,
		"EnergyFail": 15,
		"MonsterLevel": 48,
		"BattleID": 4003,
		"PlayerExp": 15,
		"HeroExp": 174,
		"Gold": 1427,
		"DropID": 6569,
		"ItemDropCountDisplay": 3,
		"Icon": "",
		"DayBonusDropID": 6560,
		"DayBonusExtraDropID": 8158
	},
	{
		"ID": 37,
		"Name": "Light's Illumination 50",
		"TeamName": "Lv.53",
		"PlayerLevelRequired": 50,
		"EnergySuccess": 15,
		"EnergyFail": 15,
		"MonsterLevel": 53,
		"BattleID": 4004,
		"PlayerExp": 15,
		"HeroExp": 189,
		"Gold": 1628,
		"DropID": 6570,
		"ItemDropCountDisplay": 3,
		"Icon": "",
		"DayBonusDropID": 6561,
		"DayBonusExtraDropID": 8159
	},
	{
		"ID": 38,
		"Name": "Light's Illumination 55",
		"TeamName": "Lv.58",
		"PlayerLevelRequired": 55,
		"EnergySuccess": 15,
		"EnergyFail": 15,
		"MonsterLevel": 58,
		"BattleID": 4005,
		"PlayerExp": 15,
		"HeroExp": 204,
		"Gold": 1836,
		"DropID": 6571,
		"ItemDropCountDisplay": 3,
		"Icon": "",
		"DayBonusDropID": 6562,
		"DayBonusExtraDropID": 8160
	},
	{
		"ID": 39,
		"Name": "Light's Illumination 60",
		"TeamName": "Lv.60",
		"PlayerLevelRequired": 60,
		"EnergySuccess": 15,
		"EnergyFail": 15,
		"MonsterLevel": 60,
		"BattleID": 4006,
		"PlayerExp": 15,
		"HeroExp": 210,
		"Gold": 1923,
		"DropID": 6572,
		"ItemDropCountDisplay": 3,
		"Icon": "",
		"DayBonusDropID": 6563,
		"DayBonusExtraDropID": 8161
	}
]