[
	{
		"ID": 1,
		"Name": "火龙20",
		"TeamName": "Lv.20",
		"PreLevel": 0,
		"TicketCost": 0,
		"EnergySuccess": 30,
		"EnergyFail": 6,
		"TeamEnergyCost": 24,
		"MonsterLevel": 20,
		"BattleID": 30,
		"PlayerExp": 120,
		"HeroExp": 1032,
		"Gold": 4011,
		"DropID": 8001,
		"TeamDropID": 0,
		"OperationalActivityDropID": 4001,
		"DayBonusDropID": 2
	},
	{
		"ID": 2,
		"Name": "火龙25",
		"TeamName": "Lv.25",
		"PreLevel": 1,
		"TicketCost": 0,
		"EnergySuccess": 30,
		"EnergyFail": 6,
		"TeamEnergyCost": 24,
		"MonsterLevel": 25,
		"BattleID": 30,
		"PlayerExp": 135,
		"HeroExp": 1299,
		"Gold": 4012,
		"DropID": 8002,
		"TeamDropID": 0,
		"OperationalActivityDropID": 4002,
		"DayBonusDropID": 3
	},
	{
		"ID": 3,
		"Name": "火龙30",
		"TeamName": "Lv.30",
		"PreLevel": 2,
		"TicketCost": 0,
		"EnergySuccess": 30,
		"EnergyFail": 6,
		"TeamEnergyCost": 24,
		"MonsterLevel": 30,
		"BattleID": 30,
		"PlayerExp": 150,
		"HeroExp": 1593,
		"Gold": 4013,
		"DropID": 8003,
		"TeamDropID": 0,
		"OperationalActivityDropID": 4003,
		"DayBonusDropID": 3
	},
	{
		"ID": 4,
		"Name": "火龙35",
		"TeamName": "Lv.35",
		"PreLevel": 3,
		"TicketCost": 0,
		"EnergySuccess": 30,
		"EnergyFail": 6,
		"TeamEnergyCost": 24,
		"MonsterLevel": 35,
		"BattleID": 30,
		"PlayerExp": 165,
		"HeroExp": 1914,
		"Gold": 4014,
		"DropID": 8004,
		"TeamDropID": 0,
		"OperationalActivityDropID": 4004,
		"DayBonusDropID": 3
	},
	{
		"ID": 5,
		"Name": "火龙40",
		"TeamName": "Lv.40",
		"PreLevel": 4,
		"TicketCost": 0,
		"EnergySuccess": 30,
		"EnergyFail": 6,
		"TeamEnergyCost": 24,
		"MonsterLevel": 40,
		"BattleID": 30,
		"PlayerExp": 180,
		"HeroExp": 2256,
		"Gold": 4015,
		"DropID": 8005,
		"TeamDropID": 0,
		"OperationalActivityDropID": 4005,
		"DayBonusDropID": 3
	},
	{
		"ID": 6,
		"Name": "火龙45",
		"TeamName": "Lv.45",
		"PreLevel": 5,
		"TicketCost": 0,
		"EnergySuccess": 30,
		"EnergyFail": 6,
		"TeamEnergyCost": 24,
		"MonsterLevel": 45,
		"BattleID": 30,
		"PlayerExp": 195,
		"HeroExp": 2625,
		"Gold": 4016,
		"DropID": 8006,
		"TeamDropID": 0,
		"OperationalActivityDropID": 4006,
		"DayBonusDropID": 3
	},
	{
		"ID": 7,
		"Name": "火龙50",
		"TeamName": "Lv.50",
		"PreLevel": 6,
		"TicketCost": 0,
		"EnergySuccess": 30,
		"EnergyFail": 6,
		"TeamEnergyCost": 24,
		"MonsterLevel": 50,
		"BattleID": 30,
		"PlayerExp": 210,
		"HeroExp": 3012,
		"Gold": 4017,
		"DropID": 8007,
		"TeamDropID": 0,
		"OperationalActivityDropID": 4007,
		"DayBonusDropID": 3
	},
	{
		"ID": 8,
		"Name": "火龙55",
		"TeamName": "Lv.55",
		"PreLevel": 7,
		"TicketCost": 0,
		"EnergySuccess": 30,
		"EnergyFail": 6,
		"TeamEnergyCost": 24,
		"MonsterLevel": 55,
		"BattleID": 30,
		"PlayerExp": 225,
		"HeroExp": 3420,
		"Gold": 4018,
		"DropID": 8008,
		"TeamDropID": 0,
		"OperationalActivityDropID": 4008,
		"DayBonusDropID": 3
	},
	{
		"ID": 9,
		"Name": "火龙60",
		"TeamName": "Lv.60",
		"PreLevel": 8,
		"TicketCost": 0,
		"EnergySuccess": 30,
		"EnergyFail": 6,
		"TeamEnergyCost": 24,
		"MonsterLevel": 60,
		"BattleID": 30,
		"PlayerExp": 240,
		"HeroExp": 3846,
		"Gold": 4019,
		"DropID": 8009,
		"TeamDropID": 0,
		"OperationalActivityDropID": 4009,
		"DayBonusDropID": 3
	},
	{
		"ID": 10,
		"Name": "火龙65",
		"TeamName": "Lv.65",
		"PreLevel": 9,
		"TicketCost": 0,
		"EnergySuccess": 30,
		"EnergyFail": 6,
		"TeamEnergyCost": 24,
		"MonsterLevel": 65,
		"BattleID": 30,
		"PlayerExp": 240,
		"HeroExp": 3846,
		"Gold": 4020,
		"DropID": 8010,
		"TeamDropID": 0,
		"OperationalActivityDropID": 4010,
		"DayBonusDropID": 3
	},
	{
		"ID": 11,
		"Name": "冰龙20",
		"TeamName": "Lv.20",
		"PreLevel": 0,
		"TicketCost": 0,
		"EnergySuccess": 30,
		"EnergyFail": 6,
		"TeamEnergyCost": 24,
		"MonsterLevel": 20,
		"BattleID": 30,
		"PlayerExp": 120,
		"HeroExp": 1032,
		"Gold": 4031,
		"DropID": 8011,
		"TeamDropID": 0,
		"OperationalActivityDropID": 4021,
		"DayBonusDropID": 2
	},
	{
		"ID": 12,
		"Name": "冰龙25",
		"TeamName": "Lv.25",
		"PreLevel": 11,
		"TicketCost": 0,
		"EnergySuccess": 30,
		"EnergyFail": 6,
		"TeamEnergyCost": 24,
		"MonsterLevel": 25,
		"BattleID": 30,
		"PlayerExp": 135,
		"HeroExp": 1299,
		"Gold": 4032,
		"DropID": 8012,
		"TeamDropID": 0,
		"OperationalActivityDropID": 4022,
		"DayBonusDropID": 3
	},
	{
		"ID": 13,
		"Name": "冰龙30",
		"TeamName": "Lv.30",
		"PreLevel": 12,
		"TicketCost": 0,
		"EnergySuccess": 30,
		"EnergyFail": 6,
		"TeamEnergyCost": 24,
		"MonsterLevel": 30,
		"BattleID": 30,
		"PlayerExp": 150,
		"HeroExp": 1593,
		"Gold": 4033,
		"DropID": 8013,
		"TeamDropID": 0,
		"OperationalActivityDropID": 4023,
		"DayBonusDropID": 3
	},
	{
		"ID": 14,
		"Name": "冰龙35",
		"TeamName": "Lv.35",
		"PreLevel": 13,
		"TicketCost": 0,
		"EnergySuccess": 30,
		"EnergyFail": 6,
		"TeamEnergyCost": 24,
		"MonsterLevel": 35,
		"BattleID": 30,
		"PlayerExp": 165,
		"HeroExp": 1914,
		"Gold": 4034,
		"DropID": 8014,
		"TeamDropID": 0,
		"OperationalActivityDropID": 4024,
		"DayBonusDropID": 3
	},
	{
		"ID": 15,
		"Name": "冰龙40",
		"TeamName": "Lv.40",
		"PreLevel": 14,
		"TicketCost": 0,
		"EnergySuccess": 30,
		"EnergyFail": 6,
		"TeamEnergyCost": 24,
		"MonsterLevel": 40,
		"BattleID": 30,
		"PlayerExp": 180,
		"HeroExp": 2256,
		"Gold": 4035,
		"DropID": 8015,
		"TeamDropID": 0,
		"OperationalActivityDropID": 4025,
		"DayBonusDropID": 3
	},
	{
		"ID": 16,
		"Name": "冰龙45",
		"TeamName": "Lv.45",
		"PreLevel": 15,
		"TicketCost": 0,
		"EnergySuccess": 30,
		"EnergyFail": 6,
		"TeamEnergyCost": 24,
		"MonsterLevel": 45,
		"BattleID": 30,
		"PlayerExp": 195,
		"HeroExp": 2625,
		"Gold": 4036,
		"DropID": 8016,
		"TeamDropID": 0,
		"OperationalActivityDropID": 4026,
		"DayBonusDropID": 3
	},
	{
		"ID": 17,
		"Name": "冰龙50",
		"TeamName": "Lv.50",
		"PreLevel": 16,
		"TicketCost": 0,
		"EnergySuccess": 30,
		"EnergyFail": 6,
		"TeamEnergyCost": 24,
		"MonsterLevel": 50,
		"BattleID": 30,
		"PlayerExp": 210,
		"HeroExp": 3012,
		"Gold": 4037,
		"DropID": 8017,
		"TeamDropID": 0,
		"OperationalActivityDropID": 4027,
		"DayBonusDropID": 3
	},
	{
		"ID": 18,
		"Name": "冰龙55",
		"TeamName": "Lv.55",
		"PreLevel": 17,
		"TicketCost": 0,
		"EnergySuccess": 30,
		"EnergyFail": 6,
		"TeamEnergyCost": 24,
		"MonsterLevel": 55,
		"BattleID": 30,
		"PlayerExp": 225,
		"HeroExp": 3420,
		"Gold": 4038,
		"DropID": 8018,
		"TeamDropID": 0,
		"OperationalActivityDropID": 4028,
		"DayBonusDropID": 3
	},
	{
		"ID": 19,
		"Name": "冰龙60",
		"TeamName": "Lv.60",
		"PreLevel": 18,
		"TicketCost": 0,
		"EnergySuccess": 30,
		"EnergyFail": 6,
		"TeamEnergyCost": 24,
		"MonsterLevel": 60,
		"BattleID": 30,
		"PlayerExp": 240,
		"HeroExp": 3846,
		"Gold": 4039,
		"DropID": 8019,
		"TeamDropID": 0,
		"OperationalActivityDropID": 4029,
		"DayBonusDropID": 3
	},
	{
		"ID": 20,
		"Name": "冰龙65",
		"TeamName": "Lv.65",
		"PreLevel": 19,
		"TicketCost": 0,
		"EnergySuccess": 30,
		"EnergyFail": 6,
		"TeamEnergyCost": 24,
		"MonsterLevel": 65,
		"BattleID": 30,
		"PlayerExp": 240,
		"HeroExp": 3846,
		"Gold": 4040,
		"DropID": 8020,
		"TeamDropID": 0,
		"OperationalActivityDropID": 4030,
		"DayBonusDropID": 3
	},
	{
		"ID": 21,
		"Name": "雷龙20",
		"TeamName": "Lv.20",
		"PreLevel": 0,
		"TicketCost": 0,
		"EnergySuccess": 30,
		"EnergyFail": 6,
		"TeamEnergyCost": 24,
		"MonsterLevel": 20,
		"BattleID": 30,
		"PlayerExp": 120,
		"HeroExp": 1032,
		"Gold": 4051,
		"DropID": 8021,
		"TeamDropID": 0,
		"OperationalActivityDropID": 4041,
		"DayBonusDropID": 2
	},
	{
		"ID": 22,
		"Name": "雷龙25",
		"TeamName": "Lv.25",
		"PreLevel": 21,
		"TicketCost": 0,
		"EnergySuccess": 30,
		"EnergyFail": 6,
		"TeamEnergyCost": 24,
		"MonsterLevel": 25,
		"BattleID": 30,
		"PlayerExp": 135,
		"HeroExp": 1299,
		"Gold": 4052,
		"DropID": 8022,
		"TeamDropID": 0,
		"OperationalActivityDropID": 4042,
		"DayBonusDropID": 3
	},
	{
		"ID": 23,
		"Name": "雷龙30",
		"TeamName": "Lv.30",
		"PreLevel": 22,
		"TicketCost": 0,
		"EnergySuccess": 30,
		"EnergyFail": 6,
		"TeamEnergyCost": 24,
		"MonsterLevel": 30,
		"BattleID": 30,
		"PlayerExp": 150,
		"HeroExp": 1593,
		"Gold": 4053,
		"DropID": 8023,
		"TeamDropID": 0,
		"OperationalActivityDropID": 4043,
		"DayBonusDropID": 3
	},
	{
		"ID": 24,
		"Name": "雷龙35",
		"TeamName": "Lv.35",
		"PreLevel": 23,
		"TicketCost": 0,
		"EnergySuccess": 30,
		"EnergyFail": 6,
		"TeamEnergyCost": 24,
		"MonsterLevel": 35,
		"BattleID": 30,
		"PlayerExp": 165,
		"HeroExp": 1914,
		"Gold": 4054,
		"DropID": 8024,
		"TeamDropID": 0,
		"OperationalActivityDropID": 4044,
		"DayBonusDropID": 3
	},
	{
		"ID": 25,
		"Name": "雷龙40",
		"TeamName": "Lv.40",
		"PreLevel": 24,
		"TicketCost": 0,
		"EnergySuccess": 30,
		"EnergyFail": 6,
		"TeamEnergyCost": 24,
		"MonsterLevel": 40,
		"BattleID": 30,
		"PlayerExp": 180,
		"HeroExp": 2256,
		"Gold": 4055,
		"DropID": 8025,
		"TeamDropID": 0,
		"OperationalActivityDropID": 4045,
		"DayBonusDropID": 3
	},
	{
		"ID": 26,
		"Name": "雷龙45",
		"TeamName": "Lv.45",
		"PreLevel": 25,
		"TicketCost": 0,
		"EnergySuccess": 30,
		"EnergyFail": 6,
		"TeamEnergyCost": 24,
		"MonsterLevel": 45,
		"BattleID": 30,
		"PlayerExp": 195,
		"HeroExp": 2625,
		"Gold": 4056,
		"DropID": 8026,
		"TeamDropID": 0,
		"OperationalActivityDropID": 4046,
		"DayBonusDropID": 3
	},
	{
		"ID": 27,
		"Name": "雷龙50",
		"TeamName": "Lv.50",
		"PreLevel": 26,
		"TicketCost": 0,
		"EnergySuccess": 30,
		"EnergyFail": 6,
		"TeamEnergyCost": 24,
		"MonsterLevel": 50,
		"BattleID": 30,
		"PlayerExp": 210,
		"HeroExp": 3012,
		"Gold": 4057,
		"DropID": 8027,
		"TeamDropID": 0,
		"OperationalActivityDropID": 4047,
		"DayBonusDropID": 3
	},
	{
		"ID": 28,
		"Name": "雷龙55",
		"TeamName": "Lv.55",
		"PreLevel": 27,
		"TicketCost": 0,
		"EnergySuccess": 30,
		"EnergyFail": 6,
		"TeamEnergyCost": 24,
		"MonsterLevel": 55,
		"BattleID": 30,
		"PlayerExp": 225,
		"HeroExp": 3420,
		"Gold": 4058,
		"DropID": 8028,
		"TeamDropID": 0,
		"OperationalActivityDropID": 4048,
		"DayBonusDropID": 3
	},
	{
		"ID": 29,
		"Name": "雷龙60",
		"TeamName": "Lv.60",
		"PreLevel": 28,
		"TicketCost": 0,
		"EnergySuccess": 30,
		"EnergyFail": 6,
		"TeamEnergyCost": 24,
		"MonsterLevel": 60,
		"BattleID": 30,
		"PlayerExp": 240,
		"HeroExp": 3846,
		"Gold": 4059,
		"DropID": 8029,
		"TeamDropID": 0,
		"OperationalActivityDropID": 4049,
		"DayBonusDropID": 3
	},
	{
		"ID": 30,
		"Name": "雷龙65",
		"TeamName": "Lv.65",
		"PreLevel": 29,
		"TicketCost": 0,
		"EnergySuccess": 30,
		"EnergyFail": 6,
		"TeamEnergyCost": 24,
		"MonsterLevel": 65,
		"BattleID": 30,
		"PlayerExp": 240,
		"HeroExp": 3846,
		"Gold": 4060,
		"DropID": 8030,
		"TeamDropID": 0,
		"OperationalActivityDropID": 4050,
		"DayBonusDropID": 3
	},
	{
		"ID": 31,
		"Name": "黑龙20",
		"TeamName": "Lv.20",
		"PreLevel": 0,
		"TicketCost": 0,
		"EnergySuccess": 30,
		"EnergyFail": 6,
		"TeamEnergyCost": 24,
		"MonsterLevel": 20,
		"BattleID": 30,
		"PlayerExp": 120,
		"HeroExp": 1032,
		"Gold": 4071,
		"DropID": 8031,
		"TeamDropID": 0,
		"OperationalActivityDropID": 4061,
		"DayBonusDropID": 2
	},
	{
		"ID": 32,
		"Name": "黑龙25",
		"TeamName": "Lv.25",
		"PreLevel": 31,
		"TicketCost": 0,
		"EnergySuccess": 30,
		"EnergyFail": 6,
		"TeamEnergyCost": 24,
		"MonsterLevel": 25,
		"BattleID": 30,
		"PlayerExp": 135,
		"HeroExp": 1299,
		"Gold": 4072,
		"DropID": 8032,
		"TeamDropID": 0,
		"OperationalActivityDropID": 4062,
		"DayBonusDropID": 3
	},
	{
		"ID": 33,
		"Name": "黑龙30",
		"TeamName": "Lv.30",
		"PreLevel": 32,
		"TicketCost": 0,
		"EnergySuccess": 30,
		"EnergyFail": 6,
		"TeamEnergyCost": 24,
		"MonsterLevel": 30,
		"BattleID": 30,
		"PlayerExp": 150,
		"HeroExp": 1593,
		"Gold": 4073,
		"DropID": 8033,
		"TeamDropID": 0,
		"OperationalActivityDropID": 4063,
		"DayBonusDropID": 3
	},
	{
		"ID": 34,
		"Name": "黑龙35",
		"TeamName": "Lv.35",
		"PreLevel": 33,
		"TicketCost": 0,
		"EnergySuccess": 30,
		"EnergyFail": 6,
		"TeamEnergyCost": 24,
		"MonsterLevel": 35,
		"BattleID": 30,
		"PlayerExp": 165,
		"HeroExp": 1914,
		"Gold": 4074,
		"DropID": 8034,
		"TeamDropID": 0,
		"OperationalActivityDropID": 4064,
		"DayBonusDropID": 3
	},
	{
		"ID": 35,
		"Name": "黑龙40",
		"TeamName": "Lv.40",
		"PreLevel": 34,
		"TicketCost": 0,
		"EnergySuccess": 30,
		"EnergyFail": 6,
		"TeamEnergyCost": 24,
		"MonsterLevel": 40,
		"BattleID": 30,
		"PlayerExp": 180,
		"HeroExp": 2256,
		"Gold": 4075,
		"DropID": 8035,
		"TeamDropID": 0,
		"OperationalActivityDropID": 4065,
		"DayBonusDropID": 3
	},
	{
		"ID": 36,
		"Name": "黑龙45",
		"TeamName": "Lv.45",
		"PreLevel": 35,
		"TicketCost": 0,
		"EnergySuccess": 30,
		"EnergyFail": 6,
		"TeamEnergyCost": 24,
		"MonsterLevel": 45,
		"BattleID": 30,
		"PlayerExp": 195,
		"HeroExp": 2625,
		"Gold": 4076,
		"DropID": 8036,
		"TeamDropID": 0,
		"OperationalActivityDropID": 4066,
		"DayBonusDropID": 3
	},
	{
		"ID": 37,
		"Name": "黑龙50",
		"TeamName": "Lv.50",
		"PreLevel": 36,
		"TicketCost": 0,
		"EnergySuccess": 30,
		"EnergyFail": 6,
		"TeamEnergyCost": 24,
		"MonsterLevel": 50,
		"BattleID": 30,
		"PlayerExp": 210,
		"HeroExp": 3012,
		"Gold": 4077,
		"DropID": 8037,
		"TeamDropID": 0,
		"OperationalActivityDropID": 4067,
		"DayBonusDropID": 3
	},
	{
		"ID": 38,
		"Name": "黑龙55",
		"TeamName": "Lv.55",
		"PreLevel": 37,
		"TicketCost": 0,
		"EnergySuccess": 30,
		"EnergyFail": 6,
		"TeamEnergyCost": 24,
		"MonsterLevel": 55,
		"BattleID": 30,
		"PlayerExp": 225,
		"HeroExp": 3420,
		"Gold": 4078,
		"DropID": 8038,
		"TeamDropID": 0,
		"OperationalActivityDropID": 4068,
		"DayBonusDropID": 3
	},
	{
		"ID": 39,
		"Name": "黑龙60",
		"TeamName": "Lv.60",
		"PreLevel": 38,
		"TicketCost": 0,
		"EnergySuccess": 30,
		"EnergyFail": 6,
		"TeamEnergyCost": 24,
		"MonsterLevel": 60,
		"BattleID": 30,
		"PlayerExp": 240,
		"HeroExp": 3846,
		"Gold": 4079,
		"DropID": 8039,
		"TeamDropID": 0,
		"OperationalActivityDropID": 4069,
		"DayBonusDropID": 3
	},
	{
		"ID": 40,
		"Name": "黑龙65",
		"TeamName": "Lv.65",
		"PreLevel": 39,
		"TicketCost": 0,
		"EnergySuccess": 30,
		"EnergyFail": 6,
		"TeamEnergyCost": 24,
		"MonsterLevel": 65,
		"BattleID": 30,
		"PlayerExp": 240,
		"HeroExp": 3846,
		"Gold": 4080,
		"DropID": 8040,
		"TeamDropID": 0,
		"OperationalActivityDropID": 4070,
		"DayBonusDropID": 3
	}
]