[
	{
		"ID": 1,
		"Name": "Default",
		"Desc": "Default",
		"SortID": 1,
		"ResourcePath": "UI/Icon/HeadFrame_ABS/Prefab/Frame_Nothing.prefab",
		"Source": "Default",
		"Icon": "UI/Icon/Item02_ABS/Icon_Frame_Arena01.png",
		"Rank": 1
	},
	{
		"ID": 2,
		"Name": "Knightly Avatar Frame",
		"Desc": "Granted to the rising star of El Sallia, a knight in the new legend.",
		"SortID": 2,
		"ResourcePath": "UI/Icon/HeadFrame_ABS/Prefab/Frame_Knight.prefab",
		"Source": "Obtained from purchasing a newbie Gift Pack.",
		"Icon": "UI/Icon/Item02_ABS/Icon_Frame_Knight.png",
		"Rank": 2
	},
	{
		"ID": 3,
		"Name": "Goddess Statue Avatar Frame",
		"Desc": "A blessing received from the Temple of Light.",
		"SortID": 3,
		"ResourcePath": "UI/Icon/HeadFrame_ABS/Prefab/Frame_LII.prefab",
		"Source": "Obtained from Path of Light.",
		"Icon": "UI/Icon/Item02_ABS/Icon_Frame_LII.png",
		"Rank": 3
	},
	{
		"ID": 4,
		"Name": "Chosen King Avatar Frame",
		"Desc": "Granted to those favored by the Goddess of Light.",
		"SortID": 4,
		"ResourcePath": "UI/Icon/HeadFrame_ABS/Prefab/Frame_Langrisser.prefab",
		"Source": "Obtained from Echo of Light.",
		"Icon": "UI/Icon/Item02_ABS/Icon_Frame_Langrisser.png",
		"Rank": 4
	},
	{
		"ID": 5,
		"Name": "Silver Champion Avatar Frame",
		"Desc": "Granted to rising stars with great potential in the arena.",
		"SortID": 5,
		"ResourcePath": "UI/Icon/HeadFrame_ABS/Prefab/Frame_Arena01.prefab",
		"Source": "Obtained upon reaching tier Silver in the world arena.",
		"Icon": "UI/Icon/Item02_ABS/Icon_Frame_Arena01.png",
		"Rank": 1
	},
	{
		"ID": 6,
		"Name": "Gold Champion Avatar Frame",
		"Desc": "The mark of an unstoppable force in the arena.",
		"SortID": 6,
		"ResourcePath": "UI/Icon/HeadFrame_ABS/Prefab/Frame_Arena02.prefab",
		"Source": "Obtained upon reaching Gold tier in the world arena.",
		"Icon": "UI/Icon/Item02_ABS/Icon_Frame_Arena02.png",
		"Rank": 2
	},
	{
		"ID": 7,
		"Name": "Langrisser Champion Avatar Frame",
		"Desc": "Granted to the overlord of the arena, endowed with endless glory and extraordinary strength.",
		"SortID": 7,
		"ResourcePath": "UI/Icon/HeadFrame_ABS/Prefab/Frame_Arena03.prefab",
		"Source": "Obtained upon reaching Langrisser tier in the world arena.",
		"Icon": "UI/Icon/Item02_ABS/Icon_Frame_Arena03.png",
		"Rank": 3
	},
	{
		"ID": 8,
		"Name": "[L] Avatar Frame",
		"Desc": "Langrisser's mark -- the sign of the chosen one.",
		"SortID": 8,
		"ResourcePath": "UI/Icon/HeadFrame_ABS/Prefab/Frame_L.prefab",
		"Source": "Obtained by joining the beta test.",
		"Icon": "UI/Icon/Item02_ABS/Icon_Frame_L.png",
		"Rank": 4
	},
	{
		"ID": 9,
		"Name": "Floating City Avatar Frame",
		"Desc": "Granted to those who rebuilt the Floating City. A gift from Angelica.",
		"SortID": 9,
		"ResourcePath": "UI/Icon/HeadFrame_ABS/Prefab/Frame_FloatingCity.prefab",
		"Source": "Obtained upon completing the Main Story: Chapter 13 feat.",
		"Icon": "UI/Icon/Item02_ABS/Icon_Frame_FloatingCity.png",
		"Rank": 1
	},
	{
		"ID": 10,
		"Name": "Summoning Sage Avatar Frame",
		"Desc": "The mark of a summoner familiar with the Time Bell, and acquainted with many powerful heroes.",
		"SortID": 10,
		"ResourcePath": "UI/Icon/HeadFrame_ABS/Prefab/Frame_Watch01.prefab",
		"Source": "Obtained upon collecting 12 R heroes.",
		"Icon": "UI/Icon/Item02_ABS/Icon_Frame_Watch01.png",
		"Rank": 2
	},
	{
		"ID": 11,
		"Name": "Summoning Master Avatar Frame",
		"Desc": "The mark of a summoner who is skilled at using the Time Bell and has recruited many rare heroes.",
		"SortID": 11,
		"ResourcePath": "UI/Icon/HeadFrame_ABS/Prefab/Frame_Watch02.prefab",
		"Source": "Obtained upon collecting 12 SR heroes.",
		"Icon": "UI/Icon/Item02_ABS/Icon_Frame_Watch02.png",
		"Rank": 3
	},
	{
		"ID": 12,
		"Name": "Summoning God Avatar Frame",
		"Desc": "Granted only to those who have mastered the Time Bell and met many legendary heroes.",
		"SortID": 12,
		"ResourcePath": "UI/Icon/HeadFrame_ABS/Prefab/Frame_Watch03.prefab",
		"Source": "Obtained upon collecting 8 SSR heroes.",
		"Icon": "UI/Icon/Item02_ABS/Icon_Frame_Watch03.png",
		"Rank": 4
	}
]