[
	{
		"ID": 1,
		"CurrentLevel": 1,
		"ExpToNextLevel": 30
	},
	{
		"ID": 2,
		"CurrentLevel": 2,
		"ExpToNextLevel": 40
	},
	{
		"ID": 3,
		"CurrentLevel": 3,
		"ExpToNextLevel": 50
	},
	{
		"ID": 4,
		"CurrentLevel": 4,
		"ExpToNextLevel": 60
	},
	{
		"ID": 5,
		"CurrentLevel": 5,
		"ExpToNextLevel": 70
	},
	{
		"ID": 6,
		"CurrentLevel": 6,
		"ExpToNextLevel": 80
	},
	{
		"ID": 7,
		"CurrentLevel": 7,
		"ExpToNextLevel": 90
	},
	{
		"ID": 8,
		"CurrentLevel": 8,
		"ExpToNextLevel": 100
	},
	{
		"ID": 9,
		"CurrentLevel": 9,
		"ExpToNextLevel": 110
	},
	{
		"ID": 10,
		"CurrentLevel": 10,
		"ExpToNextLevel": 120
	},
	{
		"ID": 11,
		"CurrentLevel": 11,
		"ExpToNextLevel": 140
	},
	{
		"ID": 12,
		"CurrentLevel": 12,
		"ExpToNextLevel": 180
	},
	{
		"ID": 13,
		"CurrentLevel": 13,
		"ExpToNextLevel": 200
	},
	{
		"ID": 14,
		"CurrentLevel": 14,
		"ExpToNextLevel": 220
	},
	{
		"ID": 15,
		"CurrentLevel": 15,
		"ExpToNextLevel": 240
	},
	{
		"ID": 16,
		"CurrentLevel": 16,
		"ExpToNextLevel": 270
	},
	{
		"ID": 17,
		"CurrentLevel": 17,
		"ExpToNextLevel": 300
	},
	{
		"ID": 18,
		"CurrentLevel": 18,
		"ExpToNextLevel": 330
	},
	{
		"ID": 19,
		"CurrentLevel": 19,
		"ExpToNextLevel": 360
	},
	{
		"ID": 20,
		"CurrentLevel": 20,
		"ExpToNextLevel": 0
	}
]