[
	{
		"ID": 1,
		"Reward": [
			{
				"GoodsType": "GoodsType_EnchantStone",
				"Id": 3,
				"Count": 2
			},
			{
				"GoodsType": "GoodsType_EnchantStone",
				"Id": 6,
				"Count": 2
			},
			{
				"GoodsType": "GoodsType_EnchantStone",
				"Id": 9,
				"Count": 2
			},
			{
				"GoodsType": "GoodsType_EnchantStone",
				"Id": 11,
				"Count": 2
			}
		]
	},
	{
		"ID": 2,
		"Reward": [
			{
				"GoodsType": "GoodsType_EnchantStone",
				"Id": 3,
				"Count": 2
			},
			{
				"GoodsType": "GoodsType_EnchantStone",
				"Id": 6,
				"Count": 2
			},
			{
				"GoodsType": "GoodsType_EnchantStone",
				"Id": 9,
				"Count": 2
			},
			{
				"GoodsType": "GoodsType_EnchantStone",
				"Id": 11,
				"Count": 2
			}
		]
	},
	{
		"ID": 3,
		"Reward": [
			{
				"GoodsType": "GoodsType_EnchantStone",
				"Id": 3,
				"Count": 2
			},
			{
				"GoodsType": "GoodsType_EnchantStone",
				"Id": 6,
				"Count": 2
			},
			{
				"GoodsType": "GoodsType_EnchantStone",
				"Id": 9,
				"Count": 2
			},
			{
				"GoodsType": "GoodsType_EnchantStone",
				"Id": 11,
				"Count": 2
			}
		]
	},
	{
		"ID": 4,
		"Reward": [
			{
				"GoodsType": "GoodsType_EnchantStone",
				"Id": 3,
				"Count": 2
			},
			{
				"GoodsType": "GoodsType_EnchantStone",
				"Id": 6,
				"Count": 2
			},
			{
				"GoodsType": "GoodsType_EnchantStone",
				"Id": 9,
				"Count": 2
			},
			{
				"GoodsType": "GoodsType_EnchantStone",
				"Id": 11,
				"Count": 2
			}
		]
	},
	{
		"ID": 5,
		"Reward": [
			{
				"GoodsType": "GoodsType_EnchantStone",
				"Id": 3,
				"Count": 2
			},
			{
				"GoodsType": "GoodsType_EnchantStone",
				"Id": 6,
				"Count": 2
			},
			{
				"GoodsType": "GoodsType_EnchantStone",
				"Id": 9,
				"Count": 2
			},
			{
				"GoodsType": "GoodsType_EnchantStone",
				"Id": 11,
				"Count": 2
			}
		]
	},
	{
		"ID": 6,
		"Reward": [
			{
				"GoodsType": "GoodsType_EnchantStone",
				"Id": 3,
				"Count": 2
			},
			{
				"GoodsType": "GoodsType_EnchantStone",
				"Id": 6,
				"Count": 2
			},
			{
				"GoodsType": "GoodsType_EnchantStone",
				"Id": 9,
				"Count": 2
			},
			{
				"GoodsType": "GoodsType_EnchantStone",
				"Id": 11,
				"Count": 2
			}
		]
	},
	{
		"ID": 201,
		"Reward": [
			{
				"GoodsType": "GoodsType_EnchantStone",
				"Id": 14,
				"Count": 5
			},
			{
				"GoodsType": "GoodsType_EnchantStone",
				"Id": 15,
				"Count": 5
			},
			{
				"GoodsType": "GoodsType_EnchantStone",
				"Id": 16,
				"Count": 5
			},
			{
				"GoodsType": "GoodsType_EnchantStone",
				"Id": 17,
				"Count": 5
			},
			{
				"GoodsType": "GoodsType_EnchantStone",
				"Id": 18,
				"Count": 5
			},
			{
				"GoodsType": "GoodsType_EnchantStone",
				"Id": 19,
				"Count": 5
			},
			{
				"GoodsType": "GoodsType_EnchantStone",
				"Id": 20,
				"Count": 5
			},
			{
				"GoodsType": "GoodsType_EnchantStone",
				"Id": 21,
				"Count": 5
			},
			{
				"GoodsType": "GoodsType_EnchantStone",
				"Id": 22,
				"Count": 5
			},
			{
				"GoodsType": "GoodsType_EnchantStone",
				"Id": 23,
				"Count": 5
			},
			{
				"GoodsType": "GoodsType_EnchantStone",
				"Id": 24,
				"Count": 5
			},
			{
				"GoodsType": "GoodsType_EnchantStone",
				"Id": 25,
				"Count": 5
			},
			{
				"GoodsType": "GoodsType_EnchantStone",
				"Id": 26,
				"Count": 5
			}
		]
	},
	{
		"ID": 202,
		"Reward": [
			{
				"GoodsType": "GoodsType_EnchantStone",
				"Id": 27,
				"Count": 5
			},
			{
				"GoodsType": "GoodsType_EnchantStone",
				"Id": 28,
				"Count": 5
			},
			{
				"GoodsType": "GoodsType_EnchantStone",
				"Id": 29,
				"Count": 5
			},
			{
				"GoodsType": "GoodsType_EnchantStone",
				"Id": 30,
				"Count": 5
			},
			{
				"GoodsType": "GoodsType_EnchantStone",
				"Id": 31,
				"Count": 5
			},
			{
				"GoodsType": "GoodsType_EnchantStone",
				"Id": 32,
				"Count": 5
			},
			{
				"GoodsType": "GoodsType_EnchantStone",
				"Id": 33,
				"Count": 5
			},
			{
				"GoodsType": "GoodsType_EnchantStone",
				"Id": 34,
				"Count": 5
			},
			{
				"GoodsType": "GoodsType_EnchantStone",
				"Id": 35,
				"Count": 5
			},
			{
				"GoodsType": "GoodsType_EnchantStone",
				"Id": 36,
				"Count": 5
			},
			{
				"GoodsType": "GoodsType_EnchantStone",
				"Id": 37,
				"Count": 5
			},
			{
				"GoodsType": "GoodsType_EnchantStone",
				"Id": 38,
				"Count": 5
			},
			{
				"GoodsType": "GoodsType_EnchantStone",
				"Id": 39,
				"Count": 5
			}
		]
	}
]