{
	"1": {
		"ID": 1,
		"Name": "Adon's Devil Training",
		"Desc": "Adon's Devil Training",
		"TeamName": "Aniki Adon",
		"LevelList": [
			1,
			2,
			3,
			4,
			5,
			6,
			7,
			8,
			9,
			10,
			11
		],
		"StartTimeList": [
			1,
			4,
			7
		],
		"OpenDesc": "Unlocks Monday, Thursday, Sunday",
		"Icon": "UI/Aniki_ABS/1/Gym_01.png"
	},
	"2": {
		"ID": 2,
		"Name": "Pay attention! Jones' Secret Skill",
		"Desc": "Pay attention! Jones' Secret Skill",
		"TeamName": "Aniki Jones",
		"LevelList": [
			21,
			22,
			23,
			24,
			25,
			26,
			27,
			28,
			29,
			30,
			31
		],
		"StartTimeList": [
			1,
			4,
			7
		],
		"OpenDesc": "Unlocks Monday, Thursday, Sunday",
		"Icon": "UI/Aniki_ABS/1/Gym_04.png"
	},
	"3": {
		"ID": 3,
		"Name": "Counterattack Spirit - Valan",
		"Desc": "Counterattack Spirit -- Valan",
		"TeamName": "Aniki Valan",
		"LevelList": [
			41,
			42,
			43,
			44,
			45,
			46,
			47,
			48,
			49,
			50,
			51
		],
		"StartTimeList": [
			2,
			5,
			7
		],
		"OpenDesc": "Unlocks Tuesday, Friday, Sunday",
		"Icon": "UI/Aniki_ABS/1/Gym_02.png"
	},
	"4": {
		"ID": 4,
		"Name": "Loose Fighter - Rocky",
		"Desc": "Loose Fighter - Rocky",
		"TeamName": "Aniki Rocky",
		"LevelList": [
			61,
			62,
			63,
			64,
			65,
			66,
			67,
			68,
			69,
			70,
			71
		],
		"StartTimeList": [
			2,
			5,
			7
		],
		"OpenDesc": "Unlocks Tuesday, Friday, Sunday",
		"Icon": "UI/Aniki_ABS/1/Gym_05.png"
	},
	"5": {
		"ID": 5,
		"Name": "Samson, the Windblast",
		"Desc": "Speedy Samson",
		"TeamName": "Aniki Samson",
		"LevelList": [
			81,
			82,
			83,
			84,
			85,
			86,
			87,
			88,
			89,
			90,
			91
		],
		"StartTimeList": [
			3,
			6,
			7
		],
		"OpenDesc": "Unlocks Wednesday, Saturday, Sunday",
		"Icon": "UI/Aniki_ABS/1/Gym_03.png"
	},
	"6": {
		"ID": 6,
		"Name": "Nimes' Charity Chambers",
		"Desc": "Nimes' Charity Chambers",
		"TeamName": "Aniki Nimes",
		"LevelList": [
			101,
			102,
			103,
			104,
			105,
			106,
			107,
			108,
			109,
			110,
			111
		],
		"StartTimeList": [
			3,
			6,
			7
		],
		"OpenDesc": "Unlocks Wednesday, Saturday, Sunday",
		"Icon": "UI/Aniki_ABS/1/Gym_06.png"
	}
}