{
	"1": {
		"ID": 1,
		"Desc": "Sun.",
		"SettleStartTime": 79200,
		"SettleEndTime": 86400
	},
	"2": {
		"ID": 2,
		"Desc": "Mon.",
		"SettleStartTime": 79200,
		"SettleEndTime": 79800
	},
	"3": {
		"ID": 3,
		"Desc": "Tue.",
		"SettleStartTime": 79200,
		"SettleEndTime": 79800
	},
	"4": {
		"ID": 4,
		"Desc": "Wed.",
		"SettleStartTime": 79200,
		"SettleEndTime": 79800
	},
	"5": {
		"ID": 5,
		"Desc": "Thu.",
		"SettleStartTime": 79200,
		"SettleEndTime": 79800
	},
	"6": {
		"ID": 6,
		"Desc": "Fri.",
		"SettleStartTime": 79200,
		"SettleEndTime": 79800
	},
	"7": {
		"ID": 7,
		"Desc": "Sat.",
		"SettleStartTime": 79200,
		"SettleEndTime": 79800
	}
}