{
	"1": {
		"ID": 1,
		"Name": "雪人谷大危机",
		"DaysBeforeActivate": 9,
		"PlayerLevelRequired": 55,
		"MonsterLevel": 65,
		"BattleID": 6611,
		"PlayerExp": 10,
		"HeroExp": 80,
		"GoldReward": 1282,
		"EnergyCostSuccess": 10,
		"EnergyCostFail": 2,
		"FirstClearDrop": [
			{
				"GoodsType": "GoodsType_Crystal",
				"Id": 0,
				"Count": 30
			},
			{
				"GoodsType": "GoodsType_SkinTicket",
				"Id": 0,
				"Count": 60
			}
		],
		"DropDisplayCount": 3,
		"Score": 0,
		"Strategy": ""
	},
	"2": {
		"ID": 2,
		"Name": "天与地的领域",
		"DaysBeforeActivate": 10,
		"PlayerLevelRequired": 55,
		"MonsterLevel": 65,
		"BattleID": 6612,
		"PlayerExp": 10,
		"HeroExp": 80,
		"GoldReward": 1282,
		"EnergyCostSuccess": 10,
		"EnergyCostFail": 2,
		"FirstClearDrop": [
			{
				"GoodsType": "GoodsType_Crystal",
				"Id": 0,
				"Count": 30
			},
			{
				"GoodsType": "GoodsType_Item",
				"Id": 4001,
				"Count": 3
			}
		],
		"DropDisplayCount": 3,
		"Score": 0,
		"Strategy": ""
	},
	"3": {
		"ID": 3,
		"Name": "夜访吸血鬼",
		"DaysBeforeActivate": 11,
		"PlayerLevelRequired": 55,
		"MonsterLevel": 65,
		"BattleID": 6613,
		"PlayerExp": 10,
		"HeroExp": 80,
		"GoldReward": 1282,
		"EnergyCostSuccess": 10,
		"EnergyCostFail": 2,
		"FirstClearDrop": [
			{
				"GoodsType": "GoodsType_Crystal",
				"Id": 0,
				"Count": 30
			},
			{
				"GoodsType": "GoodsType_Equipment",
				"Id": 269,
				"Count": 1
			}
		],
		"DropDisplayCount": 3,
		"Score": 0,
		"Strategy": ""
	},
	"4": {
		"ID": 4,
		"Name": "怪盗的招待状",
		"DaysBeforeActivate": 8,
		"PlayerLevelRequired": 55,
		"MonsterLevel": 60,
		"BattleID": 6614,
		"PlayerExp": 10,
		"HeroExp": 80,
		"GoldReward": 1282,
		"EnergyCostSuccess": 10,
		"EnergyCostFail": 2,
		"FirstClearDrop": [
			{
				"GoodsType": "GoodsType_Crystal",
				"Id": 0,
				"Count": 30
			},
			{
				"GoodsType": "GoodsType_HeadFrame",
				"Id": 19,
				"Count": 1
			}
		],
		"DropDisplayCount": 3,
		"Score": 0,
		"Strategy": ""
	},
	"5": {
		"ID": 5,
		"Name": "我爱摇滚乐",
		"DaysBeforeActivate": 7,
		"PlayerLevelRequired": 55,
		"MonsterLevel": 60,
		"BattleID": 6615,
		"PlayerExp": 10,
		"HeroExp": 80,
		"GoldReward": 1282,
		"EnergyCostSuccess": 10,
		"EnergyCostFail": 2,
		"FirstClearDrop": [
			{
				"GoodsType": "GoodsType_Crystal",
				"Id": 0,
				"Count": 30
			},
			{
				"GoodsType": "GoodsType_Gold",
				"Id": 0,
				"Count": 600000
			}
		],
		"DropDisplayCount": 3,
		"Score": 0,
		"Strategy": ""
	},
	"101": {
		"ID": 101,
		"Name": "连环爆炸事件",
		"DaysBeforeActivate": 5,
		"PlayerLevelRequired": 55,
		"MonsterLevel": 60,
		"BattleID": 6811,
		"PlayerExp": 10,
		"HeroExp": 80,
		"GoldReward": 1282,
		"EnergyCostSuccess": 10,
		"EnergyCostFail": 2,
		"FirstClearDrop": [
			{
				"GoodsType": "GoodsType_ChallengePoint",
				"Id": 0,
				"Count": 20
			},
			{
				"GoodsType": "GoodsType_FashionPoint",
				"Id": 0,
				"Count": 2
			},
			{
				"GoodsType": "GoodsType_Crystal",
				"Id": 0,
				"Count": 30
			}
		],
		"DropDisplayCount": 4,
		"Score": 800,
		"Strategy": ""
	},
	"102": {
		"ID": 102,
		"Name": "十万个约修亚",
		"DaysBeforeActivate": 6,
		"PlayerLevelRequired": 55,
		"MonsterLevel": 60,
		"BattleID": 6814,
		"PlayerExp": 10,
		"HeroExp": 80,
		"GoldReward": 1282,
		"EnergyCostSuccess": 10,
		"EnergyCostFail": 2,
		"FirstClearDrop": [
			{
				"GoodsType": "GoodsType_ChallengePoint",
				"Id": 0,
				"Count": 20
			},
			{
				"GoodsType": "GoodsType_FashionPoint",
				"Id": 0,
				"Count": 2
			},
			{
				"GoodsType": "GoodsType_Crystal",
				"Id": 0,
				"Count": 30
			}
		],
		"DropDisplayCount": 4,
		"Score": 800,
		"Strategy": ""
	},
	"103": {
		"ID": 103,
		"Name": "远方的激流",
		"DaysBeforeActivate": 7,
		"PlayerLevelRequired": 55,
		"MonsterLevel": 65,
		"BattleID": 6812,
		"PlayerExp": 10,
		"HeroExp": 80,
		"GoldReward": 1282,
		"EnergyCostSuccess": 10,
		"EnergyCostFail": 2,
		"FirstClearDrop": [
			{
				"GoodsType": "GoodsType_ChallengePoint",
				"Id": 0,
				"Count": 40
			},
			{
				"GoodsType": "GoodsType_FashionPoint",
				"Id": 0,
				"Count": 2
			},
			{
				"GoodsType": "GoodsType_Crystal",
				"Id": 0,
				"Count": 30
			}
		],
		"DropDisplayCount": 4,
		"Score": 1000,
		"Strategy": ""
	},
	"104": {
		"ID": 104,
		"Name": "月下的招待状",
		"DaysBeforeActivate": 8,
		"PlayerLevelRequired": 55,
		"MonsterLevel": 65,
		"BattleID": 6813,
		"PlayerExp": 10,
		"HeroExp": 80,
		"GoldReward": 1282,
		"EnergyCostSuccess": 10,
		"EnergyCostFail": 2,
		"FirstClearDrop": [
			{
				"GoodsType": "GoodsType_ChallengePoint",
				"Id": 0,
				"Count": 60
			},
			{
				"GoodsType": "GoodsType_Crystal",
				"Id": 0,
				"Count": 30
			},
			{
				"GoodsType": "GoodsType_Gold",
				"Id": 0,
				"Count": 400000
			}
		],
		"DropDisplayCount": 4,
		"Score": 1000,
		"Strategy": ""
	},
	"105": {
		"ID": 105,
		"Name": "噩梦竞技场",
		"DaysBeforeActivate": 9,
		"PlayerLevelRequired": 55,
		"MonsterLevel": 65,
		"BattleID": 6815,
		"PlayerExp": 10,
		"HeroExp": 80,
		"GoldReward": 1282,
		"EnergyCostSuccess": 10,
		"EnergyCostFail": 2,
		"FirstClearDrop": [
			{
				"GoodsType": "GoodsType_ChallengePoint",
				"Id": 0,
				"Count": 60
			},
			{
				"GoodsType": "GoodsType_Crystal",
				"Id": 0,
				"Count": 30
			},
			{
				"GoodsType": "GoodsType_Gold",
				"Id": 0,
				"Count": 400000
			}
		],
		"DropDisplayCount": 4,
		"Score": 1000,
		"Strategy": ""
	},
	"201": {
		"ID": 201,
		"Name": "逆波的龙魔女",
		"DaysBeforeActivate": 6,
		"PlayerLevelRequired": 55,
		"MonsterLevel": 60,
		"BattleID": 50021,
		"PlayerExp": 10,
		"HeroExp": 80,
		"GoldReward": 1282,
		"EnergyCostSuccess": 10,
		"EnergyCostFail": 2,
		"FirstClearDrop": [
			{
				"GoodsType": "GoodsType_Crystal",
				"Id": 0,
				"Count": 30
			},
			{
				"GoodsType": "GoodsType_ChallengePoint",
				"Id": 0,
				"Count": 20
			},
			{
				"GoodsType": "GoodsType_Gold",
				"Id": 0,
				"Count": 200000
			}
		],
		"DropDisplayCount": 3,
		"Score": 0,
		"Strategy": ""
	},
	"202": {
		"ID": 202,
		"Name": "怀斯曼再临",
		"DaysBeforeActivate": 7,
		"PlayerLevelRequired": 55,
		"MonsterLevel": 60,
		"BattleID": 50022,
		"PlayerExp": 10,
		"HeroExp": 80,
		"GoldReward": 1282,
		"EnergyCostSuccess": 10,
		"EnergyCostFail": 2,
		"FirstClearDrop": [
			{
				"GoodsType": "GoodsType_Crystal",
				"Id": 0,
				"Count": 30
			},
			{
				"GoodsType": "GoodsType_ChallengePoint",
				"Id": 0,
				"Count": 20
			},
			{
				"GoodsType": "GoodsType_Gold",
				"Id": 0,
				"Count": 200000
			}
		],
		"DropDisplayCount": 3,
		"Score": 0,
		"Strategy": ""
	},
	"203": {
		"ID": 203,
		"Name": "空轨全家桶",
		"DaysBeforeActivate": 8,
		"PlayerLevelRequired": 55,
		"MonsterLevel": 65,
		"BattleID": 50023,
		"PlayerExp": 10,
		"HeroExp": 80,
		"GoldReward": 1282,
		"EnergyCostSuccess": 10,
		"EnergyCostFail": 2,
		"FirstClearDrop": [
			{
				"GoodsType": "GoodsType_Crystal",
				"Id": 0,
				"Count": 30
			},
			{
				"GoodsType": "GoodsType_ChallengePoint",
				"Id": 0,
				"Count": 40
			},
			{
				"GoodsType": "GoodsType_SoldierSkin",
				"Id": 12101,
				"Count": 1
			}
		],
		"DropDisplayCount": 3,
		"Score": 0,
		"Strategy": ""
	},
	"204": {
		"ID": 204,
		"Name": "黑与白",
		"DaysBeforeActivate": 9,
		"PlayerLevelRequired": 55,
		"MonsterLevel": 65,
		"BattleID": 50024,
		"PlayerExp": 10,
		"HeroExp": 80,
		"GoldReward": 1282,
		"EnergyCostSuccess": 10,
		"EnergyCostFail": 2,
		"FirstClearDrop": [
			{
				"GoodsType": "GoodsType_Crystal",
				"Id": 0,
				"Count": 30
			},
			{
				"GoodsType": "GoodsType_ChallengePoint",
				"Id": 0,
				"Count": 60
			},
			{
				"GoodsType": "GoodsType_Item",
				"Id": 3203,
				"Count": 5
			}
		],
		"DropDisplayCount": 3,
		"Score": 0,
		"Strategy": ""
	},
	"205": {
		"ID": 205,
		"Name": "噩梦又竞技场",
		"DaysBeforeActivate": 10,
		"PlayerLevelRequired": 55,
		"MonsterLevel": 65,
		"BattleID": 50025,
		"PlayerExp": 10,
		"HeroExp": 80,
		"GoldReward": 1282,
		"EnergyCostSuccess": 10,
		"EnergyCostFail": 2,
		"FirstClearDrop": [
			{
				"GoodsType": "GoodsType_Crystal",
				"Id": 0,
				"Count": 30
			},
			{
				"GoodsType": "GoodsType_ChallengePoint",
				"Id": 0,
				"Count": 60
			},
			{
				"GoodsType": "GoodsType_Item",
				"Id": 4001,
				"Count": 2
			}
		],
		"DropDisplayCount": 3,
		"Score": 0,
		"Strategy": ""
	}
}