{
	"1": {
		"ID": 1,
		"Name": "武器R附魔",
		"Property1ID": "PropertyModifyType_Hero1_ATMul",
		"ValueRange1": [
			{
				"Min": 1,
				"Max": 301,
				"Weight": 8000
			},
			{
				"Min": 301,
				"Max": 601,
				"Weight": 1700
			},
			{
				"Min": 601,
				"Max": 1051,
				"Weight": 300
			},
			{
				"Min": 1051,
				"Max": 1501,
				"Weight": 0
			}
		],
		"Weight1": 10,
		"Property2ID": "PropertyModifyType_Hero1_MagicMul",
		"ValueRange2": [
			{
				"Min": 1,
				"Max": 301,
				"Weight": 8000
			},
			{
				"Min": 301,
				"Max": 601,
				"Weight": 1700
			},
			{
				"Min": 601,
				"Max": 1051,
				"Weight": 300
			},
			{
				"Min": 1051,
				"Max": 1501,
				"Weight": 0
			}
		],
		"Weight2": 10,
		"Property3ID": "PropertyModifyType_Hero1_ATAdd",
		"ValueRange3": [
			{
				"Min": 1,
				"Max": 7,
				"Weight": 8000
			},
			{
				"Min": 7,
				"Max": 13,
				"Weight": 1700
			},
			{
				"Min": 13,
				"Max": 22,
				"Weight": 300
			},
			{
				"Min": 22,
				"Max": 31,
				"Weight": 0
			}
		],
		"Weight3": 10,
		"Property4ID": "PropertyModifyType_Hero1_MagicAdd",
		"ValueRange4": [
			{
				"Min": 1,
				"Max": 7,
				"Weight": 8000
			},
			{
				"Min": 7,
				"Max": 13,
				"Weight": 1700
			},
			{
				"Min": 13,
				"Max": 22,
				"Weight": 300
			},
			{
				"Min": 22,
				"Max": 31,
				"Weight": 0
			}
		],
		"Weight4": 10,
		"Property5ID": "PropertyModifyType_Hero1_DFMul",
		"ValueRange5": [
			{
				"Min": 1,
				"Max": 101,
				"Weight": 8000
			},
			{
				"Min": 101,
				"Max": 201,
				"Weight": 1700
			},
			{
				"Min": 201,
				"Max": 351,
				"Weight": 300
			},
			{
				"Min": 351,
				"Max": 501,
				"Weight": 0
			}
		],
		"Weight5": 10,
		"Property6ID": "PropertyModifyType_Hero1_DFAdd",
		"ValueRange6": [
			{
				"Min": 1,
				"Max": 2,
				"Weight": 8000
			},
			{
				"Min": 2,
				"Max": 3,
				"Weight": 1700
			},
			{
				"Min": 3,
				"Max": 5,
				"Weight": 300
			},
			{
				"Min": 5,
				"Max": 7,
				"Weight": 0
			}
		],
		"Weight6": 10,
		"Property7ID": "PropertyModifyType_Hero1_MagicDFMul",
		"ValueRange7": [
			{
				"Min": 1,
				"Max": 101,
				"Weight": 8000
			},
			{
				"Min": 101,
				"Max": 201,
				"Weight": 1700
			},
			{
				"Min": 201,
				"Max": 351,
				"Weight": 300
			},
			{
				"Min": 351,
				"Max": 501,
				"Weight": 0
			}
		],
		"Weight7": 10,
		"Property8ID": "PropertyModifyType_Hero1_MagicDFAdd",
		"ValueRange8": [
			{
				"Min": 1,
				"Max": 2,
				"Weight": 8000
			},
			{
				"Min": 2,
				"Max": 3,
				"Weight": 1700
			},
			{
				"Min": 3,
				"Max": 5,
				"Weight": 300
			},
			{
				"Min": 5,
				"Max": 7,
				"Weight": 0
			}
		],
		"Weight8": 10,
		"Property9ID": "PropertyModifyType_Hero1_HPMul",
		"ValueRange9": [
			{
				"Min": 1,
				"Max": 201,
				"Weight": 8000
			},
			{
				"Min": 201,
				"Max": 401,
				"Weight": 1700
			},
			{
				"Min": 401,
				"Max": 701,
				"Weight": 300
			},
			{
				"Min": 701,
				"Max": 1001,
				"Weight": 0
			}
		],
		"Weight9": 10,
		"Property10ID": "PropertyModifyType_Hero1_HPAdd",
		"ValueRange10": [
			{
				"Min": 1,
				"Max": 27,
				"Weight": 8000
			},
			{
				"Min": 27,
				"Max": 53,
				"Weight": 1700
			},
			{
				"Min": 53,
				"Max": 92,
				"Weight": 300
			},
			{
				"Min": 92,
				"Max": 131,
				"Weight": 0
			}
		],
		"Weight10": 10,
		"Property11ID": "PropertyModifyType_Hero1_CriticalRateAdd",
		"ValueRange11": [
			{
				"Min": 1,
				"Max": 301,
				"Weight": 8000
			},
			{
				"Min": 301,
				"Max": 601,
				"Weight": 1700
			},
			{
				"Min": 601,
				"Max": 1051,
				"Weight": 300
			},
			{
				"Min": 1051,
				"Max": 1501,
				"Weight": 0
			}
		],
		"Weight11": 0,
		"Property12ID": "PropertyModifyType_Hero1_CriticalDamageAdd",
		"ValueRange12": [
			{
				"Min": 1,
				"Max": 401,
				"Weight": 8000
			},
			{
				"Min": 401,
				"Max": 801,
				"Weight": 1700
			},
			{
				"Min": 801,
				"Max": 1401,
				"Weight": 300
			},
			{
				"Min": 1401,
				"Max": 2001,
				"Weight": 0
			}
		],
		"Weight12": 0,
		"Property13ID": "PropertyModifyType_Hero1_HPAdd",
		"ValueRange13": [
			{
				"Min": 1,
				"Max": 3,
				"Weight": 5000
			},
			{
				"Min": 3,
				"Max": 5,
				"Weight": 5000
			}
		],
		"Weight13": 0,
		"Property14ID": "PropertyModifyType_Hero1_HPAdd",
		"ValueRange14": [
			{
				"Min": 1,
				"Max": 3,
				"Weight": 5000
			},
			{
				"Min": 3,
				"Max": 5,
				"Weight": 5000
			}
		],
		"Weight14": 0,
		"Property15ID": "PropertyModifyType_Hero1_HPAdd",
		"ValueRange15": [
			{
				"Min": 1,
				"Max": 3,
				"Weight": 5000
			},
			{
				"Min": 3,
				"Max": 5,
				"Weight": 5000
			}
		],
		"Weight15": 0,
		"Property16ID": "PropertyModifyType_Hero1_HPAdd",
		"ValueRange16": [
			{
				"Min": 1,
				"Max": 3,
				"Weight": 5000
			},
			{
				"Min": 3,
				"Max": 5,
				"Weight": 5000
			}
		],
		"Weight16": 0
	},
	"2": {
		"ID": 2,
		"Name": "防具R附魔",
		"Property1ID": "PropertyModifyType_Hero1_ATMul",
		"ValueRange1": [
			{
				"Min": 1,
				"Max": 101,
				"Weight": 8000
			},
			{
				"Min": 101,
				"Max": 201,
				"Weight": 1700
			},
			{
				"Min": 201,
				"Max": 351,
				"Weight": 300
			},
			{
				"Min": 351,
				"Max": 501,
				"Weight": 0
			}
		],
		"Weight1": 10,
		"Property2ID": "PropertyModifyType_Hero1_MagicMul",
		"ValueRange2": [
			{
				"Min": 1,
				"Max": 101,
				"Weight": 8000
			},
			{
				"Min": 101,
				"Max": 201,
				"Weight": 1700
			},
			{
				"Min": 201,
				"Max": 351,
				"Weight": 300
			},
			{
				"Min": 351,
				"Max": 501,
				"Weight": 0
			}
		],
		"Weight2": 10,
		"Property3ID": "PropertyModifyType_Hero1_ATAdd",
		"ValueRange3": [
			{
				"Min": 1,
				"Max": 3,
				"Weight": 8000
			},
			{
				"Min": 3,
				"Max": 5,
				"Weight": 1700
			},
			{
				"Min": 5,
				"Max": 8,
				"Weight": 300
			},
			{
				"Min": 8,
				"Max": 11,
				"Weight": 0
			}
		],
		"Weight3": 10,
		"Property4ID": "PropertyModifyType_Hero1_MagicAdd",
		"ValueRange4": [
			{
				"Min": 1,
				"Max": 3,
				"Weight": 8000
			},
			{
				"Min": 3,
				"Max": 5,
				"Weight": 1700
			},
			{
				"Min": 5,
				"Max": 8,
				"Weight": 300
			},
			{
				"Min": 8,
				"Max": 11,
				"Weight": 0
			}
		],
		"Weight4": 10,
		"Property5ID": "PropertyModifyType_Hero1_DFMul",
		"ValueRange5": [
			{
				"Min": 1,
				"Max": 301,
				"Weight": 8000
			},
			{
				"Min": 301,
				"Max": 601,
				"Weight": 1700
			},
			{
				"Min": 601,
				"Max": 1051,
				"Weight": 300
			},
			{
				"Min": 1051,
				"Max": 1501,
				"Weight": 0
			}
		],
		"Weight5": 10,
		"Property6ID": "PropertyModifyType_Hero1_DFAdd",
		"ValueRange6": [
			{
				"Min": 1,
				"Max": 5,
				"Weight": 8000
			},
			{
				"Min": 5,
				"Max": 8,
				"Weight": 1700
			},
			{
				"Min": 8,
				"Max": 14,
				"Weight": 300
			},
			{
				"Min": 14,
				"Max": 19,
				"Weight": 0
			}
		],
		"Weight6": 10,
		"Property7ID": "PropertyModifyType_Hero1_MagicDFMul",
		"ValueRange7": [
			{
				"Min": 1,
				"Max": 301,
				"Weight": 8000
			},
			{
				"Min": 301,
				"Max": 601,
				"Weight": 1700
			},
			{
				"Min": 601,
				"Max": 1051,
				"Weight": 300
			},
			{
				"Min": 1051,
				"Max": 1501,
				"Weight": 0
			}
		],
		"Weight7": 10,
		"Property8ID": "PropertyModifyType_Hero1_MagicDFAdd",
		"ValueRange8": [
			{
				"Min": 1,
				"Max": 5,
				"Weight": 8000
			},
			{
				"Min": 5,
				"Max": 8,
				"Weight": 1700
			},
			{
				"Min": 8,
				"Max": 14,
				"Weight": 300
			},
			{
				"Min": 14,
				"Max": 19,
				"Weight": 0
			}
		],
		"Weight8": 10,
		"Property9ID": "PropertyModifyType_Hero1_HPMul",
		"ValueRange9": [
			{
				"Min": 1,
				"Max": 301,
				"Weight": 8000
			},
			{
				"Min": 301,
				"Max": 601,
				"Weight": 1700
			},
			{
				"Min": 601,
				"Max": 1051,
				"Weight": 300
			},
			{
				"Min": 1051,
				"Max": 1501,
				"Weight": 0
			}
		],
		"Weight9": 10,
		"Property10ID": "PropertyModifyType_Hero1_HPAdd",
		"ValueRange10": [
			{
				"Min": 1,
				"Max": 41,
				"Weight": 8000
			},
			{
				"Min": 41,
				"Max": 81,
				"Weight": 1700
			},
			{
				"Min": 81,
				"Max": 141,
				"Weight": 300
			},
			{
				"Min": 141,
				"Max": 201,
				"Weight": 0
			}
		],
		"Weight10": 10,
		"Property11ID": "PropertyModifyType_Hero1_CriticalRateAdd",
		"ValueRange11": [
			{
				"Min": 1,
				"Max": 301,
				"Weight": 8000
			},
			{
				"Min": 301,
				"Max": 601,
				"Weight": 1700
			},
			{
				"Min": 601,
				"Max": 1051,
				"Weight": 300
			},
			{
				"Min": 1051,
				"Max": 1501,
				"Weight": 0
			}
		],
		"Weight11": 0,
		"Property12ID": "PropertyModifyType_Hero1_CriticalDamageAdd",
		"ValueRange12": [
			{
				"Min": 1,
				"Max": 401,
				"Weight": 8000
			},
			{
				"Min": 401,
				"Max": 801,
				"Weight": 1700
			},
			{
				"Min": 801,
				"Max": 1401,
				"Weight": 300
			},
			{
				"Min": 1401,
				"Max": 2001,
				"Weight": 0
			}
		],
		"Weight12": 0,
		"Property13ID": "PropertyModifyType_Hero1_HPAdd",
		"ValueRange13": [
			{
				"Min": 1,
				"Max": 3,
				"Weight": 5000
			},
			{
				"Min": 3,
				"Max": 5,
				"Weight": 5000
			}
		],
		"Weight13": 0,
		"Property14ID": "PropertyModifyType_Hero1_HPAdd",
		"ValueRange14": [
			{
				"Min": 1,
				"Max": 3,
				"Weight": 5000
			},
			{
				"Min": 3,
				"Max": 5,
				"Weight": 5000
			}
		],
		"Weight14": 0,
		"Property15ID": "PropertyModifyType_Hero1_HPAdd",
		"ValueRange15": [
			{
				"Min": 1,
				"Max": 3,
				"Weight": 5000
			},
			{
				"Min": 3,
				"Max": 5,
				"Weight": 5000
			}
		],
		"Weight15": 0,
		"Property16ID": "PropertyModifyType_Hero1_HPAdd",
		"ValueRange16": [
			{
				"Min": 1,
				"Max": 3,
				"Weight": 5000
			},
			{
				"Min": 3,
				"Max": 5,
				"Weight": 5000
			}
		],
		"Weight16": 0
	},
	"3": {
		"ID": 3,
		"Name": "头盔R附魔",
		"Property1ID": "PropertyModifyType_Hero1_ATMul",
		"ValueRange1": [
			{
				"Min": 1,
				"Max": 101,
				"Weight": 8000
			},
			{
				"Min": 101,
				"Max": 201,
				"Weight": 1700
			},
			{
				"Min": 201,
				"Max": 351,
				"Weight": 300
			},
			{
				"Min": 351,
				"Max": 501,
				"Weight": 0
			}
		],
		"Weight1": 10,
		"Property2ID": "PropertyModifyType_Hero1_MagicMul",
		"ValueRange2": [
			{
				"Min": 1,
				"Max": 101,
				"Weight": 8000
			},
			{
				"Min": 101,
				"Max": 201,
				"Weight": 1700
			},
			{
				"Min": 201,
				"Max": 351,
				"Weight": 300
			},
			{
				"Min": 351,
				"Max": 501,
				"Weight": 0
			}
		],
		"Weight2": 10,
		"Property3ID": "PropertyModifyType_Hero1_ATAdd",
		"ValueRange3": [
			{
				"Min": 1,
				"Max": 3,
				"Weight": 8000
			},
			{
				"Min": 3,
				"Max": 5,
				"Weight": 1700
			},
			{
				"Min": 5,
				"Max": 8,
				"Weight": 300
			},
			{
				"Min": 8,
				"Max": 11,
				"Weight": 0
			}
		],
		"Weight3": 10,
		"Property4ID": "PropertyModifyType_Hero1_MagicAdd",
		"ValueRange4": [
			{
				"Min": 1,
				"Max": 3,
				"Weight": 8000
			},
			{
				"Min": 3,
				"Max": 5,
				"Weight": 1700
			},
			{
				"Min": 5,
				"Max": 8,
				"Weight": 300
			},
			{
				"Min": 8,
				"Max": 11,
				"Weight": 0
			}
		],
		"Weight4": 10,
		"Property5ID": "PropertyModifyType_Hero1_DFMul",
		"ValueRange5": [
			{
				"Min": 1,
				"Max": 301,
				"Weight": 8000
			},
			{
				"Min": 301,
				"Max": 601,
				"Weight": 1700
			},
			{
				"Min": 601,
				"Max": 1051,
				"Weight": 300
			},
			{
				"Min": 1051,
				"Max": 1501,
				"Weight": 0
			}
		],
		"Weight5": 10,
		"Property6ID": "PropertyModifyType_Hero1_DFAdd",
		"ValueRange6": [
			{
				"Min": 1,
				"Max": 5,
				"Weight": 8000
			},
			{
				"Min": 5,
				"Max": 8,
				"Weight": 1700
			},
			{
				"Min": 8,
				"Max": 14,
				"Weight": 300
			},
			{
				"Min": 14,
				"Max": 19,
				"Weight": 0
			}
		],
		"Weight6": 10,
		"Property7ID": "PropertyModifyType_Hero1_MagicDFMul",
		"ValueRange7": [
			{
				"Min": 1,
				"Max": 301,
				"Weight": 8000
			},
			{
				"Min": 301,
				"Max": 601,
				"Weight": 1700
			},
			{
				"Min": 601,
				"Max": 1051,
				"Weight": 300
			},
			{
				"Min": 1051,
				"Max": 1501,
				"Weight": 0
			}
		],
		"Weight7": 10,
		"Property8ID": "PropertyModifyType_Hero1_MagicDFAdd",
		"ValueRange8": [
			{
				"Min": 1,
				"Max": 5,
				"Weight": 8000
			},
			{
				"Min": 5,
				"Max": 8,
				"Weight": 1700
			},
			{
				"Min": 8,
				"Max": 14,
				"Weight": 300
			},
			{
				"Min": 14,
				"Max": 19,
				"Weight": 0
			}
		],
		"Weight8": 10,
		"Property9ID": "PropertyModifyType_Hero1_HPMul",
		"ValueRange9": [
			{
				"Min": 1,
				"Max": 301,
				"Weight": 8000
			},
			{
				"Min": 301,
				"Max": 601,
				"Weight": 1700
			},
			{
				"Min": 601,
				"Max": 1051,
				"Weight": 300
			},
			{
				"Min": 1051,
				"Max": 1501,
				"Weight": 0
			}
		],
		"Weight9": 10,
		"Property10ID": "PropertyModifyType_Hero1_HPAdd",
		"ValueRange10": [
			{
				"Min": 1,
				"Max": 41,
				"Weight": 8000
			},
			{
				"Min": 41,
				"Max": 81,
				"Weight": 1700
			},
			{
				"Min": 81,
				"Max": 141,
				"Weight": 300
			},
			{
				"Min": 141,
				"Max": 201,
				"Weight": 0
			}
		],
		"Weight10": 10,
		"Property11ID": "PropertyModifyType_Hero1_CriticalRateAdd",
		"ValueRange11": [
			{
				"Min": 1,
				"Max": 301,
				"Weight": 8000
			},
			{
				"Min": 301,
				"Max": 601,
				"Weight": 1700
			},
			{
				"Min": 601,
				"Max": 1051,
				"Weight": 300
			},
			{
				"Min": 1051,
				"Max": 1501,
				"Weight": 0
			}
		],
		"Weight11": 0,
		"Property12ID": "PropertyModifyType_Hero1_CriticalDamageAdd",
		"ValueRange12": [
			{
				"Min": 1,
				"Max": 401,
				"Weight": 8000
			},
			{
				"Min": 401,
				"Max": 801,
				"Weight": 1700
			},
			{
				"Min": 801,
				"Max": 1401,
				"Weight": 300
			},
			{
				"Min": 1401,
				"Max": 2001,
				"Weight": 0
			}
		],
		"Weight12": 0,
		"Property13ID": "PropertyModifyType_Hero1_HPAdd",
		"ValueRange13": [
			{
				"Min": 1,
				"Max": 3,
				"Weight": 5000
			},
			{
				"Min": 3,
				"Max": 5,
				"Weight": 5000
			}
		],
		"Weight13": 0,
		"Property14ID": "PropertyModifyType_Hero1_HPAdd",
		"ValueRange14": [
			{
				"Min": 1,
				"Max": 3,
				"Weight": 5000
			},
			{
				"Min": 3,
				"Max": 5,
				"Weight": 5000
			}
		],
		"Weight14": 0,
		"Property15ID": "PropertyModifyType_Hero1_HPAdd",
		"ValueRange15": [
			{
				"Min": 1,
				"Max": 3,
				"Weight": 5000
			},
			{
				"Min": 3,
				"Max": 5,
				"Weight": 5000
			}
		],
		"Weight15": 0,
		"Property16ID": "PropertyModifyType_Hero1_HPAdd",
		"ValueRange16": [
			{
				"Min": 1,
				"Max": 3,
				"Weight": 5000
			},
			{
				"Min": 3,
				"Max": 5,
				"Weight": 5000
			}
		],
		"Weight16": 0
	},
	"4": {
		"ID": 4,
		"Name": "饰品R附魔",
		"Property1ID": "PropertyModifyType_Hero1_ATMul",
		"ValueRange1": [
			{
				"Min": 1,
				"Max": 201,
				"Weight": 8000
			},
			{
				"Min": 201,
				"Max": 401,
				"Weight": 1700
			},
			{
				"Min": 401,
				"Max": 701,
				"Weight": 300
			},
			{
				"Min": 701,
				"Max": 1001,
				"Weight": 0
			}
		],
		"Weight1": 10,
		"Property2ID": "PropertyModifyType_Hero1_MagicMul",
		"ValueRange2": [
			{
				"Min": 1,
				"Max": 201,
				"Weight": 8000
			},
			{
				"Min": 201,
				"Max": 401,
				"Weight": 1700
			},
			{
				"Min": 401,
				"Max": 701,
				"Weight": 300
			},
			{
				"Min": 701,
				"Max": 1001,
				"Weight": 0
			}
		],
		"Weight2": 10,
		"Property3ID": "PropertyModifyType_Hero1_ATAdd",
		"ValueRange3": [
			{
				"Min": 1,
				"Max": 5,
				"Weight": 8000
			},
			{
				"Min": 5,
				"Max": 9,
				"Weight": 1700
			},
			{
				"Min": 9,
				"Max": 15,
				"Weight": 300
			},
			{
				"Min": 15,
				"Max": 21,
				"Weight": 0
			}
		],
		"Weight3": 10,
		"Property4ID": "PropertyModifyType_Hero1_MagicAdd",
		"ValueRange4": [
			{
				"Min": 1,
				"Max": 5,
				"Weight": 8000
			},
			{
				"Min": 5,
				"Max": 9,
				"Weight": 1700
			},
			{
				"Min": 9,
				"Max": 15,
				"Weight": 300
			},
			{
				"Min": 15,
				"Max": 21,
				"Weight": 0
			}
		],
		"Weight4": 10,
		"Property5ID": "PropertyModifyType_Hero1_DFMul",
		"ValueRange5": [
			{
				"Min": 1,
				"Max": 201,
				"Weight": 8000
			},
			{
				"Min": 201,
				"Max": 401,
				"Weight": 1700
			},
			{
				"Min": 401,
				"Max": 701,
				"Weight": 300
			},
			{
				"Min": 701,
				"Max": 1001,
				"Weight": 0
			}
		],
		"Weight5": 10,
		"Property6ID": "PropertyModifyType_Hero1_DFAdd",
		"ValueRange6": [
			{
				"Min": 1,
				"Max": 3,
				"Weight": 8000
			},
			{
				"Min": 3,
				"Max": 6,
				"Weight": 1700
			},
			{
				"Min": 6,
				"Max": 9,
				"Weight": 300
			},
			{
				"Min": 9,
				"Max": 13,
				"Weight": 0
			}
		],
		"Weight6": 10,
		"Property7ID": "PropertyModifyType_Hero1_MagicDFMul",
		"ValueRange7": [
			{
				"Min": 1,
				"Max": 201,
				"Weight": 8000
			},
			{
				"Min": 201,
				"Max": 401,
				"Weight": 1700
			},
			{
				"Min": 401,
				"Max": 701,
				"Weight": 300
			},
			{
				"Min": 701,
				"Max": 1001,
				"Weight": 0
			}
		],
		"Weight7": 10,
		"Property8ID": "PropertyModifyType_Hero1_MagicDFAdd",
		"ValueRange8": [
			{
				"Min": 1,
				"Max": 3,
				"Weight": 8000
			},
			{
				"Min": 3,
				"Max": 6,
				"Weight": 1700
			},
			{
				"Min": 6,
				"Max": 9,
				"Weight": 300
			},
			{
				"Min": 9,
				"Max": 13,
				"Weight": 0
			}
		],
		"Weight8": 10,
		"Property9ID": "PropertyModifyType_Hero1_HPMul",
		"ValueRange9": [
			{
				"Min": 1,
				"Max": 201,
				"Weight": 8000
			},
			{
				"Min": 201,
				"Max": 401,
				"Weight": 1700
			},
			{
				"Min": 401,
				"Max": 701,
				"Weight": 300
			},
			{
				"Min": 701,
				"Max": 1001,
				"Weight": 0
			}
		],
		"Weight9": 10,
		"Property10ID": "PropertyModifyType_Hero1_HPAdd",
		"ValueRange10": [
			{
				"Min": 1,
				"Max": 27,
				"Weight": 8000
			},
			{
				"Min": 27,
				"Max": 53,
				"Weight": 1700
			},
			{
				"Min": 53,
				"Max": 92,
				"Weight": 300
			},
			{
				"Min": 92,
				"Max": 131,
				"Weight": 0
			}
		],
		"Weight10": 10,
		"Property11ID": "PropertyModifyType_Hero1_CriticalRateAdd",
		"ValueRange11": [
			{
				"Min": 1,
				"Max": 301,
				"Weight": 8000
			},
			{
				"Min": 301,
				"Max": 601,
				"Weight": 1700
			},
			{
				"Min": 601,
				"Max": 1051,
				"Weight": 300
			},
			{
				"Min": 1051,
				"Max": 1501,
				"Weight": 0
			}
		],
		"Weight11": 10,
		"Property12ID": "PropertyModifyType_Hero1_CriticalDamageAdd",
		"ValueRange12": [
			{
				"Min": 1,
				"Max": 401,
				"Weight": 8000
			},
			{
				"Min": 401,
				"Max": 801,
				"Weight": 1700
			},
			{
				"Min": 801,
				"Max": 1401,
				"Weight": 300
			},
			{
				"Min": 1401,
				"Max": 2001,
				"Weight": 0
			}
		],
		"Weight12": 0,
		"Property13ID": "PropertyModifyType_Hero1_HPAdd",
		"ValueRange13": [
			{
				"Min": 1,
				"Max": 3,
				"Weight": 5000
			},
			{
				"Min": 3,
				"Max": 5,
				"Weight": 5000
			}
		],
		"Weight13": 0,
		"Property14ID": "PropertyModifyType_Hero1_HPAdd",
		"ValueRange14": [
			{
				"Min": 1,
				"Max": 3,
				"Weight": 5000
			},
			{
				"Min": 3,
				"Max": 5,
				"Weight": 5000
			}
		],
		"Weight14": 0,
		"Property15ID": "PropertyModifyType_Hero1_HPAdd",
		"ValueRange15": [
			{
				"Min": 1,
				"Max": 3,
				"Weight": 5000
			},
			{
				"Min": 3,
				"Max": 5,
				"Weight": 5000
			}
		],
		"Weight15": 0,
		"Property16ID": "PropertyModifyType_Hero1_HPAdd",
		"ValueRange16": [
			{
				"Min": 1,
				"Max": 3,
				"Weight": 5000
			},
			{
				"Min": 3,
				"Max": 5,
				"Weight": 5000
			}
		],
		"Weight16": 0
	},
	"5": {
		"ID": 5,
		"Name": "武器SR附魔",
		"Property1ID": "PropertyModifyType_Hero1_ATMul",
		"ValueRange1": [
			{
				"Min": 1,
				"Max": 301,
				"Weight": 2000
			},
			{
				"Min": 301,
				"Max": 601,
				"Weight": 6800
			},
			{
				"Min": 601,
				"Max": 1051,
				"Weight": 1000
			},
			{
				"Min": 1051,
				"Max": 1501,
				"Weight": 200
			}
		],
		"Weight1": 10,
		"Property2ID": "PropertyModifyType_Hero1_MagicMul",
		"ValueRange2": [
			{
				"Min": 1,
				"Max": 301,
				"Weight": 2000
			},
			{
				"Min": 301,
				"Max": 601,
				"Weight": 6800
			},
			{
				"Min": 601,
				"Max": 1051,
				"Weight": 1000
			},
			{
				"Min": 1051,
				"Max": 1501,
				"Weight": 200
			}
		],
		"Weight2": 10,
		"Property3ID": "PropertyModifyType_Hero1_ATAdd",
		"ValueRange3": [
			{
				"Min": 1,
				"Max": 7,
				"Weight": 2000
			},
			{
				"Min": 7,
				"Max": 13,
				"Weight": 6800
			},
			{
				"Min": 13,
				"Max": 22,
				"Weight": 1000
			},
			{
				"Min": 22,
				"Max": 31,
				"Weight": 200
			}
		],
		"Weight3": 10,
		"Property4ID": "PropertyModifyType_Hero1_MagicAdd",
		"ValueRange4": [
			{
				"Min": 1,
				"Max": 7,
				"Weight": 2000
			},
			{
				"Min": 7,
				"Max": 13,
				"Weight": 6800
			},
			{
				"Min": 13,
				"Max": 22,
				"Weight": 1000
			},
			{
				"Min": 22,
				"Max": 31,
				"Weight": 200
			}
		],
		"Weight4": 10,
		"Property5ID": "PropertyModifyType_Hero1_DFMul",
		"ValueRange5": [
			{
				"Min": 1,
				"Max": 101,
				"Weight": 2000
			},
			{
				"Min": 101,
				"Max": 201,
				"Weight": 6800
			},
			{
				"Min": 201,
				"Max": 351,
				"Weight": 1000
			},
			{
				"Min": 351,
				"Max": 501,
				"Weight": 200
			}
		],
		"Weight5": 10,
		"Property6ID": "PropertyModifyType_Hero1_DFAdd",
		"ValueRange6": [
			{
				"Min": 1,
				"Max": 2,
				"Weight": 2000
			},
			{
				"Min": 2,
				"Max": 3,
				"Weight": 6800
			},
			{
				"Min": 3,
				"Max": 5,
				"Weight": 1000
			},
			{
				"Min": 5,
				"Max": 7,
				"Weight": 200
			}
		],
		"Weight6": 10,
		"Property7ID": "PropertyModifyType_Hero1_MagicDFMul",
		"ValueRange7": [
			{
				"Min": 1,
				"Max": 101,
				"Weight": 2000
			},
			{
				"Min": 101,
				"Max": 201,
				"Weight": 6800
			},
			{
				"Min": 201,
				"Max": 351,
				"Weight": 1000
			},
			{
				"Min": 351,
				"Max": 501,
				"Weight": 200
			}
		],
		"Weight7": 10,
		"Property8ID": "PropertyModifyType_Hero1_MagicDFAdd",
		"ValueRange8": [
			{
				"Min": 1,
				"Max": 2,
				"Weight": 2000
			},
			{
				"Min": 2,
				"Max": 3,
				"Weight": 6800
			},
			{
				"Min": 3,
				"Max": 5,
				"Weight": 1000
			},
			{
				"Min": 5,
				"Max": 7,
				"Weight": 200
			}
		],
		"Weight8": 10,
		"Property9ID": "PropertyModifyType_Hero1_HPMul",
		"ValueRange9": [
			{
				"Min": 1,
				"Max": 201,
				"Weight": 2000
			},
			{
				"Min": 201,
				"Max": 401,
				"Weight": 6800
			},
			{
				"Min": 401,
				"Max": 701,
				"Weight": 1000
			},
			{
				"Min": 701,
				"Max": 1001,
				"Weight": 200
			}
		],
		"Weight9": 10,
		"Property10ID": "PropertyModifyType_Hero1_HPAdd",
		"ValueRange10": [
			{
				"Min": 1,
				"Max": 27,
				"Weight": 2000
			},
			{
				"Min": 27,
				"Max": 53,
				"Weight": 6800
			},
			{
				"Min": 53,
				"Max": 92,
				"Weight": 1000
			},
			{
				"Min": 92,
				"Max": 131,
				"Weight": 200
			}
		],
		"Weight10": 10,
		"Property11ID": "PropertyModifyType_Hero1_CriticalRateAdd",
		"ValueRange11": [
			{
				"Min": 1,
				"Max": 301,
				"Weight": 2000
			},
			{
				"Min": 301,
				"Max": 601,
				"Weight": 6800
			},
			{
				"Min": 601,
				"Max": 1051,
				"Weight": 1000
			},
			{
				"Min": 1051,
				"Max": 1501,
				"Weight": 200
			}
		],
		"Weight11": 0,
		"Property12ID": "PropertyModifyType_Hero1_CriticalDamageAdd",
		"ValueRange12": [
			{
				"Min": 1,
				"Max": 401,
				"Weight": 2000
			},
			{
				"Min": 401,
				"Max": 801,
				"Weight": 6800
			},
			{
				"Min": 801,
				"Max": 1401,
				"Weight": 1000
			},
			{
				"Min": 1401,
				"Max": 2001,
				"Weight": 200
			}
		],
		"Weight12": 0,
		"Property13ID": "PropertyModifyType_Hero1_HPAdd",
		"ValueRange13": [
			{
				"Min": 1,
				"Max": 3,
				"Weight": 5000
			},
			{
				"Min": 3,
				"Max": 5,
				"Weight": 5000
			}
		],
		"Weight13": 0,
		"Property14ID": "PropertyModifyType_Hero1_HPAdd",
		"ValueRange14": [
			{
				"Min": 1,
				"Max": 3,
				"Weight": 5000
			},
			{
				"Min": 3,
				"Max": 5,
				"Weight": 5000
			}
		],
		"Weight14": 0,
		"Property15ID": "PropertyModifyType_Hero1_HPAdd",
		"ValueRange15": [
			{
				"Min": 1,
				"Max": 3,
				"Weight": 5000
			},
			{
				"Min": 3,
				"Max": 5,
				"Weight": 5000
			}
		],
		"Weight15": 0,
		"Property16ID": "PropertyModifyType_Hero1_HPAdd",
		"ValueRange16": [
			{
				"Min": 1,
				"Max": 3,
				"Weight": 5000
			},
			{
				"Min": 3,
				"Max": 5,
				"Weight": 5000
			}
		],
		"Weight16": 0
	},
	"6": {
		"ID": 6,
		"Name": "防具SR附魔",
		"Property1ID": "PropertyModifyType_Hero1_ATMul",
		"ValueRange1": [
			{
				"Min": 1,
				"Max": 101,
				"Weight": 2000
			},
			{
				"Min": 101,
				"Max": 201,
				"Weight": 6800
			},
			{
				"Min": 201,
				"Max": 351,
				"Weight": 1000
			},
			{
				"Min": 351,
				"Max": 501,
				"Weight": 200
			}
		],
		"Weight1": 10,
		"Property2ID": "PropertyModifyType_Hero1_MagicMul",
		"ValueRange2": [
			{
				"Min": 1,
				"Max": 101,
				"Weight": 2000
			},
			{
				"Min": 101,
				"Max": 201,
				"Weight": 6800
			},
			{
				"Min": 201,
				"Max": 351,
				"Weight": 1000
			},
			{
				"Min": 351,
				"Max": 501,
				"Weight": 200
			}
		],
		"Weight2": 10,
		"Property3ID": "PropertyModifyType_Hero1_ATAdd",
		"ValueRange3": [
			{
				"Min": 1,
				"Max": 3,
				"Weight": 2000
			},
			{
				"Min": 3,
				"Max": 5,
				"Weight": 6800
			},
			{
				"Min": 5,
				"Max": 8,
				"Weight": 1000
			},
			{
				"Min": 8,
				"Max": 11,
				"Weight": 200
			}
		],
		"Weight3": 10,
		"Property4ID": "PropertyModifyType_Hero1_MagicAdd",
		"ValueRange4": [
			{
				"Min": 1,
				"Max": 3,
				"Weight": 2000
			},
			{
				"Min": 3,
				"Max": 5,
				"Weight": 6800
			},
			{
				"Min": 5,
				"Max": 8,
				"Weight": 1000
			},
			{
				"Min": 8,
				"Max": 11,
				"Weight": 200
			}
		],
		"Weight4": 10,
		"Property5ID": "PropertyModifyType_Hero1_DFMul",
		"ValueRange5": [
			{
				"Min": 1,
				"Max": 301,
				"Weight": 2000
			},
			{
				"Min": 301,
				"Max": 601,
				"Weight": 6800
			},
			{
				"Min": 601,
				"Max": 1051,
				"Weight": 1000
			},
			{
				"Min": 1051,
				"Max": 1501,
				"Weight": 200
			}
		],
		"Weight5": 10,
		"Property6ID": "PropertyModifyType_Hero1_DFAdd",
		"ValueRange6": [
			{
				"Min": 1,
				"Max": 5,
				"Weight": 2000
			},
			{
				"Min": 5,
				"Max": 8,
				"Weight": 6800
			},
			{
				"Min": 8,
				"Max": 14,
				"Weight": 1000
			},
			{
				"Min": 14,
				"Max": 19,
				"Weight": 200
			}
		],
		"Weight6": 10,
		"Property7ID": "PropertyModifyType_Hero1_MagicDFMul",
		"ValueRange7": [
			{
				"Min": 1,
				"Max": 301,
				"Weight": 2000
			},
			{
				"Min": 301,
				"Max": 601,
				"Weight": 6800
			},
			{
				"Min": 601,
				"Max": 1051,
				"Weight": 1000
			},
			{
				"Min": 1051,
				"Max": 1501,
				"Weight": 200
			}
		],
		"Weight7": 10,
		"Property8ID": "PropertyModifyType_Hero1_MagicDFAdd",
		"ValueRange8": [
			{
				"Min": 1,
				"Max": 5,
				"Weight": 2000
			},
			{
				"Min": 5,
				"Max": 8,
				"Weight": 6800
			},
			{
				"Min": 8,
				"Max": 14,
				"Weight": 1000
			},
			{
				"Min": 14,
				"Max": 19,
				"Weight": 200
			}
		],
		"Weight8": 10,
		"Property9ID": "PropertyModifyType_Hero1_HPMul",
		"ValueRange9": [
			{
				"Min": 1,
				"Max": 301,
				"Weight": 2000
			},
			{
				"Min": 301,
				"Max": 601,
				"Weight": 6800
			},
			{
				"Min": 601,
				"Max": 1051,
				"Weight": 1000
			},
			{
				"Min": 1051,
				"Max": 1501,
				"Weight": 200
			}
		],
		"Weight9": 10,
		"Property10ID": "PropertyModifyType_Hero1_HPAdd",
		"ValueRange10": [
			{
				"Min": 1,
				"Max": 41,
				"Weight": 2000
			},
			{
				"Min": 41,
				"Max": 81,
				"Weight": 6800
			},
			{
				"Min": 81,
				"Max": 141,
				"Weight": 1000
			},
			{
				"Min": 141,
				"Max": 201,
				"Weight": 200
			}
		],
		"Weight10": 10,
		"Property11ID": "PropertyModifyType_Hero1_CriticalRateAdd",
		"ValueRange11": [
			{
				"Min": 1,
				"Max": 301,
				"Weight": 2000
			},
			{
				"Min": 301,
				"Max": 601,
				"Weight": 6800
			},
			{
				"Min": 601,
				"Max": 1051,
				"Weight": 1000
			},
			{
				"Min": 1051,
				"Max": 1501,
				"Weight": 200
			}
		],
		"Weight11": 0,
		"Property12ID": "PropertyModifyType_Hero1_CriticalDamageAdd",
		"ValueRange12": [
			{
				"Min": 1,
				"Max": 401,
				"Weight": 2000
			},
			{
				"Min": 401,
				"Max": 801,
				"Weight": 6800
			},
			{
				"Min": 801,
				"Max": 1401,
				"Weight": 1000
			},
			{
				"Min": 1401,
				"Max": 2001,
				"Weight": 200
			}
		],
		"Weight12": 0,
		"Property13ID": "PropertyModifyType_Hero1_HPAdd",
		"ValueRange13": [
			{
				"Min": 1,
				"Max": 3,
				"Weight": 5000
			},
			{
				"Min": 3,
				"Max": 5,
				"Weight": 5000
			}
		],
		"Weight13": 0,
		"Property14ID": "PropertyModifyType_Hero1_HPAdd",
		"ValueRange14": [
			{
				"Min": 1,
				"Max": 3,
				"Weight": 5000
			},
			{
				"Min": 3,
				"Max": 5,
				"Weight": 5000
			}
		],
		"Weight14": 0,
		"Property15ID": "PropertyModifyType_Hero1_HPAdd",
		"ValueRange15": [
			{
				"Min": 1,
				"Max": 3,
				"Weight": 5000
			},
			{
				"Min": 3,
				"Max": 5,
				"Weight": 5000
			}
		],
		"Weight15": 0,
		"Property16ID": "PropertyModifyType_Hero1_HPAdd",
		"ValueRange16": [
			{
				"Min": 1,
				"Max": 3,
				"Weight": 5000
			},
			{
				"Min": 3,
				"Max": 5,
				"Weight": 5000
			}
		],
		"Weight16": 0
	},
	"7": {
		"ID": 7,
		"Name": "头盔SR附魔",
		"Property1ID": "PropertyModifyType_Hero1_ATMul",
		"ValueRange1": [
			{
				"Min": 1,
				"Max": 101,
				"Weight": 2000
			},
			{
				"Min": 101,
				"Max": 201,
				"Weight": 6800
			},
			{
				"Min": 201,
				"Max": 351,
				"Weight": 1000
			},
			{
				"Min": 351,
				"Max": 501,
				"Weight": 200
			}
		],
		"Weight1": 10,
		"Property2ID": "PropertyModifyType_Hero1_MagicMul",
		"ValueRange2": [
			{
				"Min": 1,
				"Max": 101,
				"Weight": 2000
			},
			{
				"Min": 101,
				"Max": 201,
				"Weight": 6800
			},
			{
				"Min": 201,
				"Max": 351,
				"Weight": 1000
			},
			{
				"Min": 351,
				"Max": 501,
				"Weight": 200
			}
		],
		"Weight2": 10,
		"Property3ID": "PropertyModifyType_Hero1_ATAdd",
		"ValueRange3": [
			{
				"Min": 1,
				"Max": 3,
				"Weight": 2000
			},
			{
				"Min": 3,
				"Max": 5,
				"Weight": 6800
			},
			{
				"Min": 5,
				"Max": 8,
				"Weight": 1000
			},
			{
				"Min": 8,
				"Max": 11,
				"Weight": 200
			}
		],
		"Weight3": 10,
		"Property4ID": "PropertyModifyType_Hero1_MagicAdd",
		"ValueRange4": [
			{
				"Min": 1,
				"Max": 3,
				"Weight": 2000
			},
			{
				"Min": 3,
				"Max": 5,
				"Weight": 6800
			},
			{
				"Min": 5,
				"Max": 8,
				"Weight": 1000
			},
			{
				"Min": 8,
				"Max": 11,
				"Weight": 200
			}
		],
		"Weight4": 10,
		"Property5ID": "PropertyModifyType_Hero1_DFMul",
		"ValueRange5": [
			{
				"Min": 1,
				"Max": 301,
				"Weight": 2000
			},
			{
				"Min": 301,
				"Max": 601,
				"Weight": 6800
			},
			{
				"Min": 601,
				"Max": 1051,
				"Weight": 1000
			},
			{
				"Min": 1051,
				"Max": 1501,
				"Weight": 200
			}
		],
		"Weight5": 10,
		"Property6ID": "PropertyModifyType_Hero1_DFAdd",
		"ValueRange6": [
			{
				"Min": 1,
				"Max": 5,
				"Weight": 2000
			},
			{
				"Min": 5,
				"Max": 8,
				"Weight": 6800
			},
			{
				"Min": 8,
				"Max": 14,
				"Weight": 1000
			},
			{
				"Min": 14,
				"Max": 19,
				"Weight": 200
			}
		],
		"Weight6": 10,
		"Property7ID": "PropertyModifyType_Hero1_MagicDFMul",
		"ValueRange7": [
			{
				"Min": 1,
				"Max": 301,
				"Weight": 2000
			},
			{
				"Min": 301,
				"Max": 601,
				"Weight": 6800
			},
			{
				"Min": 601,
				"Max": 1051,
				"Weight": 1000
			},
			{
				"Min": 1051,
				"Max": 1501,
				"Weight": 200
			}
		],
		"Weight7": 10,
		"Property8ID": "PropertyModifyType_Hero1_MagicDFAdd",
		"ValueRange8": [
			{
				"Min": 1,
				"Max": 5,
				"Weight": 2000
			},
			{
				"Min": 5,
				"Max": 8,
				"Weight": 6800
			},
			{
				"Min": 8,
				"Max": 14,
				"Weight": 1000
			},
			{
				"Min": 14,
				"Max": 19,
				"Weight": 200
			}
		],
		"Weight8": 10,
		"Property9ID": "PropertyModifyType_Hero1_HPMul",
		"ValueRange9": [
			{
				"Min": 1,
				"Max": 301,
				"Weight": 2000
			},
			{
				"Min": 301,
				"Max": 601,
				"Weight": 6800
			},
			{
				"Min": 601,
				"Max": 1051,
				"Weight": 1000
			},
			{
				"Min": 1051,
				"Max": 1501,
				"Weight": 200
			}
		],
		"Weight9": 10,
		"Property10ID": "PropertyModifyType_Hero1_HPAdd",
		"ValueRange10": [
			{
				"Min": 1,
				"Max": 41,
				"Weight": 2000
			},
			{
				"Min": 41,
				"Max": 81,
				"Weight": 6800
			},
			{
				"Min": 81,
				"Max": 141,
				"Weight": 1000
			},
			{
				"Min": 141,
				"Max": 201,
				"Weight": 200
			}
		],
		"Weight10": 10,
		"Property11ID": "PropertyModifyType_Hero1_CriticalRateAdd",
		"ValueRange11": [
			{
				"Min": 1,
				"Max": 301,
				"Weight": 2000
			},
			{
				"Min": 301,
				"Max": 601,
				"Weight": 6800
			},
			{
				"Min": 601,
				"Max": 1051,
				"Weight": 1000
			},
			{
				"Min": 1051,
				"Max": 1501,
				"Weight": 200
			}
		],
		"Weight11": 0,
		"Property12ID": "PropertyModifyType_Hero1_CriticalDamageAdd",
		"ValueRange12": [
			{
				"Min": 1,
				"Max": 401,
				"Weight": 2000
			},
			{
				"Min": 401,
				"Max": 801,
				"Weight": 6800
			},
			{
				"Min": 801,
				"Max": 1401,
				"Weight": 1000
			},
			{
				"Min": 1401,
				"Max": 2001,
				"Weight": 200
			}
		],
		"Weight12": 0,
		"Property13ID": "PropertyModifyType_Hero1_HPAdd",
		"ValueRange13": [
			{
				"Min": 1,
				"Max": 3,
				"Weight": 5000
			},
			{
				"Min": 3,
				"Max": 5,
				"Weight": 5000
			}
		],
		"Weight13": 0,
		"Property14ID": "PropertyModifyType_Hero1_HPAdd",
		"ValueRange14": [
			{
				"Min": 1,
				"Max": 3,
				"Weight": 5000
			},
			{
				"Min": 3,
				"Max": 5,
				"Weight": 5000
			}
		],
		"Weight14": 0,
		"Property15ID": "PropertyModifyType_Hero1_HPAdd",
		"ValueRange15": [
			{
				"Min": 1,
				"Max": 3,
				"Weight": 5000
			},
			{
				"Min": 3,
				"Max": 5,
				"Weight": 5000
			}
		],
		"Weight15": 0,
		"Property16ID": "PropertyModifyType_Hero1_HPAdd",
		"ValueRange16": [
			{
				"Min": 1,
				"Max": 3,
				"Weight": 5000
			},
			{
				"Min": 3,
				"Max": 5,
				"Weight": 5000
			}
		],
		"Weight16": 0
	},
	"8": {
		"ID": 8,
		"Name": "饰品SR附魔",
		"Property1ID": "PropertyModifyType_Hero1_ATMul",
		"ValueRange1": [
			{
				"Min": 1,
				"Max": 201,
				"Weight": 2000
			},
			{
				"Min": 201,
				"Max": 401,
				"Weight": 6800
			},
			{
				"Min": 401,
				"Max": 701,
				"Weight": 1000
			},
			{
				"Min": 701,
				"Max": 1001,
				"Weight": 200
			}
		],
		"Weight1": 10,
		"Property2ID": "PropertyModifyType_Hero1_MagicMul",
		"ValueRange2": [
			{
				"Min": 1,
				"Max": 201,
				"Weight": 2000
			},
			{
				"Min": 201,
				"Max": 401,
				"Weight": 6800
			},
			{
				"Min": 401,
				"Max": 701,
				"Weight": 1000
			},
			{
				"Min": 701,
				"Max": 1001,
				"Weight": 200
			}
		],
		"Weight2": 10,
		"Property3ID": "PropertyModifyType_Hero1_ATAdd",
		"ValueRange3": [
			{
				"Min": 1,
				"Max": 5,
				"Weight": 2000
			},
			{
				"Min": 5,
				"Max": 9,
				"Weight": 6800
			},
			{
				"Min": 9,
				"Max": 15,
				"Weight": 1000
			},
			{
				"Min": 15,
				"Max": 21,
				"Weight": 200
			}
		],
		"Weight3": 10,
		"Property4ID": "PropertyModifyType_Hero1_MagicAdd",
		"ValueRange4": [
			{
				"Min": 1,
				"Max": 5,
				"Weight": 2000
			},
			{
				"Min": 5,
				"Max": 9,
				"Weight": 6800
			},
			{
				"Min": 9,
				"Max": 15,
				"Weight": 1000
			},
			{
				"Min": 15,
				"Max": 21,
				"Weight": 200
			}
		],
		"Weight4": 10,
		"Property5ID": "PropertyModifyType_Hero1_DFMul",
		"ValueRange5": [
			{
				"Min": 1,
				"Max": 201,
				"Weight": 2000
			},
			{
				"Min": 201,
				"Max": 401,
				"Weight": 6800
			},
			{
				"Min": 401,
				"Max": 701,
				"Weight": 1000
			},
			{
				"Min": 701,
				"Max": 1001,
				"Weight": 200
			}
		],
		"Weight5": 10,
		"Property6ID": "PropertyModifyType_Hero1_DFAdd",
		"ValueRange6": [
			{
				"Min": 1,
				"Max": 3,
				"Weight": 2000
			},
			{
				"Min": 3,
				"Max": 6,
				"Weight": 6800
			},
			{
				"Min": 6,
				"Max": 9,
				"Weight": 1000
			},
			{
				"Min": 9,
				"Max": 13,
				"Weight": 200
			}
		],
		"Weight6": 10,
		"Property7ID": "PropertyModifyType_Hero1_MagicDFMul",
		"ValueRange7": [
			{
				"Min": 1,
				"Max": 201,
				"Weight": 2000
			},
			{
				"Min": 201,
				"Max": 401,
				"Weight": 6800
			},
			{
				"Min": 401,
				"Max": 701,
				"Weight": 1000
			},
			{
				"Min": 701,
				"Max": 1001,
				"Weight": 200
			}
		],
		"Weight7": 10,
		"Property8ID": "PropertyModifyType_Hero1_MagicDFAdd",
		"ValueRange8": [
			{
				"Min": 1,
				"Max": 3,
				"Weight": 2000
			},
			{
				"Min": 3,
				"Max": 6,
				"Weight": 6800
			},
			{
				"Min": 6,
				"Max": 9,
				"Weight": 1000
			},
			{
				"Min": 9,
				"Max": 13,
				"Weight": 200
			}
		],
		"Weight8": 10,
		"Property9ID": "PropertyModifyType_Hero1_HPMul",
		"ValueRange9": [
			{
				"Min": 1,
				"Max": 201,
				"Weight": 2000
			},
			{
				"Min": 201,
				"Max": 401,
				"Weight": 6800
			},
			{
				"Min": 401,
				"Max": 701,
				"Weight": 1000
			},
			{
				"Min": 701,
				"Max": 1001,
				"Weight": 200
			}
		],
		"Weight9": 10,
		"Property10ID": "PropertyModifyType_Hero1_HPAdd",
		"ValueRange10": [
			{
				"Min": 1,
				"Max": 27,
				"Weight": 2000
			},
			{
				"Min": 27,
				"Max": 53,
				"Weight": 6800
			},
			{
				"Min": 53,
				"Max": 92,
				"Weight": 1000
			},
			{
				"Min": 92,
				"Max": 131,
				"Weight": 200
			}
		],
		"Weight10": 10,
		"Property11ID": "PropertyModifyType_Hero1_CriticalRateAdd",
		"ValueRange11": [
			{
				"Min": 1,
				"Max": 301,
				"Weight": 2000
			},
			{
				"Min": 301,
				"Max": 601,
				"Weight": 6800
			},
			{
				"Min": 601,
				"Max": 1051,
				"Weight": 1000
			},
			{
				"Min": 1051,
				"Max": 1501,
				"Weight": 200
			}
		],
		"Weight11": 10,
		"Property12ID": "PropertyModifyType_Hero1_CriticalDamageAdd",
		"ValueRange12": [
			{
				"Min": 1,
				"Max": 401,
				"Weight": 2000
			},
			{
				"Min": 401,
				"Max": 801,
				"Weight": 6800
			},
			{
				"Min": 801,
				"Max": 1401,
				"Weight": 1000
			},
			{
				"Min": 1401,
				"Max": 2001,
				"Weight": 200
			}
		],
		"Weight12": 0,
		"Property13ID": "PropertyModifyType_Hero1_HPAdd",
		"ValueRange13": [
			{
				"Min": 1,
				"Max": 3,
				"Weight": 5000
			},
			{
				"Min": 3,
				"Max": 5,
				"Weight": 5000
			}
		],
		"Weight13": 0,
		"Property14ID": "PropertyModifyType_Hero1_HPAdd",
		"ValueRange14": [
			{
				"Min": 1,
				"Max": 3,
				"Weight": 5000
			},
			{
				"Min": 3,
				"Max": 5,
				"Weight": 5000
			}
		],
		"Weight14": 0,
		"Property15ID": "PropertyModifyType_Hero1_HPAdd",
		"ValueRange15": [
			{
				"Min": 1,
				"Max": 3,
				"Weight": 5000
			},
			{
				"Min": 3,
				"Max": 5,
				"Weight": 5000
			}
		],
		"Weight15": 0,
		"Property16ID": "PropertyModifyType_Hero1_HPAdd",
		"ValueRange16": [
			{
				"Min": 1,
				"Max": 3,
				"Weight": 5000
			},
			{
				"Min": 3,
				"Max": 5,
				"Weight": 5000
			}
		],
		"Weight16": 0
	},
	"9": {
		"ID": 9,
		"Name": "武器SSR附魔",
		"Property1ID": "PropertyModifyType_Hero1_ATMul",
		"ValueRange1": [
			{
				"Min": 1,
				"Max": 301,
				"Weight": 0
			},
			{
				"Min": 301,
				"Max": 601,
				"Weight": 3500
			},
			{
				"Min": 601,
				"Max": 1051,
				"Weight": 6000
			},
			{
				"Min": 1051,
				"Max": 1501,
				"Weight": 500
			}
		],
		"Weight1": 10,
		"Property2ID": "PropertyModifyType_Hero1_MagicMul",
		"ValueRange2": [
			{
				"Min": 1,
				"Max": 301,
				"Weight": 0
			},
			{
				"Min": 301,
				"Max": 601,
				"Weight": 3500
			},
			{
				"Min": 601,
				"Max": 1051,
				"Weight": 6000
			},
			{
				"Min": 1051,
				"Max": 1501,
				"Weight": 500
			}
		],
		"Weight2": 10,
		"Property3ID": "PropertyModifyType_Hero1_ATAdd",
		"ValueRange3": [
			{
				"Min": 1,
				"Max": 7,
				"Weight": 0
			},
			{
				"Min": 7,
				"Max": 13,
				"Weight": 3500
			},
			{
				"Min": 13,
				"Max": 22,
				"Weight": 6000
			},
			{
				"Min": 22,
				"Max": 31,
				"Weight": 500
			}
		],
		"Weight3": 10,
		"Property4ID": "PropertyModifyType_Hero1_MagicAdd",
		"ValueRange4": [
			{
				"Min": 1,
				"Max": 7,
				"Weight": 0
			},
			{
				"Min": 7,
				"Max": 13,
				"Weight": 3500
			},
			{
				"Min": 13,
				"Max": 22,
				"Weight": 6000
			},
			{
				"Min": 22,
				"Max": 31,
				"Weight": 500
			}
		],
		"Weight4": 10,
		"Property5ID": "PropertyModifyType_Hero1_DFMul",
		"ValueRange5": [
			{
				"Min": 1,
				"Max": 101,
				"Weight": 0
			},
			{
				"Min": 101,
				"Max": 201,
				"Weight": 3500
			},
			{
				"Min": 201,
				"Max": 351,
				"Weight": 6000
			},
			{
				"Min": 351,
				"Max": 501,
				"Weight": 500
			}
		],
		"Weight5": 10,
		"Property6ID": "PropertyModifyType_Hero1_DFAdd",
		"ValueRange6": [
			{
				"Min": 1,
				"Max": 2,
				"Weight": 0
			},
			{
				"Min": 2,
				"Max": 3,
				"Weight": 3500
			},
			{
				"Min": 3,
				"Max": 5,
				"Weight": 6000
			},
			{
				"Min": 5,
				"Max": 7,
				"Weight": 500
			}
		],
		"Weight6": 10,
		"Property7ID": "PropertyModifyType_Hero1_MagicDFMul",
		"ValueRange7": [
			{
				"Min": 1,
				"Max": 101,
				"Weight": 0
			},
			{
				"Min": 101,
				"Max": 201,
				"Weight": 3500
			},
			{
				"Min": 201,
				"Max": 351,
				"Weight": 6000
			},
			{
				"Min": 351,
				"Max": 501,
				"Weight": 500
			}
		],
		"Weight7": 10,
		"Property8ID": "PropertyModifyType_Hero1_MagicDFAdd",
		"ValueRange8": [
			{
				"Min": 1,
				"Max": 2,
				"Weight": 0
			},
			{
				"Min": 2,
				"Max": 3,
				"Weight": 3500
			},
			{
				"Min": 3,
				"Max": 5,
				"Weight": 6000
			},
			{
				"Min": 5,
				"Max": 7,
				"Weight": 500
			}
		],
		"Weight8": 10,
		"Property9ID": "PropertyModifyType_Hero1_HPMul",
		"ValueRange9": [
			{
				"Min": 1,
				"Max": 201,
				"Weight": 0
			},
			{
				"Min": 201,
				"Max": 401,
				"Weight": 3500
			},
			{
				"Min": 401,
				"Max": 701,
				"Weight": 6000
			},
			{
				"Min": 701,
				"Max": 1001,
				"Weight": 500
			}
		],
		"Weight9": 10,
		"Property10ID": "PropertyModifyType_Hero1_HPAdd",
		"ValueRange10": [
			{
				"Min": 1,
				"Max": 27,
				"Weight": 0
			},
			{
				"Min": 27,
				"Max": 53,
				"Weight": 3500
			},
			{
				"Min": 53,
				"Max": 92,
				"Weight": 6000
			},
			{
				"Min": 92,
				"Max": 131,
				"Weight": 500
			}
		],
		"Weight10": 10,
		"Property11ID": "PropertyModifyType_Hero1_CriticalRateAdd",
		"ValueRange11": [
			{
				"Min": 1,
				"Max": 301,
				"Weight": 0
			},
			{
				"Min": 301,
				"Max": 601,
				"Weight": 3500
			},
			{
				"Min": 601,
				"Max": 1051,
				"Weight": 6000
			},
			{
				"Min": 1051,
				"Max": 1501,
				"Weight": 500
			}
		],
		"Weight11": 0,
		"Property12ID": "PropertyModifyType_Hero1_CriticalDamageAdd",
		"ValueRange12": [
			{
				"Min": 1,
				"Max": 401,
				"Weight": 0
			},
			{
				"Min": 401,
				"Max": 801,
				"Weight": 3500
			},
			{
				"Min": 801,
				"Max": 1401,
				"Weight": 6000
			},
			{
				"Min": 1401,
				"Max": 2001,
				"Weight": 500
			}
		],
		"Weight12": 0,
		"Property13ID": "PropertyModifyType_Hero1_HPAdd",
		"ValueRange13": [
			{
				"Min": 1,
				"Max": 3,
				"Weight": 5000
			},
			{
				"Min": 3,
				"Max": 5,
				"Weight": 5000
			}
		],
		"Weight13": 0,
		"Property14ID": "PropertyModifyType_Hero1_HPAdd",
		"ValueRange14": [
			{
				"Min": 1,
				"Max": 3,
				"Weight": 5000
			},
			{
				"Min": 3,
				"Max": 5,
				"Weight": 5000
			}
		],
		"Weight14": 0,
		"Property15ID": "PropertyModifyType_Hero1_HPAdd",
		"ValueRange15": [
			{
				"Min": 1,
				"Max": 3,
				"Weight": 5000
			},
			{
				"Min": 3,
				"Max": 5,
				"Weight": 5000
			}
		],
		"Weight15": 0,
		"Property16ID": "PropertyModifyType_Hero1_HPAdd",
		"ValueRange16": [
			{
				"Min": 1,
				"Max": 3,
				"Weight": 5000
			},
			{
				"Min": 3,
				"Max": 5,
				"Weight": 5000
			}
		],
		"Weight16": 0
	},
	"10": {
		"ID": 10,
		"Name": "防具SSR附魔",
		"Property1ID": "PropertyModifyType_Hero1_ATMul",
		"ValueRange1": [
			{
				"Min": 1,
				"Max": 101,
				"Weight": 0
			},
			{
				"Min": 101,
				"Max": 201,
				"Weight": 3500
			},
			{
				"Min": 201,
				"Max": 351,
				"Weight": 6000
			},
			{
				"Min": 351,
				"Max": 501,
				"Weight": 500
			}
		],
		"Weight1": 10,
		"Property2ID": "PropertyModifyType_Hero1_MagicMul",
		"ValueRange2": [
			{
				"Min": 1,
				"Max": 101,
				"Weight": 0
			},
			{
				"Min": 101,
				"Max": 201,
				"Weight": 3500
			},
			{
				"Min": 201,
				"Max": 351,
				"Weight": 6000
			},
			{
				"Min": 351,
				"Max": 501,
				"Weight": 500
			}
		],
		"Weight2": 10,
		"Property3ID": "PropertyModifyType_Hero1_ATAdd",
		"ValueRange3": [
			{
				"Min": 1,
				"Max": 3,
				"Weight": 0
			},
			{
				"Min": 3,
				"Max": 5,
				"Weight": 3500
			},
			{
				"Min": 5,
				"Max": 8,
				"Weight": 6000
			},
			{
				"Min": 8,
				"Max": 11,
				"Weight": 500
			}
		],
		"Weight3": 10,
		"Property4ID": "PropertyModifyType_Hero1_MagicAdd",
		"ValueRange4": [
			{
				"Min": 1,
				"Max": 3,
				"Weight": 0
			},
			{
				"Min": 3,
				"Max": 5,
				"Weight": 3500
			},
			{
				"Min": 5,
				"Max": 8,
				"Weight": 6000
			},
			{
				"Min": 8,
				"Max": 11,
				"Weight": 500
			}
		],
		"Weight4": 10,
		"Property5ID": "PropertyModifyType_Hero1_DFMul",
		"ValueRange5": [
			{
				"Min": 1,
				"Max": 301,
				"Weight": 0
			},
			{
				"Min": 301,
				"Max": 601,
				"Weight": 3500
			},
			{
				"Min": 601,
				"Max": 1051,
				"Weight": 6000
			},
			{
				"Min": 1051,
				"Max": 1501,
				"Weight": 500
			}
		],
		"Weight5": 10,
		"Property6ID": "PropertyModifyType_Hero1_DFAdd",
		"ValueRange6": [
			{
				"Min": 1,
				"Max": 5,
				"Weight": 0
			},
			{
				"Min": 5,
				"Max": 8,
				"Weight": 3500
			},
			{
				"Min": 8,
				"Max": 14,
				"Weight": 6000
			},
			{
				"Min": 14,
				"Max": 19,
				"Weight": 500
			}
		],
		"Weight6": 10,
		"Property7ID": "PropertyModifyType_Hero1_MagicDFMul",
		"ValueRange7": [
			{
				"Min": 1,
				"Max": 301,
				"Weight": 0
			},
			{
				"Min": 301,
				"Max": 601,
				"Weight": 3500
			},
			{
				"Min": 601,
				"Max": 1051,
				"Weight": 6000
			},
			{
				"Min": 1051,
				"Max": 1501,
				"Weight": 500
			}
		],
		"Weight7": 10,
		"Property8ID": "PropertyModifyType_Hero1_MagicDFAdd",
		"ValueRange8": [
			{
				"Min": 1,
				"Max": 5,
				"Weight": 0
			},
			{
				"Min": 5,
				"Max": 8,
				"Weight": 3500
			},
			{
				"Min": 8,
				"Max": 14,
				"Weight": 6000
			},
			{
				"Min": 14,
				"Max": 19,
				"Weight": 500
			}
		],
		"Weight8": 10,
		"Property9ID": "PropertyModifyType_Hero1_HPMul",
		"ValueRange9": [
			{
				"Min": 1,
				"Max": 301,
				"Weight": 0
			},
			{
				"Min": 301,
				"Max": 601,
				"Weight": 3500
			},
			{
				"Min": 601,
				"Max": 1051,
				"Weight": 6000
			},
			{
				"Min": 1051,
				"Max": 1501,
				"Weight": 500
			}
		],
		"Weight9": 10,
		"Property10ID": "PropertyModifyType_Hero1_HPAdd",
		"ValueRange10": [
			{
				"Min": 1,
				"Max": 41,
				"Weight": 0
			},
			{
				"Min": 41,
				"Max": 81,
				"Weight": 3500
			},
			{
				"Min": 81,
				"Max": 141,
				"Weight": 6000
			},
			{
				"Min": 141,
				"Max": 201,
				"Weight": 500
			}
		],
		"Weight10": 10,
		"Property11ID": "PropertyModifyType_Hero1_CriticalRateAdd",
		"ValueRange11": [
			{
				"Min": 1,
				"Max": 301,
				"Weight": 0
			},
			{
				"Min": 301,
				"Max": 601,
				"Weight": 3500
			},
			{
				"Min": 601,
				"Max": 1051,
				"Weight": 6000
			},
			{
				"Min": 1051,
				"Max": 1501,
				"Weight": 500
			}
		],
		"Weight11": 0,
		"Property12ID": "PropertyModifyType_Hero1_CriticalDamageAdd",
		"ValueRange12": [
			{
				"Min": 1,
				"Max": 401,
				"Weight": 0
			},
			{
				"Min": 401,
				"Max": 801,
				"Weight": 3500
			},
			{
				"Min": 801,
				"Max": 1401,
				"Weight": 6000
			},
			{
				"Min": 1401,
				"Max": 2001,
				"Weight": 500
			}
		],
		"Weight12": 0,
		"Property13ID": "PropertyModifyType_Hero1_HPAdd",
		"ValueRange13": [
			{
				"Min": 1,
				"Max": 3,
				"Weight": 5000
			},
			{
				"Min": 3,
				"Max": 5,
				"Weight": 5000
			}
		],
		"Weight13": 0,
		"Property14ID": "PropertyModifyType_Hero1_HPAdd",
		"ValueRange14": [
			{
				"Min": 1,
				"Max": 3,
				"Weight": 5000
			},
			{
				"Min": 3,
				"Max": 5,
				"Weight": 5000
			}
		],
		"Weight14": 0,
		"Property15ID": "PropertyModifyType_Hero1_HPAdd",
		"ValueRange15": [
			{
				"Min": 1,
				"Max": 3,
				"Weight": 5000
			},
			{
				"Min": 3,
				"Max": 5,
				"Weight": 5000
			}
		],
		"Weight15": 0,
		"Property16ID": "PropertyModifyType_Hero1_HPAdd",
		"ValueRange16": [
			{
				"Min": 1,
				"Max": 3,
				"Weight": 5000
			},
			{
				"Min": 3,
				"Max": 5,
				"Weight": 5000
			}
		],
		"Weight16": 0
	},
	"11": {
		"ID": 11,
		"Name": "头盔SSR附魔",
		"Property1ID": "PropertyModifyType_Hero1_ATMul",
		"ValueRange1": [
			{
				"Min": 1,
				"Max": 101,
				"Weight": 0
			},
			{
				"Min": 101,
				"Max": 201,
				"Weight": 3500
			},
			{
				"Min": 201,
				"Max": 351,
				"Weight": 6000
			},
			{
				"Min": 351,
				"Max": 501,
				"Weight": 500
			}
		],
		"Weight1": 10,
		"Property2ID": "PropertyModifyType_Hero1_MagicMul",
		"ValueRange2": [
			{
				"Min": 1,
				"Max": 101,
				"Weight": 0
			},
			{
				"Min": 101,
				"Max": 201,
				"Weight": 3500
			},
			{
				"Min": 201,
				"Max": 351,
				"Weight": 6000
			},
			{
				"Min": 351,
				"Max": 501,
				"Weight": 500
			}
		],
		"Weight2": 10,
		"Property3ID": "PropertyModifyType_Hero1_ATAdd",
		"ValueRange3": [
			{
				"Min": 1,
				"Max": 3,
				"Weight": 0
			},
			{
				"Min": 3,
				"Max": 5,
				"Weight": 3500
			},
			{
				"Min": 5,
				"Max": 8,
				"Weight": 6000
			},
			{
				"Min": 8,
				"Max": 11,
				"Weight": 500
			}
		],
		"Weight3": 10,
		"Property4ID": "PropertyModifyType_Hero1_MagicAdd",
		"ValueRange4": [
			{
				"Min": 1,
				"Max": 3,
				"Weight": 0
			},
			{
				"Min": 3,
				"Max": 5,
				"Weight": 3500
			},
			{
				"Min": 5,
				"Max": 8,
				"Weight": 6000
			},
			{
				"Min": 8,
				"Max": 11,
				"Weight": 500
			}
		],
		"Weight4": 10,
		"Property5ID": "PropertyModifyType_Hero1_DFMul",
		"ValueRange5": [
			{
				"Min": 1,
				"Max": 301,
				"Weight": 0
			},
			{
				"Min": 301,
				"Max": 601,
				"Weight": 3500
			},
			{
				"Min": 601,
				"Max": 1051,
				"Weight": 6000
			},
			{
				"Min": 1051,
				"Max": 1501,
				"Weight": 500
			}
		],
		"Weight5": 10,
		"Property6ID": "PropertyModifyType_Hero1_DFAdd",
		"ValueRange6": [
			{
				"Min": 1,
				"Max": 5,
				"Weight": 0
			},
			{
				"Min": 5,
				"Max": 8,
				"Weight": 3500
			},
			{
				"Min": 8,
				"Max": 14,
				"Weight": 6000
			},
			{
				"Min": 14,
				"Max": 19,
				"Weight": 500
			}
		],
		"Weight6": 10,
		"Property7ID": "PropertyModifyType_Hero1_MagicDFMul",
		"ValueRange7": [
			{
				"Min": 1,
				"Max": 301,
				"Weight": 0
			},
			{
				"Min": 301,
				"Max": 601,
				"Weight": 3500
			},
			{
				"Min": 601,
				"Max": 1051,
				"Weight": 6000
			},
			{
				"Min": 1051,
				"Max": 1501,
				"Weight": 500
			}
		],
		"Weight7": 10,
		"Property8ID": "PropertyModifyType_Hero1_MagicDFAdd",
		"ValueRange8": [
			{
				"Min": 1,
				"Max": 5,
				"Weight": 0
			},
			{
				"Min": 5,
				"Max": 8,
				"Weight": 3500
			},
			{
				"Min": 8,
				"Max": 14,
				"Weight": 6000
			},
			{
				"Min": 14,
				"Max": 19,
				"Weight": 500
			}
		],
		"Weight8": 10,
		"Property9ID": "PropertyModifyType_Hero1_HPMul",
		"ValueRange9": [
			{
				"Min": 1,
				"Max": 301,
				"Weight": 0
			},
			{
				"Min": 301,
				"Max": 601,
				"Weight": 3500
			},
			{
				"Min": 601,
				"Max": 1051,
				"Weight": 6000
			},
			{
				"Min": 1051,
				"Max": 1501,
				"Weight": 500
			}
		],
		"Weight9": 10,
		"Property10ID": "PropertyModifyType_Hero1_HPAdd",
		"ValueRange10": [
			{
				"Min": 1,
				"Max": 41,
				"Weight": 0
			},
			{
				"Min": 41,
				"Max": 81,
				"Weight": 3500
			},
			{
				"Min": 81,
				"Max": 141,
				"Weight": 6000
			},
			{
				"Min": 141,
				"Max": 201,
				"Weight": 500
			}
		],
		"Weight10": 10,
		"Property11ID": "PropertyModifyType_Hero1_CriticalRateAdd",
		"ValueRange11": [
			{
				"Min": 1,
				"Max": 301,
				"Weight": 0
			},
			{
				"Min": 301,
				"Max": 601,
				"Weight": 3500
			},
			{
				"Min": 601,
				"Max": 1051,
				"Weight": 6000
			},
			{
				"Min": 1051,
				"Max": 1501,
				"Weight": 500
			}
		],
		"Weight11": 0,
		"Property12ID": "PropertyModifyType_Hero1_CriticalDamageAdd",
		"ValueRange12": [
			{
				"Min": 1,
				"Max": 401,
				"Weight": 0
			},
			{
				"Min": 401,
				"Max": 801,
				"Weight": 3500
			},
			{
				"Min": 801,
				"Max": 1401,
				"Weight": 6000
			},
			{
				"Min": 1401,
				"Max": 2001,
				"Weight": 500
			}
		],
		"Weight12": 0,
		"Property13ID": "PropertyModifyType_Hero1_HPAdd",
		"ValueRange13": [
			{
				"Min": 1,
				"Max": 3,
				"Weight": 5000
			},
			{
				"Min": 3,
				"Max": 5,
				"Weight": 5000
			}
		],
		"Weight13": 0,
		"Property14ID": "PropertyModifyType_Hero1_HPAdd",
		"ValueRange14": [
			{
				"Min": 1,
				"Max": 3,
				"Weight": 5000
			},
			{
				"Min": 3,
				"Max": 5,
				"Weight": 5000
			}
		],
		"Weight14": 0,
		"Property15ID": "PropertyModifyType_Hero1_HPAdd",
		"ValueRange15": [
			{
				"Min": 1,
				"Max": 3,
				"Weight": 5000
			},
			{
				"Min": 3,
				"Max": 5,
				"Weight": 5000
			}
		],
		"Weight15": 0,
		"Property16ID": "PropertyModifyType_Hero1_HPAdd",
		"ValueRange16": [
			{
				"Min": 1,
				"Max": 3,
				"Weight": 5000
			},
			{
				"Min": 3,
				"Max": 5,
				"Weight": 5000
			}
		],
		"Weight16": 0
	},
	"12": {
		"ID": 12,
		"Name": "饰品SSR附魔",
		"Property1ID": "PropertyModifyType_Hero1_ATMul",
		"ValueRange1": [
			{
				"Min": 1,
				"Max": 201,
				"Weight": 0
			},
			{
				"Min": 201,
				"Max": 401,
				"Weight": 3500
			},
			{
				"Min": 401,
				"Max": 701,
				"Weight": 6000
			},
			{
				"Min": 701,
				"Max": 1001,
				"Weight": 500
			}
		],
		"Weight1": 10,
		"Property2ID": "PropertyModifyType_Hero1_MagicMul",
		"ValueRange2": [
			{
				"Min": 1,
				"Max": 201,
				"Weight": 0
			},
			{
				"Min": 201,
				"Max": 401,
				"Weight": 3500
			},
			{
				"Min": 401,
				"Max": 701,
				"Weight": 6000
			},
			{
				"Min": 701,
				"Max": 1001,
				"Weight": 500
			}
		],
		"Weight2": 10,
		"Property3ID": "PropertyModifyType_Hero1_ATAdd",
		"ValueRange3": [
			{
				"Min": 1,
				"Max": 5,
				"Weight": 0
			},
			{
				"Min": 5,
				"Max": 9,
				"Weight": 3500
			},
			{
				"Min": 9,
				"Max": 15,
				"Weight": 6000
			},
			{
				"Min": 15,
				"Max": 21,
				"Weight": 500
			}
		],
		"Weight3": 10,
		"Property4ID": "PropertyModifyType_Hero1_MagicAdd",
		"ValueRange4": [
			{
				"Min": 1,
				"Max": 5,
				"Weight": 0
			},
			{
				"Min": 5,
				"Max": 9,
				"Weight": 3500
			},
			{
				"Min": 9,
				"Max": 15,
				"Weight": 6000
			},
			{
				"Min": 15,
				"Max": 21,
				"Weight": 500
			}
		],
		"Weight4": 10,
		"Property5ID": "PropertyModifyType_Hero1_DFMul",
		"ValueRange5": [
			{
				"Min": 1,
				"Max": 201,
				"Weight": 0
			},
			{
				"Min": 201,
				"Max": 401,
				"Weight": 3500
			},
			{
				"Min": 401,
				"Max": 701,
				"Weight": 6000
			},
			{
				"Min": 701,
				"Max": 1001,
				"Weight": 500
			}
		],
		"Weight5": 10,
		"Property6ID": "PropertyModifyType_Hero1_DFAdd",
		"ValueRange6": [
			{
				"Min": 1,
				"Max": 3,
				"Weight": 0
			},
			{
				"Min": 3,
				"Max": 6,
				"Weight": 3500
			},
			{
				"Min": 6,
				"Max": 9,
				"Weight": 6000
			},
			{
				"Min": 9,
				"Max": 13,
				"Weight": 500
			}
		],
		"Weight6": 10,
		"Property7ID": "PropertyModifyType_Hero1_MagicDFMul",
		"ValueRange7": [
			{
				"Min": 1,
				"Max": 201,
				"Weight": 0
			},
			{
				"Min": 201,
				"Max": 401,
				"Weight": 3500
			},
			{
				"Min": 401,
				"Max": 701,
				"Weight": 6000
			},
			{
				"Min": 701,
				"Max": 1001,
				"Weight": 500
			}
		],
		"Weight7": 10,
		"Property8ID": "PropertyModifyType_Hero1_MagicDFAdd",
		"ValueRange8": [
			{
				"Min": 1,
				"Max": 3,
				"Weight": 0
			},
			{
				"Min": 3,
				"Max": 6,
				"Weight": 3500
			},
			{
				"Min": 6,
				"Max": 9,
				"Weight": 6000
			},
			{
				"Min": 9,
				"Max": 13,
				"Weight": 500
			}
		],
		"Weight8": 10,
		"Property9ID": "PropertyModifyType_Hero1_HPMul",
		"ValueRange9": [
			{
				"Min": 1,
				"Max": 201,
				"Weight": 0
			},
			{
				"Min": 201,
				"Max": 401,
				"Weight": 3500
			},
			{
				"Min": 401,
				"Max": 701,
				"Weight": 6000
			},
			{
				"Min": 701,
				"Max": 1001,
				"Weight": 500
			}
		],
		"Weight9": 10,
		"Property10ID": "PropertyModifyType_Hero1_HPAdd",
		"ValueRange10": [
			{
				"Min": 1,
				"Max": 27,
				"Weight": 0
			},
			{
				"Min": 27,
				"Max": 53,
				"Weight": 3500
			},
			{
				"Min": 53,
				"Max": 92,
				"Weight": 6000
			},
			{
				"Min": 92,
				"Max": 131,
				"Weight": 500
			}
		],
		"Weight10": 10,
		"Property11ID": "PropertyModifyType_Hero1_CriticalRateAdd",
		"ValueRange11": [
			{
				"Min": 1,
				"Max": 301,
				"Weight": 0
			},
			{
				"Min": 301,
				"Max": 601,
				"Weight": 3500
			},
			{
				"Min": 601,
				"Max": 1051,
				"Weight": 6000
			},
			{
				"Min": 1051,
				"Max": 1501,
				"Weight": 500
			}
		],
		"Weight11": 10,
		"Property12ID": "PropertyModifyType_Hero1_CriticalDamageAdd",
		"ValueRange12": [
			{
				"Min": 1,
				"Max": 401,
				"Weight": 0
			},
			{
				"Min": 401,
				"Max": 801,
				"Weight": 3500
			},
			{
				"Min": 801,
				"Max": 1401,
				"Weight": 6000
			},
			{
				"Min": 1401,
				"Max": 2001,
				"Weight": 500
			}
		],
		"Weight12": 0,
		"Property13ID": "PropertyModifyType_Hero1_HPAdd",
		"ValueRange13": [
			{
				"Min": 1,
				"Max": 3,
				"Weight": 5000
			},
			{
				"Min": 3,
				"Max": 5,
				"Weight": 5000
			}
		],
		"Weight13": 0,
		"Property14ID": "PropertyModifyType_Hero1_HPAdd",
		"ValueRange14": [
			{
				"Min": 1,
				"Max": 3,
				"Weight": 5000
			},
			{
				"Min": 3,
				"Max": 5,
				"Weight": 5000
			}
		],
		"Weight14": 0,
		"Property15ID": "PropertyModifyType_Hero1_HPAdd",
		"ValueRange15": [
			{
				"Min": 1,
				"Max": 3,
				"Weight": 5000
			},
			{
				"Min": 3,
				"Max": 5,
				"Weight": 5000
			}
		],
		"Weight15": 0,
		"Property16ID": "PropertyModifyType_Hero1_HPAdd",
		"ValueRange16": [
			{
				"Min": 1,
				"Max": 3,
				"Weight": 5000
			},
			{
				"Min": 3,
				"Max": 5,
				"Weight": 5000
			}
		],
		"Weight16": 0
	}
}