{
	"1": {
		"ID": 1,
		"Name": "金山云老司机礼包",
		"RankRewardMailTemplateId": 32
	},
	"2": {
		"ID": 2,
		"Name": "金山云小萌新礼包",
		"RankRewardMailTemplateId": 33
	},
	"3": {
		"ID": 3,
		"Name": "官方群礼包",
		"RankRewardMailTemplateId": 34
	},
	"4": {
		"ID": 4,
		"Name": "关注微信领礼包",
		"RankRewardMailTemplateId": 35
	},
	"5": {
		"ID": 5,
		"Name": "女神问答活动礼包",
		"RankRewardMailTemplateId": 36
	},
	"6": {
		"ID": 6,
		"Name": "英灵评价活动礼包",
		"RankRewardMailTemplateId": 37
	},
	"7": {
		"ID": 7,
		"Name": "官方群礼包",
		"RankRewardMailTemplateId": 38
	},
	"8": {
		"ID": 8,
		"Name": "媒体礼包",
		"RankRewardMailTemplateId": 39
	},
	"9": {
		"ID": 9,
		"Name": "TapTap礼包",
		"RankRewardMailTemplateId": 40
	},
	"10": {
		"ID": 10,
		"Name": "17173礼包",
		"RankRewardMailTemplateId": 41
	},
	"11": {
		"ID": 11,
		"Name": "腾讯礼包",
		"RankRewardMailTemplateId": 42
	},
	"12": {
		"ID": 12,
		"Name": "多玩礼包",
		"RankRewardMailTemplateId": 43
	},
	"13": {
		"ID": 13,
		"Name": "官方群礼包",
		"RankRewardMailTemplateId": 54
	},
	"14": {
		"ID": 14,
		"Name": "微信预约礼包",
		"RankRewardMailTemplateId": 55
	},
	"15": {
		"ID": 15,
		"Name": "女神问答礼包",
		"RankRewardMailTemplateId": 56
	},
	"16": {
		"ID": 16,
		"Name": "媒体通用礼包",
		"RankRewardMailTemplateId": 57
	},
	"17": {
		"ID": 17,
		"Name": "17173专属礼包",
		"RankRewardMailTemplateId": 58
	},
	"18": {
		"ID": 18,
		"Name": "论坛活动礼包",
		"RankRewardMailTemplateId": 59
	},
	"19": {
		"ID": 19,
		"Name": "直播活动礼包",
		"RankRewardMailTemplateId": 60
	},
	"20": {
		"ID": 20,
		"Name": "渠道新手礼包",
		"RankRewardMailTemplateId": 73
	},
	"21": {
		"ID": 21,
		"Name": "普发礼包2",
		"RankRewardMailTemplateId": 74
	},
	"22": {
		"ID": 22,
		"Name": "普发礼包3",
		"RankRewardMailTemplateId": 75
	},
	"23": {
		"ID": 23,
		"Name": "普发礼包4",
		"RankRewardMailTemplateId": 76
	},
	"24": {
		"ID": 24,
		"Name": "V1礼包",
		"RankRewardMailTemplateId": 77
	},
	"25": {
		"ID": 25,
		"Name": "V2礼包",
		"RankRewardMailTemplateId": 78
	},
	"26": {
		"ID": 26,
		"Name": "V3礼包",
		"RankRewardMailTemplateId": 79
	},
	"27": {
		"ID": 27,
		"Name": "V4礼包",
		"RankRewardMailTemplateId": 80
	},
	"28": {
		"ID": 28,
		"Name": "V5礼包",
		"RankRewardMailTemplateId": 81
	},
	"29": {
		"ID": 29,
		"Name": "V6礼包",
		"RankRewardMailTemplateId": 82
	},
	"30": {
		"ID": 30,
		"Name": "V7礼包",
		"RankRewardMailTemplateId": 83
	},
	"31": {
		"ID": 31,
		"Name": "V8礼包",
		"RankRewardMailTemplateId": 84
	},
	"32": {
		"ID": 32,
		"Name": "V9礼包",
		"RankRewardMailTemplateId": 85
	},
	"33": {
		"ID": 33,
		"Name": "V10礼包",
		"RankRewardMailTemplateId": 86
	},
	"34": {
		"ID": 34,
		"Name": "V11礼包",
		"RankRewardMailTemplateId": 87
	},
	"35": {
		"ID": 35,
		"Name": "V12礼包",
		"RankRewardMailTemplateId": 88
	},
	"36": {
		"ID": 36,
		"Name": "V13礼包",
		"RankRewardMailTemplateId": 89
	},
	"37": {
		"ID": 37,
		"Name": "V14礼包",
		"RankRewardMailTemplateId": 90
	},
	"38": {
		"ID": 38,
		"Name": "V15礼包",
		"RankRewardMailTemplateId": 91
	},
	"39": {
		"ID": 39,
		"Name": "等级礼包1",
		"RankRewardMailTemplateId": 92
	},
	"40": {
		"ID": 40,
		"Name": "等级礼包2",
		"RankRewardMailTemplateId": 93
	},
	"41": {
		"ID": 41,
		"Name": "等级礼包3",
		"RankRewardMailTemplateId": 94
	},
	"42": {
		"ID": 42,
		"Name": "等级礼包4",
		"RankRewardMailTemplateId": 95
	},
	"43": {
		"ID": 43,
		"Name": "等级礼包5",
		"RankRewardMailTemplateId": 96
	},
	"44": {
		"ID": 44,
		"Name": "等级礼包6",
		"RankRewardMailTemplateId": 97
	},
	"45": {
		"ID": 45,
		"Name": "等级礼包7",
		"RankRewardMailTemplateId": 98
	},
	"46": {
		"ID": 46,
		"Name": "等级礼包8",
		"RankRewardMailTemplateId": 99
	},
	"47": {
		"ID": 47,
		"Name": "等级礼包9",
		"RankRewardMailTemplateId": 100
	},
	"48": {
		"ID": 48,
		"Name": "等级礼包10",
		"RankRewardMailTemplateId": 101
	},
	"49": {
		"ID": 49,
		"Name": "活动礼包1",
		"RankRewardMailTemplateId": 102
	},
	"50": {
		"ID": 50,
		"Name": "活动礼包2",
		"RankRewardMailTemplateId": 103
	},
	"51": {
		"ID": 51,
		"Name": "活动礼包3",
		"RankRewardMailTemplateId": 104
	},
	"52": {
		"ID": 52,
		"Name": "活动礼包4",
		"RankRewardMailTemplateId": 105
	},
	"53": {
		"ID": 53,
		"Name": "活动礼包5",
		"RankRewardMailTemplateId": 106
	},
	"54": {
		"ID": 54,
		"Name": "活动礼包6",
		"RankRewardMailTemplateId": 107
	},
	"55": {
		"ID": 55,
		"Name": "活动礼包7",
		"RankRewardMailTemplateId": 108
	},
	"56": {
		"ID": 56,
		"Name": "活动礼包8",
		"RankRewardMailTemplateId": 109
	},
	"57": {
		"ID": 57,
		"Name": "活动礼包9",
		"RankRewardMailTemplateId": 110
	},
	"58": {
		"ID": 58,
		"Name": "活动礼包10",
		"RankRewardMailTemplateId": 111
	},
	"59": {
		"ID": 59,
		"Name": "预约奖励礼包",
		"RankRewardMailTemplateId": 112
	},
	"60": {
		"ID": 60,
		"Name": "TAP小兵礼包",
		"RankRewardMailTemplateId": 113
	},
	"61": {
		"ID": 61,
		"Name": "Bili小兵礼包",
		"RankRewardMailTemplateId": 114
	},
	"62": {
		"ID": 62,
		"Name": "微信预约礼包",
		"RankRewardMailTemplateId": 115
	},
	"63": {
		"ID": 63,
		"Name": "官方维护礼包",
		"RankRewardMailTemplateId": 116
	}
}