{
	"1": {
		"ID": 1,
		"Name": "Default",
		"Desc": "Default",
		"SortID": 1,
		"ResourcePath": "UI/Icon/HeadFrame_ABS/Prefab/Frame_Nothing.prefab",
		"Source": "Default",
		"Icon": "UI/Icon/Item02_ABS/Icon_Frame_Arena01.png",
		"Rank": 1
	},
	"2": {
		"ID": 2,
		"Name": "Knightly Avatar Frame",
		"Desc": "Granted to the rising star of El Sallia, a knight in the new legend.",
		"SortID": 2,
		"ResourcePath": "UI/Icon/HeadFrame_ABS/Prefab/Frame_Knight.prefab",
		"Source": "Buy a Rose Gift Pack to obtain.",
		"Icon": "UI/Icon/Item02_ABS/Icon_Frame_Knight.png",
		"Rank": 2
	},
	"3": {
		"ID": 3,
		"Name": "Goddess Statue Avatar Frame",
		"Desc": "A blessing received from the Temple of Light.",
		"SortID": 3,
		"ResourcePath": "UI/Icon/HeadFrame_ABS/Prefab/Frame_LII.prefab",
		"Source": "Obtained from Path of Light.",
		"Icon": "UI/Icon/Item02_ABS/Icon_Frame_LII.png",
		"Rank": 3
	},
	"4": {
		"ID": 4,
		"Name": "Chosen King Avatar Frame",
		"Desc": "Granted to those favored by the Goddess of Light.",
		"SortID": 4,
		"ResourcePath": "UI/Icon/HeadFrame_ABS/Prefab/Frame_Langrisser.prefab",
		"Source": "Obtained from Echo of Light.",
		"Icon": "UI/Icon/Item02_ABS/Icon_Frame_Langrisser.png",
		"Rank": 4
	},
	"5": {
		"ID": 5,
		"Name": "Silver Champion Avatar Frame",
		"Desc": "Granted to rising stars with great potential in the arena.",
		"SortID": 5,
		"ResourcePath": "UI/Icon/HeadFrame_ABS/Prefab/Frame_Arena01.prefab",
		"Source": "Obtained upon reaching tier Silver in the world arena.",
		"Icon": "UI/Icon/Item02_ABS/Icon_Frame_Arena01.png",
		"Rank": 1
	},
	"6": {
		"ID": 6,
		"Name": "Gold Champion Avatar Frame",
		"Desc": "The mark of an unstoppable force in the arena.",
		"SortID": 6,
		"ResourcePath": "UI/Icon/HeadFrame_ABS/Prefab/Frame_Arena02.prefab",
		"Source": "Obtained upon reaching Gold tier in the world arena.",
		"Icon": "UI/Icon/Item02_ABS/Icon_Frame_Arena02.png",
		"Rank": 2
	},
	"7": {
		"ID": 7,
		"Name": "Langrisser Champion Avatar Frame",
		"Desc": "Granted to the overlord of the arena, endowed with endless glory and extraordinary strength.",
		"SortID": 7,
		"ResourcePath": "UI/Icon/HeadFrame_ABS/Prefab/Frame_Arena03.prefab",
		"Source": "Obtained upon reaching Langrisser tier in the world arena.",
		"Icon": "UI/Icon/Item02_ABS/Icon_Frame_Arena03.png",
		"Rank": 3
	},
	"8": {
		"ID": 8,
		"Name": "[L] Avatar Frame",
		"Desc": "Langrisser's mark -- the sign of the chosen one.",
		"SortID": 8,
		"ResourcePath": "UI/Icon/HeadFrame_ABS/Prefab/Frame_L.prefab",
		"Source": "Obtained by joining the beta test.",
		"Icon": "UI/Icon/Item02_ABS/Icon_Frame_L.png",
		"Rank": 4
	},
	"9": {
		"ID": 9,
		"Name": "Floating City Avatar Frame",
		"Desc": "Granted to those who rebuilt the Floating City. A gift from Angelica.",
		"SortID": 9,
		"ResourcePath": "UI/Icon/HeadFrame_ABS/Prefab/Frame_FloatingCity.prefab",
		"Source": "Obtained upon completing the Main Story: Chapter 13 feat.",
		"Icon": "UI/Icon/Item02_ABS/Icon_Frame_FloatingCity.png",
		"Rank": 1
	},
	"10": {
		"ID": 10,
		"Name": "Summoning Sage Avatar Frame",
		"Desc": "The mark of a summoner familiar with the Time Bell, and acquainted with many powerful heroes.",
		"SortID": 10,
		"ResourcePath": "UI/Icon/HeadFrame_ABS/Prefab/Frame_Watch01.prefab",
		"Source": "Obtained upon collecting 12 R heroes.",
		"Icon": "UI/Icon/Item02_ABS/Icon_Frame_Watch01.png",
		"Rank": 2
	},
	"11": {
		"ID": 11,
		"Name": "Summoning Master Avatar Frame",
		"Desc": "The mark of a summoner who is skilled at using the Time Bell and has recruited many rare heroes.",
		"SortID": 11,
		"ResourcePath": "UI/Icon/HeadFrame_ABS/Prefab/Frame_Watch02.prefab",
		"Source": "Obtained upon collecting 12 SR heroes.",
		"Icon": "UI/Icon/Item02_ABS/Icon_Frame_Watch02.png",
		"Rank": 3
	},
	"12": {
		"ID": 12,
		"Name": "Summoning God Avatar Frame",
		"Desc": "Granted only to those who have mastered the Time Bell and met many legendary heroes.",
		"SortID": 12,
		"ResourcePath": "UI/Icon/HeadFrame_ABS/Prefab/Frame_Watch03.prefab",
		"Source": "Obtained upon collecting 8 SSR heroes.",
		"Icon": "UI/Icon/Item02_ABS/Icon_Frame_Watch03.png",
		"Rank": 4
	},
	"13": {
		"ID": 13,
		"Name": "Bamboo Dragon Avatar Frame",
		"Desc": "The legend of distant clouds leaving the country is both mysterious and elegant.",
		"SortID": 13,
		"ResourcePath": "UI/Icon/HeadFrame_ABS/Prefab/Frame_Bamboo.prefab",
		"Source": "Obtained from Echo of Light.",
		"Icon": "UI/Icon/HeadFrame_ABS/Frame_Bamboo_Img.png",
		"Rank": 4
	},
	"14": {
		"ID": 14,
		"Name": "Alhazard Bloodthirster Portrait",
		"Desc": "The Alhazard will rule all and devour all.",
		"SortID": 14,
		"ResourcePath": "UI/Icon/HeadFrame_ABS/Prefab/Frame_Bloodsword.prefab",
		"Source": "Obtained from Echo of Light.",
		"Icon": "UI/Icon/HeadFrame_ABS/Frame_Bloodsword_Img.png",
		"Rank": 4
	},
	"15": {
		"ID": 15,
		"Name": "血魔之猎头像框",
		"Desc": "夜猎将至，吸血鬼女王为夜色之美而泣。",
		"SortID": 15,
		"ResourcePath": "UI/Icon/HeadFrame_ABS/Prefab/Frame_VampireKiller.prefab",
		"Source": "参与光之回响活动获得",
		"Icon": "UI/Icon/Item02_ABS/Icon_Frame_VampireKiller.png",
		"Rank": 4
	},
	"16": {
		"ID": 16,
		"Name": "万圣奇袭头像框",
		"Desc": "给圣魔晶还是捣蛋？",
		"SortID": 16,
		"ResourcePath": "UI/Icon/HeadFrame_ABS/Prefab/Frame_Halloween.prefab",
		"Source": "参与官方特别活动获取",
		"Icon": "UI/Icon/Item02_ABS/Icon_Frame_Halloween.png",
		"Rank": 4
	},
	"17": {
		"ID": 17,
		"Name": "攻略小队头像框",
		"Desc": "你们都是猴子请来的救兵吗？",
		"SortID": 17,
		"ResourcePath": "UI/Icon/HeadFrame_ABS/Prefab/Frame_StrategyGroup.prefab",
		"Source": "参与官方特别活动获取",
		"Icon": "UI/Icon/Item02_ABS/Icon_Frame_StrategyGroup.png",
		"Rank": 4
	},
	"18": {
		"ID": 18,
		"Name": "神魔轮舞头像框",
		"Desc": "当光之子拥抱黑暗，混沌就此诞生。",
		"SortID": 18,
		"ResourcePath": "UI/Icon/HeadFrame_ABS/Prefab/Frame_Langrisser2.prefab",
		"Source": "参与光之回响活动获得",
		"Icon": "UI/Icon/Item02_ABS/Icon_Frame_Langrisser2.png",
		"Rank": 4
	},
	"19": {
		"ID": 19,
		"Name": "圣夜赠物头像框",
		"Desc": "今夜，你是否也许下心愿？",
		"SortID": 19,
		"ResourcePath": "UI/Icon/HeadFrame_ABS/Prefab/Frame_Christmas.prefab",
		"Source": "参与礼物纷飞的季节活动获得",
		"Icon": "UI/Icon/Item02_ABS/Icon_Frame_Christmas.png",
		"Rank": 4
	},
	"20": {
		"ID": 20,
		"Name": "斗龙勇者头像框",
		"Desc": "通过初级众神试炼的战士，拥有与龙抗衡的力量。",
		"SortID": 20,
		"ResourcePath": "UI/Icon/HeadFrame_ABS/Prefab/Frame_Dragon01.prefab",
		"Source": "完成斗龙勇者成就获得",
		"Icon": "UI/Icon/HeadFrame_ABS/Frame_Dragon01_Img.png",
		"Rank": 2
	},
	"21": {
		"ID": 21,
		"Name": "屠龙英雄头像框",
		"Desc": "通过中级众神试炼的战士，能熟练地应对巨龙之力。",
		"SortID": 21,
		"ResourcePath": "UI/Icon/HeadFrame_ABS/Prefab/Frame_Dragon02.prefab",
		"Source": "完成屠龙英雄成就获得",
		"Icon": "UI/Icon/HeadFrame_ABS/Frame_Dragon02_Img.png",
		"Rank": 3
	},
	"22": {
		"ID": 22,
		"Name": "龙之克星头像框",
		"Desc": "通过高级众神试炼的战士，了解龙的各种弱点并攻克之。",
		"SortID": 22,
		"ResourcePath": "UI/Icon/HeadFrame_ABS/Prefab/Frame_Dragon03.prefab",
		"Source": "完成龙之克星成就获得",
		"Icon": "UI/Icon/HeadFrame_ABS/Frame_Dragon03_Img.png",
		"Rank": 4
	},
	"23": {
		"ID": 23,
		"Name": "避龙专家头像框",
		"Desc": "通过噩梦级众神试炼的战士，龙都会感到恐惧的存在。",
		"SortID": 23,
		"ResourcePath": "UI/Icon/HeadFrame_ABS/Prefab/Frame_Dragon04.prefab",
		"Source": "完成避龙专家成就获得",
		"Icon": "UI/Icon/HeadFrame_ABS/Frame_Dragon04_Img.png",
		"Rank": 4
	},
	"24": {
		"ID": 24,
		"Name": "心灵神殿头像框",
		"Desc": "通过永恒神殿试炼的战士，征服自我内心的光辉英雄。",
		"SortID": 24,
		"ResourcePath": "UI/Icon/HeadFrame_ABS/Prefab/Frame_Goddess.prefab",
		"Source": "完成神殿统御者成就获得",
		"Icon": "UI/Icon/HeadFrame_ABS/Frame_Goddess_Img.png",
		"Rank": 4
	},
	"25": {
		"ID": 25,
		"Name": "异型杀手头像框",
		"Desc": "据说在某处，有一位专门歼灭哥布林的红眼青年……",
		"SortID": 25,
		"ResourcePath": "UI/Icon/HeadFrame_ABS/Prefab/Frame_Goblin.prefab",
		"Source": "完成翠玉冒险者成就获得",
		"Icon": "UI/Icon/HeadFrame_ABS/Frame_Goblin_Img.png",
		"Rank": 3
	},
	"26": {
		"ID": 26,
		"Name": "导力器头像框",
		"Desc": "导力器折射的是人的能力与心灵，其中的图景因人而异。",
		"SortID": 26,
		"ResourcePath": "UI/Icon/HeadFrame_ABS/Prefab/Frame_KongGui.prefab",
		"Source": "参与光之回响活动获得",
		"Icon": "UI/Icon/HeadFrame_ABS/Frame_KongGui_Img.png",
		"Rank": 4
	},
	"27": {
		"ID": 27,
		"Name": "白花之恋头像框",
		"Desc": "跨越时空，恋曲依旧流转。",
		"SortID": 27,
		"ResourcePath": "UI/Icon/HeadFrame_ABS/Prefab/Frame_FlowerLove.prefab",
		"Source": "参与时空的轨迹FC活动获得",
		"Icon": "UI/Icon/HeadFrame_ABS/Frame_FlowerLove_Img.png",
		"Rank": 4
	},
	"28": {
		"ID": 28,
		"Name": "梦幻之声头像框",
		"Desc": "受邀参与线下活动的贵宾，与您共飨音乐盛宴。",
		"SortID": 28,
		"ResourcePath": "UI/Icon/HeadFrame_ABS/Prefab/Frame_Concert.prefab",
		"Source": "参与官方特别活动获取",
		"Icon": "UI/Icon/HeadFrame_ABS/Frame_Concert_Img.png",
		"Rank": 4
	},
	"29": {
		"ID": 29,
		"Name": "主播君头像框",
		"Desc": "与大家分享游戏乐趣的主播，将SSR的喜悦传达给世界吧！",
		"SortID": 29,
		"ResourcePath": "UI/Icon/HeadFrame_ABS/Prefab/Frame_Anchor.prefab",
		"Source": "参与官方特别活动获取",
		"Icon": "UI/Icon/HeadFrame_ABS/Frame_Anchor_Img.png",
		"Rank": 4
	},
	"30": {
		"ID": 30,
		"Name": "噬身之蛇头像框",
		"Desc": "不详的蛇眼，凝视着外之理的彼岸。",
		"SortID": 30,
		"ResourcePath": "UI/Icon/HeadFrame_ABS/Prefab/Frame_Snake.prefab",
		"Source": "参与光之回响活动获得",
		"Icon": "UI/Icon/HeadFrame_ABS/Frame_Snake_Img.png",
		"Rank": 4
	},
	"31": {
		"ID": 31,
		"Name": "时空之门头像框",
		"Desc": "蒸汽与技术的伟力，征服大地与天空。",
		"SortID": 31,
		"ResourcePath": "UI/Icon/HeadFrame_ABS/Prefab/Frame_KongGuiFloatingCity.prefab",
		"Source": "参与时空的轨迹SC活动获得",
		"Icon": "UI/Icon/HeadFrame_ABS/Frame_KongGuiFloatingCity_Img.png",
		"Rank": 4
	},
	"32": {
		"ID": 32,
		"Name": "新春纳福头像框",
		"Desc": "辞旧迎新，万物复苏，圣剑之光继续流转不停……",
		"SortID": 32,
		"ResourcePath": "UI/Icon/HeadFrame_ABS/Prefab/Frame_SpringFestival.prefab",
		"Source": "参与官方特别活动获取",
		"Icon": "UI/Icon/Item02_ABS/Icon_Frame_SpringFestival.png",
		"Rank": 4
	}
}