{
	"1": {
		"ID": 1,
		"Desc": "Pay Items",
		"AchievementID": 0,
		"ItemCost": [
			{
				"GoodsType": "GoodsType_Item",
				"Id": 4008,
				"Count": 9999
			}
		]
	},
	"2": {
		"ID": 2,
		"Desc": "Pay Items",
		"AchievementID": 0,
		"ItemCost": [
			{
				"GoodsType": "GoodsType_Item",
				"Id": 4008,
				"Count": 9999
			}
		]
	},
	"3": {
		"ID": 3,
		"Desc": "Pay Items",
		"AchievementID": 0,
		"ItemCost": [
			{
				"GoodsType": "GoodsType_Item",
				"Id": 4008,
				"Count": 9999
			}
		]
	},
	"4": {
		"ID": 4,
		"Desc": "Pay Items",
		"AchievementID": 0,
		"ItemCost": [
			{
				"GoodsType": "GoodsType_Item",
				"Id": 4008,
				"Count": 9999
			}
		]
	},
	"5": {
		"ID": 5,
		"Desc": "Pay Items",
		"AchievementID": 0,
		"ItemCost": [
			{
				"GoodsType": "GoodsType_Item",
				"Id": 4008,
				"Count": 9999
			}
		]
	},
	"6": {
		"ID": 6,
		"Desc": "Defeat Laird",
		"AchievementID": 4
	},
	"7": {
		"ID": 7,
		"Desc": "Defeat Leon",
		"AchievementID": 5
	},
	"8": {
		"ID": 8,
		"Desc": "Complete stage within 5 turns",
		"AchievementID": 6
	},
	"9": {
		"ID": 9,
		"Desc": "Win with 3 or less heroes deployed",
		"AchievementID": 7
	},
	"10": {
		"ID": 10,
		"Desc": "Defeat Egbert",
		"AchievementID": 8
	},
	"11": {
		"ID": 11,
		"Desc": "Complete the level without defeating Zorum",
		"AchievementID": 9
	},
	"12": {
		"ID": 12,
		"Desc": "Complete stage within 4 turns",
		"AchievementID": 10
	},
	"13": {
		"ID": 13,
		"Desc": "Complete stage within 6 turns",
		"AchievementID": 11
	},
	"14": {
		"ID": 14,
		"Desc": "Condition 14",
		"AchievementID": 4
	},
	"15": {
		"ID": 15,
		"Desc": "Condition 15",
		"AchievementID": 4
	}
}