{
	"1": {
		"ID": 1,
		"Name": "PVP1",
		"Desc": "PVP1",
		"WinDesc": "敌方部队全灭",
		"LoseDesc": "我方部队全灭",
		"BattlefieldID": 401,
		"MapImage": "UI/BattleThumbnail_ABS/PeakArena001.png",
		"CameraX": 4,
		"CameraY": 3,
		"DefendCameraX": 13,
		"DefendCameraY": 3,
		"PrepareMusic": "BattleMusic_Prepare",
		"BattleMusic": "BattleMusic_Knights_Errant",
		"DefendBattleMusic": "BattleMusic_09_Reinforce_of_Enemy_Remake",
		"TurnMax": 12,
		"WinConditionsID": [
			999
		],
		"LoseConditionsID": [
			999
		],
		"EventTriggersID": [
			120610,
			120611,
			120612,
			120613,
			120614,
			120615,
			120616,
			120617
		],
		"AttackNumber": 5,
		"AttackPositions": [
			{
				"X": 1,
				"Y": 2
			},
			{
				"X": 2,
				"Y": 2
			},
			{
				"X": 3,
				"Y": 2
			},
			{
				"X": 3,
				"Y": 3
			},
			{
				"X": 3,
				"Y": 4
			},
			{
				"X": 2,
				"Y": 4
			},
			{
				"X": 2,
				"Y": 3
			},
			{
				"X": 1,
				"Y": 3
			},
			{
				"X": 1,
				"Y": 4
			}
		],
		"DefendNumber": 5,
		"DefendPositions": [
			{
				"X": 14,
				"Y": 2
			},
			{
				"X": 15,
				"Y": 2
			},
			{
				"X": 16,
				"Y": 2
			},
			{
				"X": 16,
				"Y": 3
			},
			{
				"X": 16,
				"Y": 4
			},
			{
				"X": 15,
				"Y": 4
			},
			{
				"X": 15,
				"Y": 3
			},
			{
				"X": 14,
				"Y": 3
			},
			{
				"X": 14,
				"Y": 4
			}
		]
	},
	"2": {
		"ID": 2,
		"Name": "PVP2",
		"Desc": "PVP2",
		"WinDesc": "敌方部队全灭",
		"LoseDesc": "我方部队全灭",
		"BattlefieldID": 402,
		"MapImage": "UI/BattleThumbnail_ABS/PeakArena002.png",
		"CameraX": 4,
		"CameraY": 3,
		"DefendCameraX": 13,
		"DefendCameraY": 3,
		"PrepareMusic": "BattleMusic_Prepare",
		"BattleMusic": "BattleMusic_07_No_Surrender_Remake_loop",
		"DefendBattleMusic": "BattleMusic_10_Fight_It_Out_Remake",
		"TurnMax": 12,
		"WinConditionsID": [
			999
		],
		"LoseConditionsID": [
			999
		],
		"EventTriggersID": [
			120610,
			120611,
			120612,
			120613,
			120614,
			120615,
			120616,
			120617
		],
		"AttackNumber": 5,
		"AttackPositions": [
			{
				"X": 1,
				"Y": 2
			},
			{
				"X": 2,
				"Y": 2
			},
			{
				"X": 3,
				"Y": 2
			},
			{
				"X": 3,
				"Y": 3
			},
			{
				"X": 3,
				"Y": 4
			},
			{
				"X": 2,
				"Y": 4
			},
			{
				"X": 2,
				"Y": 3
			},
			{
				"X": 1,
				"Y": 3
			},
			{
				"X": 1,
				"Y": 4
			}
		],
		"DefendNumber": 5,
		"DefendPositions": [
			{
				"X": 14,
				"Y": 2
			},
			{
				"X": 15,
				"Y": 2
			},
			{
				"X": 16,
				"Y": 2
			},
			{
				"X": 16,
				"Y": 3
			},
			{
				"X": 16,
				"Y": 4
			},
			{
				"X": 15,
				"Y": 4
			},
			{
				"X": 15,
				"Y": 3
			},
			{
				"X": 14,
				"Y": 3
			},
			{
				"X": 14,
				"Y": 4
			}
		]
	},
	"3": {
		"ID": 3,
		"Name": "PVP3",
		"Desc": "PVP3",
		"WinDesc": "敌方部队全灭",
		"LoseDesc": "我方部队全灭",
		"BattlefieldID": 403,
		"MapImage": "UI/BattleThumbnail_ABS/PeakArena003.png",
		"CameraX": 4,
		"CameraY": 3,
		"DefendCameraX": 13,
		"DefendCameraY": 3,
		"PrepareMusic": "BattleMusic_Prepare",
		"BattleMusic": "BattleMusic_NormalBattle",
		"DefendBattleMusic": "BattleMusic_Ⅰ_05_Remake",
		"TurnMax": 12,
		"WinConditionsID": [
			999
		],
		"LoseConditionsID": [
			999
		],
		"EventTriggersID": [
			120610,
			120611,
			120612,
			120613,
			120614,
			120615,
			120616,
			120617
		],
		"AttackNumber": 5,
		"AttackPositions": [
			{
				"X": 1,
				"Y": 2
			},
			{
				"X": 2,
				"Y": 2
			},
			{
				"X": 3,
				"Y": 2
			},
			{
				"X": 3,
				"Y": 3
			},
			{
				"X": 3,
				"Y": 4
			},
			{
				"X": 2,
				"Y": 4
			},
			{
				"X": 2,
				"Y": 3
			},
			{
				"X": 1,
				"Y": 3
			},
			{
				"X": 1,
				"Y": 4
			}
		],
		"DefendNumber": 5,
		"DefendPositions": [
			{
				"X": 14,
				"Y": 2
			},
			{
				"X": 15,
				"Y": 2
			},
			{
				"X": 16,
				"Y": 2
			},
			{
				"X": 16,
				"Y": 3
			},
			{
				"X": 16,
				"Y": 4
			},
			{
				"X": 15,
				"Y": 4
			},
			{
				"X": 15,
				"Y": 3
			},
			{
				"X": 14,
				"Y": 3
			},
			{
				"X": 14,
				"Y": 4
			}
		]
	}
}