{
	"0": {
		"ID": 0,
		"PropertyModifyType": "PropertyModifyType_None",
		"Name": "None",
		"IsAddType": false,
		"IsDynamic": false,
		"PropertyType": "PropertyType_None"
	},
	"1": {
		"ID": 1,
		"PropertyModifyType": "PropertyModifyType_Hero1_HPAdd",
		"Name": "HP",
		"IsAddType": true,
		"IsDynamic": false,
		"PropertyType": "PropertyType_None"
	},
	"2": {
		"ID": 2,
		"PropertyModifyType": "PropertyModifyType_Hero1_ATAdd",
		"Name": "ATK",
		"IsAddType": true,
		"IsDynamic": false,
		"PropertyType": "PropertyType_None"
	},
	"3": {
		"ID": 3,
		"PropertyModifyType": "PropertyModifyType_Hero1_DFAdd",
		"Name": "DEF",
		"IsAddType": true,
		"IsDynamic": false,
		"PropertyType": "PropertyType_None"
	},
	"4": {
		"ID": 4,
		"PropertyModifyType": "PropertyModifyType_Hero1_MagicAdd",
		"Name": "INT",
		"IsAddType": true,
		"IsDynamic": false,
		"PropertyType": "PropertyType_None"
	},
	"5": {
		"ID": 5,
		"PropertyModifyType": "PropertyModifyType_Hero1_MagicDFAdd",
		"Name": "MDEF",
		"IsAddType": true,
		"IsDynamic": false,
		"PropertyType": "PropertyType_None"
	},
	"6": {
		"ID": 6,
		"PropertyModifyType": "PropertyModifyType_Hero1_DEXAdd",
		"Name": "SKILL",
		"IsAddType": true,
		"IsDynamic": false,
		"PropertyType": "PropertyType_None"
	},
	"7": {
		"ID": 7,
		"PropertyModifyType": "PropertyModifyType_Hero1_HPCmdAdd",
		"Name": "Life Command",
		"IsAddType": true,
		"IsDynamic": false,
		"PropertyType": "PropertyType_None"
	},
	"8": {
		"ID": 8,
		"PropertyModifyType": "PropertyModifyType_Hero1_ATCmdAdd",
		"Name": "ATK Command",
		"IsAddType": true,
		"IsDynamic": false,
		"PropertyType": "PropertyType_None"
	},
	"9": {
		"ID": 9,
		"PropertyModifyType": "PropertyModifyType_Hero1_DFCmdAdd",
		"Name": "DEF Command",
		"IsAddType": true,
		"IsDynamic": false,
		"PropertyType": "PropertyType_None"
	},
	"10": {
		"ID": 10,
		"PropertyModifyType": "PropertyModifyType_Hero1_MagicDFCmdAdd",
		"Name": "MDEF Command",
		"IsAddType": true,
		"IsDynamic": false,
		"PropertyType": "PropertyType_None"
	},
	"11": {
		"ID": 11,
		"PropertyModifyType": "PropertyModifyType_Hero1_BFMovePointAdd",
		"Name": "Mobility",
		"IsAddType": true,
		"IsDynamic": false,
		"PropertyType": "PropertyType_None"
	},
	"12": {
		"ID": 12,
		"PropertyModifyType": "PropertyModifyType_Hero1_BFAttackDistanceAdd",
		"Name": "Normal Attack Range",
		"IsAddType": true,
		"IsDynamic": false,
		"PropertyType": "PropertyType_None"
	},
	"13": {
		"ID": 13,
		"PropertyModifyType": "PropertyModifyType_Hero1_CriticalDamageAdd",
		"Name": "Crit Damage",
		"IsAddType": false,
		"IsDynamic": false,
		"PropertyType": "PropertyType_None"
	},
	"14": {
		"ID": 14,
		"PropertyModifyType": "PropertyModifyType_Hero1_CriticalRateAdd",
		"Name": "Crit",
		"IsAddType": false,
		"IsDynamic": false,
		"PropertyType": "PropertyType_None"
	},
	"15": {
		"ID": 15,
		"PropertyModifyType": "PropertyModifyType_Hero1_HPMul",
		"Name": "HP",
		"IsAddType": false,
		"IsDynamic": false,
		"PropertyType": "PropertyType_None"
	},
	"16": {
		"ID": 16,
		"PropertyModifyType": "PropertyModifyType_Hero1_ATMul",
		"Name": "ATK",
		"IsAddType": false,
		"IsDynamic": false,
		"PropertyType": "PropertyType_None"
	},
	"17": {
		"ID": 17,
		"PropertyModifyType": "PropertyModifyType_Hero1_DFMul",
		"Name": "DEF",
		"IsAddType": false,
		"IsDynamic": false,
		"PropertyType": "PropertyType_None"
	},
	"18": {
		"ID": 18,
		"PropertyModifyType": "PropertyModifyType_Hero1_MagicMul",
		"Name": "INT",
		"IsAddType": false,
		"IsDynamic": false,
		"PropertyType": "PropertyType_None"
	},
	"19": {
		"ID": 19,
		"PropertyModifyType": "PropertyModifyType_Hero1_MagicDFMul",
		"Name": "MDEF",
		"IsAddType": false,
		"IsDynamic": false,
		"PropertyType": "PropertyType_None"
	},
	"20": {
		"ID": 20,
		"PropertyModifyType": "PropertyModifyType_Hero1_DEXMul",
		"Name": "SKILL",
		"IsAddType": false,
		"IsDynamic": false,
		"PropertyType": "PropertyType_None"
	},
	"21": {
		"ID": 21,
		"PropertyModifyType": "PropertyModifyType_Hero2_HPAdd",
		"Name": "HP",
		"IsAddType": true,
		"IsDynamic": true,
		"PropertyType": "PropertyType_None"
	},
	"22": {
		"ID": 22,
		"PropertyModifyType": "PropertyModifyType_Hero2_ATAdd",
		"Name": "ATK",
		"IsAddType": true,
		"IsDynamic": true,
		"PropertyType": "PropertyType_None"
	},
	"23": {
		"ID": 23,
		"PropertyModifyType": "PropertyModifyType_Hero2_DFAdd",
		"Name": "DEF",
		"IsAddType": true,
		"IsDynamic": true,
		"PropertyType": "PropertyType_None"
	},
	"24": {
		"ID": 24,
		"PropertyModifyType": "PropertyModifyType_Hero2_MagicAdd",
		"Name": "INT",
		"IsAddType": true,
		"IsDynamic": true,
		"PropertyType": "PropertyType_None"
	},
	"25": {
		"ID": 25,
		"PropertyModifyType": "PropertyModifyType_Hero2_MagicDFAdd",
		"Name": "MDEF",
		"IsAddType": true,
		"IsDynamic": true,
		"PropertyType": "PropertyType_None"
	},
	"26": {
		"ID": 26,
		"PropertyModifyType": "PropertyModifyType_Hero2_DEXAdd",
		"Name": "SKILL",
		"IsAddType": true,
		"IsDynamic": true,
		"PropertyType": "PropertyType_None"
	},
	"27": {
		"ID": 27,
		"PropertyModifyType": "PropertyModifyType_Hero2_HPCmdAdd",
		"Name": "Life Command",
		"IsAddType": true,
		"IsDynamic": true,
		"PropertyType": "PropertyType_None"
	},
	"28": {
		"ID": 28,
		"PropertyModifyType": "PropertyModifyType_Hero2_ATCmdAdd",
		"Name": "ATK Command",
		"IsAddType": true,
		"IsDynamic": true,
		"PropertyType": "PropertyType_None"
	},
	"29": {
		"ID": 29,
		"PropertyModifyType": "PropertyModifyType_Hero2_DFCmdAdd",
		"Name": "DEF Command",
		"IsAddType": true,
		"IsDynamic": true,
		"PropertyType": "PropertyType_None"
	},
	"30": {
		"ID": 30,
		"PropertyModifyType": "PropertyModifyType_Hero2_MagicDFCmdAdd",
		"Name": "MDEF Command",
		"IsAddType": true,
		"IsDynamic": true,
		"PropertyType": "PropertyType_None"
	},
	"31": {
		"ID": 31,
		"PropertyModifyType": "PropertyModifyType_Hero2_BFMovePointAdd",
		"Name": "Mobility",
		"IsAddType": true,
		"IsDynamic": true,
		"PropertyType": "PropertyType_None"
	},
	"32": {
		"ID": 32,
		"PropertyModifyType": "PropertyModifyType_Hero2_BFAttackDistanceAdd",
		"Name": "Normal Attack Range",
		"IsAddType": true,
		"IsDynamic": true,
		"PropertyType": "PropertyType_None"
	},
	"33": {
		"ID": 33,
		"PropertyModifyType": "PropertyModifyType_Hero2_MagicDistanceAdd",
		"Name": "Magic Skill Range",
		"IsAddType": true,
		"IsDynamic": true,
		"PropertyType": "PropertyType_None"
	},
	"34": {
		"ID": 34,
		"PropertyModifyType": "PropertyModifyType_Hero2_PsyDistanceAdd",
		"Name": "Physical Skill Range",
		"IsAddType": true,
		"IsDynamic": true,
		"PropertyType": "PropertyType_None"
	},
	"35": {
		"ID": 35,
		"PropertyModifyType": "PropertyModifyType_Hero2_CriticalDamageAdd",
		"Name": "Crit Damage",
		"IsAddType": false,
		"IsDynamic": true,
		"PropertyType": "PropertyType_None"
	},
	"36": {
		"ID": 36,
		"PropertyModifyType": "PropertyModifyType_Hero2_CriticalRateAdd",
		"Name": "Crit",
		"IsAddType": false,
		"IsDynamic": true,
		"PropertyType": "PropertyType_None"
	},
	"37": {
		"ID": 37,
		"PropertyModifyType": "PropertyModifyType_Hero2_RageEndTurnAdd",
		"Name": "Rage Bonus - Complete action",
		"IsAddType": true,
		"IsDynamic": true,
		"PropertyType": "PropertyType_None"
	},
	"38": {
		"ID": 38,
		"PropertyModifyType": "PropertyModifyType_Hero2_RageBeAttackAdd",
		"Name": "Rage Bonus - Attacked",
		"IsAddType": true,
		"IsDynamic": true,
		"PropertyType": "PropertyType_None"
	},
	"39": {
		"ID": 39,
		"PropertyModifyType": "PropertyModifyType_Hero2_RageKillAdd",
		"Name": "Rage Bonus - Elimination",
		"IsAddType": true,
		"IsDynamic": true,
		"PropertyType": "PropertyType_None"
	},
	"40": {
		"ID": 40,
		"PropertyModifyType": "PropertyModifyType_Hero2_HPMul",
		"Name": "HP",
		"IsAddType": false,
		"IsDynamic": true,
		"PropertyType": "PropertyType_None"
	},
	"41": {
		"ID": 41,
		"PropertyModifyType": "PropertyModifyType_Hero2_ATMul",
		"Name": "ATK",
		"IsAddType": false,
		"IsDynamic": true,
		"PropertyType": "PropertyType_None"
	},
	"42": {
		"ID": 42,
		"PropertyModifyType": "PropertyModifyType_Hero2_DFMul",
		"Name": "DEF",
		"IsAddType": false,
		"IsDynamic": true,
		"PropertyType": "PropertyType_None"
	},
	"43": {
		"ID": 43,
		"PropertyModifyType": "PropertyModifyType_Hero2_MagicMul",
		"Name": "INT",
		"IsAddType": false,
		"IsDynamic": true,
		"PropertyType": "PropertyType_None"
	},
	"44": {
		"ID": 44,
		"PropertyModifyType": "PropertyModifyType_Hero2_MagicDFMul",
		"Name": "MDEF",
		"IsAddType": false,
		"IsDynamic": true,
		"PropertyType": "PropertyType_None"
	},
	"45": {
		"ID": 45,
		"PropertyModifyType": "PropertyModifyType_Hero2_DEXMul",
		"Name": "SKILL",
		"IsAddType": false,
		"IsDynamic": true,
		"PropertyType": "PropertyType_None"
	},
	"46": {
		"ID": 46,
		"PropertyModifyType": "PropertyModifyType_Hero2_PsyDmgMul",
		"Name": "PDamage",
		"IsAddType": false,
		"IsDynamic": true,
		"PropertyType": "PropertyType_None"
	},
	"47": {
		"ID": 47,
		"PropertyModifyType": "PropertyModifyType_Hero2_PsyDmgRecvMul",
		"Name": "Received Physical Damage",
		"IsAddType": false,
		"IsDynamic": true,
		"PropertyType": "PropertyType_None"
	},
	"48": {
		"ID": 48,
		"PropertyModifyType": "PropertyModifyType_Hero2_SuperPsyDmgRecvMul",
		"Name": "Ultimate Received Physical Damage",
		"IsAddType": false,
		"IsDynamic": true,
		"PropertyType": "PropertyType_None"
	},
	"49": {
		"ID": 49,
		"PropertyModifyType": "PropertyModifyType_Hero2_HealMul",
		"Name": "Heal",
		"IsAddType": false,
		"IsDynamic": true,
		"PropertyType": "PropertyType_None"
	},
	"50": {
		"ID": 50,
		"PropertyModifyType": "PropertyModifyType_Hero2_HealRecvMul",
		"Name": "Received Heal Effect",
		"IsAddType": false,
		"IsDynamic": true,
		"PropertyType": "PropertyType_None"
	},
	"51": {
		"ID": 51,
		"PropertyModifyType": "PropertyModifyType_Hero2_MagicDmgMul",
		"Name": "MDamage",
		"IsAddType": false,
		"IsDynamic": true,
		"PropertyType": "PropertyType_None"
	},
	"52": {
		"ID": 52,
		"PropertyModifyType": "PropertyModifyType_Hero2_MagicDmgRecvMul",
		"Name": "MDamage Taken",
		"IsAddType": false,
		"IsDynamic": true,
		"PropertyType": "PropertyType_None"
	},
	"53": {
		"ID": 53,
		"PropertyModifyType": "PropertyModifyType_Hero2_SuperMagicDmgRecvMul",
		"Name": "Ultimate MDamage Received",
		"IsAddType": false,
		"IsDynamic": true,
		"PropertyType": "PropertyType_None"
	},
	"54": {
		"ID": 54,
		"PropertyModifyType": "PropertyModifyType_Hero2_IgnoreDFMul",
		"Name": "DEF Immunity Correction",
		"IsAddType": false,
		"IsDynamic": true,
		"PropertyType": "PropertyType_None"
	},
	"55": {
		"ID": 55,
		"PropertyModifyType": "PropertyModifyType_Hero2_SkillDmgMul",
		"Name": "Hero Active Skill Damage Correction",
		"IsAddType": false,
		"IsDynamic": true,
		"PropertyType": "PropertyType_None"
	},
	"56": {
		"ID": 56,
		"PropertyModifyType": "PropertyModifyType_Hero2_BFSkillDmgMul",
		"Name": "Hero Battle Skill Damage Correction",
		"IsAddType": false,
		"IsDynamic": true,
		"PropertyType": "PropertyType_None"
	},
	"57": {
		"ID": 57,
		"PropertyModifyType": "PropertyModifyType_Soldier1_HPAdd",
		"Name": "HP",
		"IsAddType": true,
		"IsDynamic": false,
		"PropertyType": "PropertyType_None"
	},
	"58": {
		"ID": 58,
		"PropertyModifyType": "PropertyModifyType_Soldier1_ATAdd",
		"Name": "ATK Bonus",
		"IsAddType": true,
		"IsDynamic": false,
		"PropertyType": "PropertyType_None"
	},
	"59": {
		"ID": 59,
		"PropertyModifyType": "PropertyModifyType_Soldier1_DFAdd",
		"Name": "DEF",
		"IsAddType": true,
		"IsDynamic": false,
		"PropertyType": "PropertyType_None"
	},
	"60": {
		"ID": 60,
		"PropertyModifyType": "PropertyModifyType_Soldier1_MagicDFAdd",
		"Name": "MDEF Bonus",
		"IsAddType": true,
		"IsDynamic": false,
		"PropertyType": "PropertyType_None"
	},
	"61": {
		"ID": 61,
		"PropertyModifyType": "PropertyModifyType_Soldier1_BFMovePointAdd",
		"Name": "Mobility Bonus",
		"IsAddType": true,
		"IsDynamic": false,
		"PropertyType": "PropertyType_None"
	},
	"62": {
		"ID": 62,
		"PropertyModifyType": "PropertyModifyType_Soldier1_BFAttackDistanceAdd",
		"Name": "Normal Attack Range Bonus",
		"IsAddType": true,
		"IsDynamic": false,
		"PropertyType": "PropertyType_None"
	},
	"63": {
		"ID": 63,
		"PropertyModifyType": "PropertyModifyType_Soldier1_CriticalDamageAdd",
		"Name": "Crit Damage Bonus",
		"IsAddType": true,
		"IsDynamic": false,
		"PropertyType": "PropertyType_None"
	},
	"64": {
		"ID": 64,
		"PropertyModifyType": "PropertyModifyType_Soldier1_CriticalRateAdd",
		"Name": "Crit Bonus",
		"IsAddType": true,
		"IsDynamic": false,
		"PropertyType": "PropertyType_None"
	},
	"65": {
		"ID": 65,
		"PropertyModifyType": "PropertyModifyType_Soldier1_HPMul",
		"Name": "HP %",
		"IsAddType": false,
		"IsDynamic": false,
		"PropertyType": "PropertyType_None"
	},
	"66": {
		"ID": 66,
		"PropertyModifyType": "PropertyModifyType_Soldier1_ATMul",
		"Name": "ATK %",
		"IsAddType": false,
		"IsDynamic": false,
		"PropertyType": "PropertyType_None"
	},
	"67": {
		"ID": 67,
		"PropertyModifyType": "PropertyModifyType_Soldier1_DFMul",
		"Name": "DEF %",
		"IsAddType": false,
		"IsDynamic": false,
		"PropertyType": "PropertyType_None"
	},
	"68": {
		"ID": 68,
		"PropertyModifyType": "PropertyModifyType_Soldier1_MagicDFMul",
		"Name": "MDEF %",
		"IsAddType": false,
		"IsDynamic": false,
		"PropertyType": "PropertyType_None"
	},
	"69": {
		"ID": 69,
		"PropertyModifyType": "PropertyModifyType_Soldier2_HPAdd",
		"Name": "HP",
		"IsAddType": true,
		"IsDynamic": true,
		"PropertyType": "PropertyType_None"
	},
	"70": {
		"ID": 70,
		"PropertyModifyType": "PropertyModifyType_Soldier2_ATAdd",
		"Name": "ATK Bonus",
		"IsAddType": true,
		"IsDynamic": true,
		"PropertyType": "PropertyType_None"
	},
	"71": {
		"ID": 71,
		"PropertyModifyType": "PropertyModifyType_Soldier2_DFAdd",
		"Name": "DEF",
		"IsAddType": true,
		"IsDynamic": true,
		"PropertyType": "PropertyType_None"
	},
	"72": {
		"ID": 72,
		"PropertyModifyType": "PropertyModifyType_Soldier2_MagicDFAdd",
		"Name": "MDEF Bonus",
		"IsAddType": true,
		"IsDynamic": true,
		"PropertyType": "PropertyType_None"
	},
	"73": {
		"ID": 73,
		"PropertyModifyType": "PropertyModifyType_Soldier2_BFMovePointAdd",
		"Name": "Mobility Bonus",
		"IsAddType": true,
		"IsDynamic": true,
		"PropertyType": "PropertyType_None"
	},
	"74": {
		"ID": 74,
		"PropertyModifyType": "PropertyModifyType_Soldier2_BFAttackDistanceAdd",
		"Name": "Normal Attack Range Bonus",
		"IsAddType": true,
		"IsDynamic": true,
		"PropertyType": "PropertyType_None"
	},
	"75": {
		"ID": 75,
		"PropertyModifyType": "PropertyModifyType_Soldier2_CriticalDamageAdd",
		"Name": "Crit Damage Bonus",
		"IsAddType": true,
		"IsDynamic": true,
		"PropertyType": "PropertyType_None"
	},
	"76": {
		"ID": 76,
		"PropertyModifyType": "PropertyModifyType_Soldier2_CriticalRateAdd",
		"Name": "Crit Bonus",
		"IsAddType": true,
		"IsDynamic": true,
		"PropertyType": "PropertyType_None"
	},
	"77": {
		"ID": 77,
		"PropertyModifyType": "PropertyModifyType_Soldier2_HPMul",
		"Name": "HP %",
		"IsAddType": false,
		"IsDynamic": true,
		"PropertyType": "PropertyType_None"
	},
	"78": {
		"ID": 78,
		"PropertyModifyType": "PropertyModifyType_Soldier2_ATMul",
		"Name": "ATK %",
		"IsAddType": false,
		"IsDynamic": true,
		"PropertyType": "PropertyType_None"
	},
	"79": {
		"ID": 79,
		"PropertyModifyType": "PropertyModifyType_Soldier2_DFMul",
		"Name": "DEF %",
		"IsAddType": false,
		"IsDynamic": true,
		"PropertyType": "PropertyType_None"
	},
	"80": {
		"ID": 80,
		"PropertyModifyType": "PropertyModifyType_Soldier2_MagicDFMul",
		"Name": "MDEF %",
		"IsAddType": false,
		"IsDynamic": true,
		"PropertyType": "PropertyType_None"
	},
	"81": {
		"ID": 81,
		"PropertyModifyType": "PropertyModifyType_Soldier2_PsyDmgMul",
		"Name": "Physical Damage %",
		"IsAddType": false,
		"IsDynamic": true,
		"PropertyType": "PropertyType_None"
	},
	"82": {
		"ID": 82,
		"PropertyModifyType": "PropertyModifyType_Soldier2_PsyDmgRecvMul",
		"Name": "Received Physical Damage %",
		"IsAddType": false,
		"IsDynamic": true,
		"PropertyType": "PropertyType_None"
	},
	"83": {
		"ID": 83,
		"PropertyModifyType": "PropertyModifyType_Soldier2_SuperPsyDmgRecvMul",
		"Name": "Ultimate Received Physical Damage",
		"IsAddType": false,
		"IsDynamic": true,
		"PropertyType": "PropertyType_None"
	},
	"84": {
		"ID": 84,
		"PropertyModifyType": "PropertyModifyType_Soldier2_MagicDmgRecvMul",
		"Name": "MDamage Taken %",
		"IsAddType": false,
		"IsDynamic": true,
		"PropertyType": "PropertyType_None"
	},
	"85": {
		"ID": 85,
		"PropertyModifyType": "PropertyModifyType_Soldier2_SuperMagicDmgRecvMul",
		"Name": "Ultimate MDamage Received",
		"IsAddType": false,
		"IsDynamic": true,
		"PropertyType": "PropertyType_None"
	},
	"86": {
		"ID": 86,
		"PropertyModifyType": "PropertyModifyType_Soldier2_IgnoreDFMul",
		"Name": "DEF Immunity Correction%",
		"IsAddType": false,
		"IsDynamic": true,
		"PropertyType": "PropertyType_None"
	},
	"87": {
		"ID": 87,
		"PropertyModifyType": "PropertyModifyType_Hero3_HPAdd",
		"Name": "HP",
		"IsAddType": true,
		"IsDynamic": false,
		"PropertyType": "PropertyType_None"
	},
	"88": {
		"ID": 88,
		"PropertyModifyType": "PropertyModifyType_Hero3_ATAdd",
		"Name": "ATK",
		"IsAddType": true,
		"IsDynamic": false,
		"PropertyType": "PropertyType_None"
	},
	"89": {
		"ID": 89,
		"PropertyModifyType": "PropertyModifyType_Hero3_DFAdd",
		"Name": "DEF",
		"IsAddType": true,
		"IsDynamic": false,
		"PropertyType": "PropertyType_None"
	},
	"90": {
		"ID": 90,
		"PropertyModifyType": "PropertyModifyType_Hero3_MagicAdd",
		"Name": "INT",
		"IsAddType": true,
		"IsDynamic": false,
		"PropertyType": "PropertyType_None"
	},
	"91": {
		"ID": 91,
		"PropertyModifyType": "PropertyModifyType_Hero3_MagicDFAdd",
		"Name": "MDEF",
		"IsAddType": true,
		"IsDynamic": false,
		"PropertyType": "PropertyType_None"
	},
	"92": {
		"ID": 92,
		"PropertyModifyType": "PropertyModifyType_Hero3_DEXAdd",
		"Name": "SKILL",
		"IsAddType": true,
		"IsDynamic": false,
		"PropertyType": "PropertyType_None"
	},
	"93": {
		"ID": 93,
		"PropertyModifyType": "PropertyModifyType_Hero3_HPCmdAdd",
		"Name": "Life Command",
		"IsAddType": true,
		"IsDynamic": false,
		"PropertyType": "PropertyType_None"
	},
	"94": {
		"ID": 94,
		"PropertyModifyType": "PropertyModifyType_Hero3_ATCmdAdd",
		"Name": "ATK Command",
		"IsAddType": true,
		"IsDynamic": false,
		"PropertyType": "PropertyType_None"
	},
	"95": {
		"ID": 95,
		"PropertyModifyType": "PropertyModifyType_Hero3_DFCmdAdd",
		"Name": "DEF Command",
		"IsAddType": true,
		"IsDynamic": false,
		"PropertyType": "PropertyType_None"
	},
	"96": {
		"ID": 96,
		"PropertyModifyType": "PropertyModifyType_Hero3_MagicDFCmdAdd",
		"Name": "MDEF Command",
		"IsAddType": true,
		"IsDynamic": false,
		"PropertyType": "PropertyType_None"
	},
	"97": {
		"ID": 97,
		"PropertyModifyType": "PropertyModifyType_Hero3_CriticalDamageAdd",
		"Name": "Crit Damage",
		"IsAddType": false,
		"IsDynamic": false,
		"PropertyType": "PropertyType_None"
	},
	"98": {
		"ID": 98,
		"PropertyModifyType": "PropertyModifyType_Hero3_CriticalRateAdd",
		"Name": "Crit",
		"IsAddType": false,
		"IsDynamic": false,
		"PropertyType": "PropertyType_None"
	},
	"99": {
		"ID": 99,
		"PropertyModifyType": "PropertyModifyType_Hero3_HPMul",
		"Name": "HP",
		"IsAddType": false,
		"IsDynamic": false,
		"PropertyType": "PropertyType_None"
	},
	"100": {
		"ID": 100,
		"PropertyModifyType": "PropertyModifyType_Hero3_ATMul",
		"Name": "ATK",
		"IsAddType": false,
		"IsDynamic": false,
		"PropertyType": "PropertyType_None"
	},
	"101": {
		"ID": 101,
		"PropertyModifyType": "PropertyModifyType_Hero3_DFMul",
		"Name": "DEF",
		"IsAddType": false,
		"IsDynamic": false,
		"PropertyType": "PropertyType_None"
	},
	"102": {
		"ID": 102,
		"PropertyModifyType": "PropertyModifyType_Hero3_MagicMul",
		"Name": "INT",
		"IsAddType": false,
		"IsDynamic": false,
		"PropertyType": "PropertyType_None"
	},
	"103": {
		"ID": 103,
		"PropertyModifyType": "PropertyModifyType_Hero3_MagicDFMul",
		"Name": "MDEF",
		"IsAddType": false,
		"IsDynamic": false,
		"PropertyType": "PropertyType_None"
	},
	"104": {
		"ID": 104,
		"PropertyModifyType": "PropertyModifyType_Hero3_DEXMul",
		"Name": "SKILL",
		"IsAddType": false,
		"IsDynamic": false,
		"PropertyType": "PropertyType_None"
	},
	"105": {
		"ID": 105,
		"PropertyModifyType": "PropertyModifyType_Hero2_RangeDmgRecvMul",
		"Name": "Received Ranged Damage %",
		"IsAddType": false,
		"IsDynamic": true,
		"PropertyType": "PropertyType_None"
	},
	"106": {
		"ID": 106,
		"PropertyModifyType": "PropertyModifyType_Soldier2_RangeDmgRecvMul",
		"Name": "Received Ranged Damage %",
		"IsAddType": false,
		"IsDynamic": true,
		"PropertyType": "PropertyType_None"
	},
	"107": {
		"ID": 107,
		"PropertyModifyType": "PropertyModifyType_Hero2_RecvCriticalRateAdd",
		"Name": "Received Crit",
		"IsAddType": false,
		"IsDynamic": true,
		"PropertyType": "PropertyType_None"
	},
	"108": {
		"ID": 108,
		"PropertyModifyType": "PropertyModifyType_Soldier2_RecvCriticalRateAdd",
		"Name": "Received Crit",
		"IsAddType": false,
		"IsDynamic": true,
		"PropertyType": "PropertyType_None"
	},
	"109": {
		"ID": 109,
		"PropertyModifyType": "PropertyModifyType_Soldier2_MagicDmgMul",
		"Name": "MDamage",
		"IsAddType": false,
		"IsDynamic": true,
		"PropertyType": "PropertyType_None"
	},
	"110": {
		"ID": 110,
		"PropertyModifyType": "PropertyModifyType_Hero2_TrueDmgMul",
		"Name": "Type amount",
		"IsAddType": false,
		"IsDynamic": true,
		"PropertyType": "PropertyType_None"
	},
	"111": {
		"ID": 111,
		"PropertyModifyType": "PropertyModifyType_Hero2_RecvTrueDmgMul",
		"Name": "遭受固定伤害修正",
		"IsAddType": false,
		"IsDynamic": true,
		"PropertyType": "PropertyType_None"
	},
	"112": {
		"ID": 112,
		"PropertyModifyType": "PropertyModifyType_Hero2_RecvBFSkillDmgMul",
		"Name": "遭受范围伤害修正",
		"IsAddType": false,
		"IsDynamic": true,
		"PropertyType": "PropertyType_None"
	},
	"113": {
		"ID": 113,
		"PropertyModifyType": "PropertyModifyType_Soldier2_RecvBFSkillDmgMul",
		"Name": "遭受范围伤害修正",
		"IsAddType": false,
		"IsDynamic": true,
		"PropertyType": "PropertyType_None"
	},
	"114": {
		"ID": 114,
		"PropertyModifyType": "PropertyModifyType_Hero2_MagicBFSkillRangeAdd",
		"Name": "魔法范围技能范围修正",
		"IsAddType": true,
		"IsDynamic": true,
		"PropertyType": "PropertyType_None"
	},
	"115": {
		"ID": 115,
		"PropertyModifyType": "PropertyModifyType_Hero2_PsyBFSkillRangeAdd",
		"Name": "物理范围技能范围修正",
		"IsAddType": true,
		"IsDynamic": true,
		"PropertyType": "PropertyType_None"
	}
}