{
	"1": {
		"ID": 1,
		"Name": "Bronze III",
		"BPRule": 0,
		"RelegationScore": 0,
		"PromotionScore": 1099,
		"PostSeasonScoreDecrease": 0,
		"ConsecutiveWinScoreBonus": [
			{
				"ConsecutiveWins": 2,
				"ScoreBonus": 1000
			},
			{
				"ConsecutiveWins": 3,
				"ScoreBonus": 2000
			},
			{
				"ConsecutiveWins": 5,
				"ScoreBonus": 3000
			}
		],
		"ConsecutiveLossScoreProtection": [
			{
				"ConsecutiveLosses": 2,
				"ScoreProtection": 0
			}
		],
		"WinBasicScore": 30,
		"DanDiffUpperBound": 1,
		"DanDiffLowerBound": 3,
		"WaitingTimeAdjustment": [
			{
				"WaitingTime": 10000,
				"Min": 1,
				"Max": 1
			},
			{
				"WaitingTime": 20000,
				"Min": 1,
				"Max": 2
			},
			{
				"WaitingTime": 30000,
				"Min": 1,
				"Max": 3
			}
		],
		"ConsecutiveWinsMatchmakingAdjustment": [
			{
				"Count": 2,
				"DanMin": 1,
				"DanMax": 3
			},
			{
				"Count": 3,
				"DanMin": 2,
				"DanMax": 3
			}
		],
		"ConsecutiveLossesMatchmakingAdjustment": [
			{
				"Count": 2,
				"DanMin": 1,
				"DanMax": 1,
				"IsBot": false,
				"BotLevelAdjustment": 0
			},
			{
				"Count": 3,
				"DanMin": 1,
				"DanMax": 1,
				"IsBot": true,
				"BotLevelAdjustment": -5
			}
		],
		"MatchmakingFailAdjustment": [
			{
				"DanMin": 1,
				"DanMax": 1,
				"IsBot": true,
				"BotLevelAdjustment": -5
			}
		],
		"PromotionChallengeCount": 3,
		"PromotionChallengeWinsRequired": 1,
		"Icon": "UI/Arena_ABS/RankIcon/RankIcon_01.png",
		"FriendlyWaitingTimeAdjustment": [
			{
				"WaitingTime": 15000,
				"TopBattlePowerMin": 9000,
				"TopBattlePowerMax": 11000
			},
			{
				"WaitingTime": 30000,
				"TopBattlePowerMin": 8000,
				"TopBattlePowerMax": 12000
			}
		],
		"LossBasicScore": -10
	},
	"2": {
		"ID": 2,
		"Name": "Bronze II",
		"BPRule": 0,
		"RelegationScore": 1100,
		"PromotionScore": 1199,
		"PostSeasonScoreDecrease": 100,
		"ConsecutiveWinScoreBonus": [
			{
				"ConsecutiveWins": 2,
				"ScoreBonus": 1000
			},
			{
				"ConsecutiveWins": 3,
				"ScoreBonus": 2000
			},
			{
				"ConsecutiveWins": 5,
				"ScoreBonus": 3000
			}
		],
		"ConsecutiveLossScoreProtection": [
			{
				"ConsecutiveLosses": 2,
				"ScoreProtection": 0
			}
		],
		"WinBasicScore": 30,
		"DanDiffUpperBound": 1,
		"DanDiffLowerBound": 3,
		"WaitingTimeAdjustment": [
			{
				"WaitingTime": 10000,
				"Min": 2,
				"Max": 2
			},
			{
				"WaitingTime": 20000,
				"Min": 2,
				"Max": 3
			},
			{
				"WaitingTime": 30000,
				"Min": 1,
				"Max": 3
			}
		],
		"ConsecutiveWinsMatchmakingAdjustment": [
			{
				"Count": 2,
				"DanMin": 2,
				"DanMax": 3
			},
			{
				"Count": 3,
				"DanMin": 2,
				"DanMax": 3
			}
		],
		"ConsecutiveLossesMatchmakingAdjustment": [
			{
				"Count": 2,
				"DanMin": 1,
				"DanMax": 1,
				"IsBot": false,
				"BotLevelAdjustment": 0
			},
			{
				"Count": 3,
				"DanMin": 1,
				"DanMax": 2,
				"IsBot": true,
				"BotLevelAdjustment": -5
			}
		],
		"MatchmakingFailAdjustment": [
			{
				"DanMin": 2,
				"DanMax": 2,
				"IsBot": true,
				"BotLevelAdjustment": -5
			}
		],
		"PromotionChallengeCount": 3,
		"PromotionChallengeWinsRequired": 1,
		"Icon": "UI/Arena_ABS/RankIcon/RankIcon_02.png",
		"FriendlyWaitingTimeAdjustment": [
			{
				"WaitingTime": 15000,
				"TopBattlePowerMin": 9000,
				"TopBattlePowerMax": 11000
			},
			{
				"WaitingTime": 30000,
				"TopBattlePowerMin": 8000,
				"TopBattlePowerMax": 12000
			}
		],
		"LossBasicScore": -10
	},
	"3": {
		"ID": 3,
		"Name": "Bronze I",
		"BPRule": 0,
		"RelegationScore": 1200,
		"PromotionScore": 1299,
		"PostSeasonScoreDecrease": 100,
		"ConsecutiveWinScoreBonus": [
			{
				"ConsecutiveWins": 2,
				"ScoreBonus": 1000
			},
			{
				"ConsecutiveWins": 3,
				"ScoreBonus": 2000
			},
			{
				"ConsecutiveWins": 5,
				"ScoreBonus": 3000
			}
		],
		"ConsecutiveLossScoreProtection": [
			{
				"ConsecutiveLosses": 2,
				"ScoreProtection": 0
			}
		],
		"WinBasicScore": 30,
		"DanDiffUpperBound": 1,
		"DanDiffLowerBound": 3,
		"WaitingTimeAdjustment": [
			{
				"WaitingTime": 10000,
				"Min": 3,
				"Max": 3
			},
			{
				"WaitingTime": 20000,
				"Min": 2,
				"Max": 3
			},
			{
				"WaitingTime": 30000,
				"Min": 1,
				"Max": 3
			}
		],
		"ConsecutiveWinsMatchmakingAdjustment": [
			{
				"Count": 2,
				"DanMin": 2,
				"DanMax": 3
			},
			{
				"Count": 3,
				"DanMin": 2,
				"DanMax": 3
			}
		],
		"ConsecutiveLossesMatchmakingAdjustment": [
			{
				"Count": 2,
				"DanMin": 1,
				"DanMax": 2,
				"IsBot": false,
				"BotLevelAdjustment": 0
			},
			{
				"Count": 3,
				"DanMin": 1,
				"DanMax": 3,
				"IsBot": true,
				"BotLevelAdjustment": -5
			}
		],
		"MatchmakingFailAdjustment": [
			{
				"DanMin": 3,
				"DanMax": 3,
				"IsBot": true,
				"BotLevelAdjustment": -5
			}
		],
		"PromotionChallengeCount": 3,
		"PromotionChallengeWinsRequired": 1,
		"Icon": "UI/Arena_ABS/RankIcon/RankIcon_03.png",
		"FriendlyWaitingTimeAdjustment": [
			{
				"WaitingTime": 15000,
				"TopBattlePowerMin": 9000,
				"TopBattlePowerMax": 11000
			},
			{
				"WaitingTime": 30000,
				"TopBattlePowerMin": 8000,
				"TopBattlePowerMax": 12000
			}
		],
		"LossBasicScore": -10
	},
	"4": {
		"ID": 4,
		"Name": "Silver III",
		"BPRule": 1,
		"RelegationScore": 1300,
		"PromotionScore": 1399,
		"PostSeasonScoreDecrease": 100,
		"ConsecutiveWinScoreBonus": [
			{
				"ConsecutiveWins": 2,
				"ScoreBonus": 1000
			},
			{
				"ConsecutiveWins": 3,
				"ScoreBonus": 2000
			},
			{
				"ConsecutiveWins": 5,
				"ScoreBonus": 3000
			}
		],
		"ConsecutiveLossScoreProtection": [
			{
				"ConsecutiveLosses": 2,
				"ScoreProtection": 0
			}
		],
		"WinBasicScore": 15,
		"DanDiffUpperBound": 4,
		"DanDiffLowerBound": 6,
		"WaitingTimeAdjustment": [
			{
				"WaitingTime": 10000,
				"Min": 4,
				"Max": 4
			},
			{
				"WaitingTime": 20000,
				"Min": 4,
				"Max": 5
			},
			{
				"WaitingTime": 30000,
				"Min": 4,
				"Max": 6
			}
		],
		"ConsecutiveWinsMatchmakingAdjustment": [
			{
				"Count": 2,
				"DanMin": 4,
				"DanMax": 5
			},
			{
				"Count": 3,
				"DanMin": 5,
				"DanMax": 6
			}
		],
		"ConsecutiveLossesMatchmakingAdjustment": [
			{
				"Count": 2,
				"DanMin": 4,
				"DanMax": 4,
				"IsBot": false,
				"BotLevelAdjustment": 0
			},
			{
				"Count": 3,
				"DanMin": 4,
				"DanMax": 4,
				"IsBot": true,
				"BotLevelAdjustment": -5
			}
		],
		"MatchmakingFailAdjustment": [
			{
				"DanMin": 4,
				"DanMax": 4,
				"IsBot": true,
				"BotLevelAdjustment": -5
			}
		],
		"PromotionChallengeCount": 5,
		"PromotionChallengeWinsRequired": 2,
		"Icon": "UI/Arena_ABS/RankIcon/RankIcon_04.png",
		"FriendlyWaitingTimeAdjustment": [
			{
				"WaitingTime": 15000,
				"TopBattlePowerMin": 9000,
				"TopBattlePowerMax": 11000
			},
			{
				"WaitingTime": 30000,
				"TopBattlePowerMin": 8000,
				"TopBattlePowerMax": 12000
			}
		],
		"LossBasicScore": -10
	},
	"5": {
		"ID": 5,
		"Name": "Silver II",
		"BPRule": 1,
		"RelegationScore": 1400,
		"PromotionScore": 1499,
		"PostSeasonScoreDecrease": 100,
		"ConsecutiveWinScoreBonus": [
			{
				"ConsecutiveWins": 2,
				"ScoreBonus": 1000
			},
			{
				"ConsecutiveWins": 3,
				"ScoreBonus": 2000
			},
			{
				"ConsecutiveWins": 5,
				"ScoreBonus": 3000
			}
		],
		"ConsecutiveLossScoreProtection": [
			{
				"ConsecutiveLosses": 2,
				"ScoreProtection": 0
			}
		],
		"WinBasicScore": 15,
		"DanDiffUpperBound": 4,
		"DanDiffLowerBound": 6,
		"WaitingTimeAdjustment": [
			{
				"WaitingTime": 10000,
				"Min": 5,
				"Max": 5
			},
			{
				"WaitingTime": 20000,
				"Min": 5,
				"Max": 6
			},
			{
				"WaitingTime": 30000,
				"Min": 4,
				"Max": 6
			}
		],
		"ConsecutiveWinsMatchmakingAdjustment": [
			{
				"Count": 2,
				"DanMin": 5,
				"DanMax": 6
			},
			{
				"Count": 3,
				"DanMin": 5,
				"DanMax": 6
			}
		],
		"ConsecutiveLossesMatchmakingAdjustment": [
			{
				"Count": 2,
				"DanMin": 4,
				"DanMax": 4,
				"IsBot": false,
				"BotLevelAdjustment": 0
			},
			{
				"Count": 3,
				"DanMin": 4,
				"DanMax": 4,
				"IsBot": true,
				"BotLevelAdjustment": -5
			}
		],
		"MatchmakingFailAdjustment": [
			{
				"DanMin": 5,
				"DanMax": 5,
				"IsBot": true,
				"BotLevelAdjustment": -5
			}
		],
		"PromotionChallengeCount": 5,
		"PromotionChallengeWinsRequired": 2,
		"Icon": "UI/Arena_ABS/RankIcon/RankIcon_05.png",
		"FriendlyWaitingTimeAdjustment": [
			{
				"WaitingTime": 15000,
				"TopBattlePowerMin": 9000,
				"TopBattlePowerMax": 11000
			},
			{
				"WaitingTime": 30000,
				"TopBattlePowerMin": 8000,
				"TopBattlePowerMax": 12000
			}
		],
		"LossBasicScore": -10
	},
	"6": {
		"ID": 6,
		"Name": "Silver I",
		"BPRule": 1,
		"RelegationScore": 1500,
		"PromotionScore": 1599,
		"PostSeasonScoreDecrease": 100,
		"ConsecutiveWinScoreBonus": [
			{
				"ConsecutiveWins": 2,
				"ScoreBonus": 1000
			},
			{
				"ConsecutiveWins": 3,
				"ScoreBonus": 2000
			},
			{
				"ConsecutiveWins": 5,
				"ScoreBonus": 3000
			}
		],
		"ConsecutiveLossScoreProtection": [
			{
				"ConsecutiveLosses": 2,
				"ScoreProtection": 0
			}
		],
		"WinBasicScore": 15,
		"DanDiffUpperBound": 4,
		"DanDiffLowerBound": 6,
		"WaitingTimeAdjustment": [
			{
				"WaitingTime": 10000,
				"Min": 6,
				"Max": 6
			},
			{
				"WaitingTime": 20000,
				"Min": 5,
				"Max": 6
			},
			{
				"WaitingTime": 30000,
				"Min": 4,
				"Max": 6
			}
		],
		"ConsecutiveWinsMatchmakingAdjustment": [
			{
				"Count": 2,
				"DanMin": 6,
				"DanMax": 6
			},
			{
				"Count": 3,
				"DanMin": 6,
				"DanMax": 6
			}
		],
		"ConsecutiveLossesMatchmakingAdjustment": [
			{
				"Count": 2,
				"DanMin": 4,
				"DanMax": 5,
				"IsBot": false,
				"BotLevelAdjustment": 0
			},
			{
				"Count": 3,
				"DanMin": 4,
				"DanMax": 5,
				"IsBot": true,
				"BotLevelAdjustment": -5
			}
		],
		"MatchmakingFailAdjustment": [
			{
				"DanMin": 6,
				"DanMax": 6,
				"IsBot": true,
				"BotLevelAdjustment": -5
			}
		],
		"PromotionChallengeCount": 5,
		"PromotionChallengeWinsRequired": 2,
		"Icon": "UI/Arena_ABS/RankIcon/RankIcon_06.png",
		"FriendlyWaitingTimeAdjustment": [
			{
				"WaitingTime": 15000,
				"TopBattlePowerMin": 9000,
				"TopBattlePowerMax": 11000
			},
			{
				"WaitingTime": 30000,
				"TopBattlePowerMin": 8000,
				"TopBattlePowerMax": 12000
			}
		],
		"LossBasicScore": -10
	},
	"7": {
		"ID": 7,
		"Name": "Gold III",
		"BPRule": 2,
		"RelegationScore": 1600,
		"PromotionScore": 1699,
		"PostSeasonScoreDecrease": 100,
		"ConsecutiveWinScoreBonus": [
			{
				"ConsecutiveWins": 2,
				"ScoreBonus": 1000
			},
			{
				"ConsecutiveWins": 3,
				"ScoreBonus": 2000
			},
			{
				"ConsecutiveWins": 5,
				"ScoreBonus": 3000
			}
		],
		"ConsecutiveLossScoreProtection": [
			{
				"ConsecutiveLosses": 2,
				"ScoreProtection": 0
			}
		],
		"WinBasicScore": 10,
		"DanDiffUpperBound": 7,
		"DanDiffLowerBound": 10,
		"WaitingTimeAdjustment": [
			{
				"WaitingTime": 10000,
				"Min": 7,
				"Max": 7
			},
			{
				"WaitingTime": 20000,
				"Min": 7,
				"Max": 8
			},
			{
				"WaitingTime": 30000,
				"Min": 7,
				"Max": 9
			}
		],
		"ConsecutiveWinsMatchmakingAdjustment": [
			{
				"Count": 2,
				"DanMin": 7,
				"DanMax": 9
			},
			{
				"Count": 3,
				"DanMin": 8,
				"DanMax": 9
			}
		],
		"ConsecutiveLossesMatchmakingAdjustment": [
			{
				"Count": 2,
				"DanMin": 7,
				"DanMax": 7,
				"IsBot": false,
				"BotLevelAdjustment": 0
			}
		],
		"MatchmakingFailAdjustment": [
			{
				"DanMin": 7,
				"DanMax": 7,
				"IsBot": false,
				"BotLevelAdjustment": 0
			}
		],
		"PromotionChallengeCount": 5,
		"PromotionChallengeWinsRequired": 3,
		"Icon": "UI/Arena_ABS/RankIcon/RankIcon_07.png",
		"FriendlyWaitingTimeAdjustment": [
			{
				"WaitingTime": 15000,
				"TopBattlePowerMin": 9000,
				"TopBattlePowerMax": 11000
			},
			{
				"WaitingTime": 30000,
				"TopBattlePowerMin": 8000,
				"TopBattlePowerMax": 12000
			}
		],
		"LossBasicScore": -10
	},
	"8": {
		"ID": 8,
		"Name": "Gold II",
		"BPRule": 2,
		"RelegationScore": 1700,
		"PromotionScore": 1799,
		"PostSeasonScoreDecrease": 100,
		"ConsecutiveWinScoreBonus": [
			{
				"ConsecutiveWins": 2,
				"ScoreBonus": 1000
			},
			{
				"ConsecutiveWins": 3,
				"ScoreBonus": 2000
			},
			{
				"ConsecutiveWins": 5,
				"ScoreBonus": 3000
			}
		],
		"ConsecutiveLossScoreProtection": [
			{
				"ConsecutiveLosses": 2,
				"ScoreProtection": 0
			}
		],
		"WinBasicScore": 10,
		"DanDiffUpperBound": 7,
		"DanDiffLowerBound": 10,
		"WaitingTimeAdjustment": [
			{
				"WaitingTime": 10000,
				"Min": 8,
				"Max": 8
			},
			{
				"WaitingTime": 20000,
				"Min": 7,
				"Max": 9
			},
			{
				"WaitingTime": 30000,
				"Min": 7,
				"Max": 10
			}
		],
		"ConsecutiveWinsMatchmakingAdjustment": [
			{
				"Count": 2,
				"DanMin": 8,
				"DanMax": 9
			},
			{
				"Count": 3,
				"DanMin": 9,
				"DanMax": 10
			}
		],
		"ConsecutiveLossesMatchmakingAdjustment": [
			{
				"Count": 2,
				"DanMin": 7,
				"DanMax": 7,
				"IsBot": false,
				"BotLevelAdjustment": 0
			}
		],
		"MatchmakingFailAdjustment": [
			{
				"DanMin": 7,
				"DanMax": 7,
				"IsBot": false,
				"BotLevelAdjustment": 0
			}
		],
		"PromotionChallengeCount": 5,
		"PromotionChallengeWinsRequired": 4,
		"Icon": "UI/Arena_ABS/RankIcon/RankIcon_08.png",
		"FriendlyWaitingTimeAdjustment": [
			{
				"WaitingTime": 15000,
				"TopBattlePowerMin": 9000,
				"TopBattlePowerMax": 11000
			},
			{
				"WaitingTime": 30000,
				"TopBattlePowerMin": 8000,
				"TopBattlePowerMax": 12000
			}
		],
		"LossBasicScore": -10
	},
	"9": {
		"ID": 9,
		"Name": "Gold I",
		"BPRule": 2,
		"RelegationScore": 1800,
		"PromotionScore": 1899,
		"PostSeasonScoreDecrease": 100,
		"ConsecutiveWinScoreBonus": [
			{
				"ConsecutiveWins": 2,
				"ScoreBonus": 1000
			},
			{
				"ConsecutiveWins": 3,
				"ScoreBonus": 2000
			},
			{
				"ConsecutiveWins": 5,
				"ScoreBonus": 3000
			}
		],
		"ConsecutiveLossScoreProtection": [
			{
				"ConsecutiveLosses": 2,
				"ScoreProtection": 0
			}
		],
		"WinBasicScore": 10,
		"DanDiffUpperBound": 7,
		"DanDiffLowerBound": 10,
		"WaitingTimeAdjustment": [
			{
				"WaitingTime": 10000,
				"Min": 9,
				"Max": 9
			},
			{
				"WaitingTime": 20000,
				"Min": 8,
				"Max": 10
			},
			{
				"WaitingTime": 30000,
				"Min": 7,
				"Max": 10
			}
		],
		"ConsecutiveWinsMatchmakingAdjustment": [
			{
				"Count": 2,
				"DanMin": 9,
				"DanMax": 9
			},
			{
				"Count": 3,
				"DanMin": 9,
				"DanMax": 10
			}
		],
		"ConsecutiveLossesMatchmakingAdjustment": [
			{
				"Count": 2,
				"DanMin": 7,
				"DanMax": 8,
				"IsBot": false,
				"BotLevelAdjustment": 0
			}
		],
		"MatchmakingFailAdjustment": [
			{
				"DanMin": 7,
				"DanMax": 7,
				"IsBot": false,
				"BotLevelAdjustment": 0
			}
		],
		"PromotionChallengeCount": 5,
		"PromotionChallengeWinsRequired": 5,
		"Icon": "UI/Arena_ABS/RankIcon/RankIcon_09.png",
		"FriendlyWaitingTimeAdjustment": [
			{
				"WaitingTime": 15000,
				"TopBattlePowerMin": 9000,
				"TopBattlePowerMax": 11000
			},
			{
				"WaitingTime": 30000,
				"TopBattlePowerMin": 8000,
				"TopBattlePowerMax": 12000
			}
		],
		"LossBasicScore": -10
	},
	"10": {
		"ID": 10,
		"Name": "Langrisser",
		"BPRule": 2,
		"RelegationScore": 1900,
		"PromotionScore": 9999,
		"PostSeasonScoreDecrease": 100,
		"ConsecutiveWinScoreBonus": [
			{
				"ConsecutiveWins": 2,
				"ScoreBonus": 1000
			},
			{
				"ConsecutiveWins": 3,
				"ScoreBonus": 2000
			},
			{
				"ConsecutiveWins": 5,
				"ScoreBonus": 3000
			}
		],
		"ConsecutiveLossScoreProtection": [
			{
				"ConsecutiveLosses": 2,
				"ScoreProtection": 0
			}
		],
		"WinBasicScore": 10,
		"DanDiffUpperBound": 7,
		"DanDiffLowerBound": 10,
		"WaitingTimeAdjustment": [
			{
				"WaitingTime": 10000,
				"Min": 10,
				"Max": 10
			},
			{
				"WaitingTime": 20000,
				"Min": 9,
				"Max": 10
			},
			{
				"WaitingTime": 30000,
				"Min": 8,
				"Max": 10
			}
		],
		"ConsecutiveWinsMatchmakingAdjustment": [
			{
				"Count": 2,
				"DanMin": 10,
				"DanMax": 10
			},
			{
				"Count": 3,
				"DanMin": 10,
				"DanMax": 10
			}
		],
		"ConsecutiveLossesMatchmakingAdjustment": [
			{
				"Count": 2,
				"DanMin": 8,
				"DanMax": 9,
				"IsBot": false,
				"BotLevelAdjustment": 0
			}
		],
		"MatchmakingFailAdjustment": [
			{
				"DanMin": 7,
				"DanMax": 7,
				"IsBot": false,
				"BotLevelAdjustment": 0
			}
		],
		"PromotionChallengeCount": 5,
		"PromotionChallengeWinsRequired": 3,
		"Icon": "UI/Arena_ABS/RankIcon/RankIcon_10.png",
		"FriendlyWaitingTimeAdjustment": [
			{
				"WaitingTime": 15000,
				"TopBattlePowerMin": 9000,
				"TopBattlePowerMax": 11000
			},
			{
				"WaitingTime": 30000,
				"TopBattlePowerMin": 8000,
				"TopBattlePowerMax": 12000
			}
		],
		"LossBasicScore": -10
	}
}